real_time,user_time,sys_time,max_rss,max_vsz
838424,3327,0,101488,10743612
820035,0,0,101748,10743612
820623,3333,0,101928,10678076
822737,0,0,101392,10743612
817724,0,0,101660,10743612
827819,0,0,101596,10743612
823476,3333,0,101560,10743612
835509,0,3333,101736,10743612
820685,0,3333,101652,10743612
824214,3331,0,101504,10743612
828930,0,0,101756,10743612
832829,0,3329,101588,10678076
820597,3330,0,101568,10743612
833119,0,0,101556,10743612
825786,0,0,101508,10743612
819932,0,3333,101592,10743612
817753,3333,0,101536,10743612
828998,0,0,101868,10743612
823826,0,0,101536,10743612
824391,0,3333,101636,10678076
