real_time,user_time,sys_time,max_rss,max_vsz
69768,69931,0,3412,5116
72886,73241,0,3464,5116
71458,73272,0,3404,5116
69817,69849,0,3384,5116
73130,69947,3332,3456,5116
67850,63236,3331,3344,5116
67148,69917,0,3452,5116
68048,66621,0,3476,5116
66483,66550,0,3348,5116
78281,73155,6657,3468,5116
71754,73203,0,3476,5116
67699,66622,0,3476,5116
68156,69920,0,3352,5116
67610,66583,0,3476,5116
68058,66592,3332,3480,5116
67473,66609,0,3476,5116
69024,69933,0,3436,5116
67433,66601,0,3388,5116
67434,66588,3333,3480,5116
67643,66572,0,3404,5116
