%!PS-Adobe-3.0 EPSF-3.0
%%Title: add-delete_plot_all.eps
%%Creator: Matplotlib v3.5.0, https://matplotlib.org/
%%CreationDate: Thu Dec  9 23:55:39 2021
%%Orientation: portrait
%%BoundingBox: -511 0 1124 792
%%HiResBoundingBox: -511.694034 0.333750 1123.694034 791.666250
%%EndComments
%%BeginProlog
/mpldict 11 dict def
mpldict begin
/_d { bind def } bind def
/m { moveto } _d
/l { lineto } _d
/r { rlineto } _d
/c { curveto } _d
/cl { closepath } _d
/ce { closepath eofill } _d
/box {
      m
      1 index 0 r
      0 exch r
      neg 0 r
      cl
    } _d
/clipbox {
      box
      clip
      newpath
    } _d
/sc { setcachedevice } _d
%!PS-Adobe-3.0 Resource-Font
%%Creator: Converted from TrueType to Type 3 by Matplotlib.
10 dict begin
/FontName /DejaVuSans def
/PaintType 0 def
/FontMatrix [0.00048828125 0 0 0.00048828125 0 0] def
/FontBBox [-2090 -948 3673 2524] def
/FontType 3 def
/Encoding [/space /numbersign /parenleft /parenright /zero /one /two /three /four /B /D /E /F /J /L /M /R /S /T /a /c /d /e /i /l /m /n /o /p /r /s /t /u /x /z] def
/CharStrings 36 dict dup begin
/.notdef 0 def
/space{651 0 0 0 0 0 sc
ce} _d
/numbersign{1716 0 158 0 1559 1470 sc
1047 901 m
756 901 l
672 567 l
965 567 l
1047 901 l

897 1470 m
793 1055 l
1085 1055 l
1190 1470 l
1350 1470 l
1247 1055 l
1559 1055 l
1559 901 l
1208 901 l
1126 567 l
1444 567 l
1444 414 l
1087 414 l
983 0 l
823 0 l
926 414 l
633 414 l
530 0 l
369 0 l
473 414 l
158 414 l
158 567 l
510 567 l
594 901 l
272 901 l
272 1055 l
633 1055 l
735 1470 l
897 1470 l

ce} _d
/parenleft{799 0 176 -270 635 1554 sc
635 1554 m
546 1401 479 1249 436 1099 c
393 949 371 797 371 643 c
371 489 393 336 436 185 c
480 34 546 -117 635 -270 c
475 -270 l
375 -113 300 41 250 192 c
201 343 176 494 176 643 c
176 792 201 941 250 1092 c
299 1243 374 1397 475 1554 c
635 1554 l

ce} _d
/parenright{799 0 164 -270 623 1554 sc
164 1554 m
324 1554 l
424 1397 499 1243 548 1092 c
598 941 623 792 623 643 c
623 494 598 343 548 192 c
499 41 424 -113 324 -270 c
164 -270 l
253 -117 319 34 362 185 c
406 336 428 489 428 643 c
428 797 406 949 362 1099 c
319 1249 253 1401 164 1554 c

ce} _d
/zero{1303 0 135 -29 1167 1520 sc
651 1360 m
547 1360 469 1309 416 1206 c
364 1104 338 950 338 745 c
338 540 364 387 416 284 c
469 182 547 131 651 131 c
756 131 834 182 886 284 c
939 387 965 540 965 745 c
965 950 939 1104 886 1206 c
834 1309 756 1360 651 1360 c

651 1520 m
818 1520 946 1454 1034 1321 c
1123 1189 1167 997 1167 745 c
1167 494 1123 302 1034 169 c
946 37 818 -29 651 -29 c
484 -29 356 37 267 169 c
179 302 135 494 135 745 c
135 997 179 1189 267 1321 c
356 1454 484 1520 651 1520 c

ce} _d
/one{1303 0 225 0 1114 1493 sc
254 170 m
584 170 l
584 1309 l
225 1237 l
225 1421 l
582 1493 l
784 1493 l
784 170 l
1114 170 l
1114 0 l
254 0 l
254 170 l

ce} _d
/two{1303 0 150 0 1098 1520 sc
393 170 m
1098 170 l
1098 0 l
150 0 l
150 170 l
227 249 331 356 463 489 c
596 623 679 709 713 748 c
778 821 823 882 848 932 c
874 983 887 1032 887 1081 c
887 1160 859 1225 803 1275 c
748 1325 675 1350 586 1350 c
523 1350 456 1339 385 1317 c
315 1295 240 1262 160 1217 c
160 1421 l
241 1454 317 1478 388 1495 c
459 1512 523 1520 582 1520 c
737 1520 860 1481 952 1404 c
1044 1327 1090 1223 1090 1094 c
1090 1033 1078 974 1055 919 c
1032 864 991 800 930 725 c
913 706 860 650 771 557 c
682 465 556 336 393 170 c

ce} _d
/three{1303 0 156 -29 1139 1520 sc
831 805 m
928 784 1003 741 1057 676 c
1112 611 1139 530 1139 434 c
1139 287 1088 173 987 92 c
886 11 742 -29 555 -29 c
492 -29 428 -23 361 -10 c
295 2 227 20 156 45 c
156 240 l
212 207 273 183 340 166 c
407 149 476 141 549 141 c
676 141 772 166 838 216 c
905 266 938 339 938 434 c
938 522 907 591 845 640 c
784 690 698 715 588 715 c
414 715 l
414 881 l
596 881 l
695 881 771 901 824 940 c
877 980 903 1037 903 1112 c
903 1189 876 1247 821 1288 c
767 1329 689 1350 588 1350 c
533 1350 473 1344 410 1332 c
347 1320 277 1301 201 1276 c
201 1456 l
278 1477 349 1493 416 1504 c
483 1515 547 1520 606 1520 c
759 1520 881 1485 970 1415 c
1059 1346 1104 1252 1104 1133 c
1104 1050 1080 980 1033 923 c
986 866 918 827 831 805 c

ce} _d
/four{1303 0 100 0 1188 1493 sc
774 1317 m
264 520 l
774 520 l
774 1317 l

721 1493 m
975 1493 l
975 520 l
1188 520 l
1188 352 l
975 352 l
975 0 l
774 0 l
774 352 l
100 352 l
100 547 l
721 1493 l

ce} _d
/B{1405 0 201 0 1260 1493 sc
403 713 m
403 166 l
727 166 l
836 166 916 188 968 233 c
1021 278 1047 347 1047 440 c
1047 533 1021 602 968 646 c
916 691 836 713 727 713 c
403 713 l

403 1327 m
403 877 l
702 877 l
801 877 874 895 922 932 c
971 969 995 1026 995 1102 c
995 1177 971 1234 922 1271 c
874 1308 801 1327 702 1327 c
403 1327 l

201 1493 m
717 1493 l
871 1493 990 1461 1073 1397 c
1156 1333 1198 1242 1198 1124 c
1198 1033 1177 960 1134 906 c
1091 852 1029 818 946 805 c
1045 784 1122 739 1177 671 c
1232 604 1260 519 1260 418 c
1260 285 1215 182 1124 109 c
1033 36 904 0 737 0 c
201 0 l
201 1493 l

ce} _d
/D{1577 0 201 0 1456 1493 sc
403 1327 m
403 166 l
647 166 l
853 166 1004 213 1099 306 c
1195 399 1243 547 1243 748 c
1243 948 1195 1094 1099 1187 c
1004 1280 853 1327 647 1327 c
403 1327 l

201 1493 m
616 1493 l
905 1493 1118 1433 1253 1312 c
1388 1192 1456 1004 1456 748 c
1456 491 1388 302 1252 181 c
1116 60 904 0 616 0 c
201 0 l
201 1493 l

ce} _d
/E{1294 0 201 0 1163 1493 sc
201 1493 m
1145 1493 l
1145 1323 l
403 1323 l
403 881 l
1114 881 l
1114 711 l
403 711 l
403 170 l
1163 170 l
1163 0 l
201 0 l
201 1493 l

ce} _d
/F{1178 0 201 0 1059 1493 sc
201 1493 m
1059 1493 l
1059 1323 l
403 1323 l
403 883 l
995 883 l
995 713 l
403 713 l
403 0 l
201 0 l
201 1493 l

ce} _d
/J{604 0 -106 -410 403 1493 sc
201 1493 m
403 1493 l
403 104 l
403 -76 369 -207 300 -288 c
232 -369 122 -410 -29 -410 c
-106 -410 l
-106 -240 l
-43 -240 l
46 -240 109 -215 146 -165 c
183 -115 201 -25 201 104 c
201 1493 l

ce} _d
/L{1141 0 201 0 1130 1493 sc
201 1493 m
403 1493 l
403 170 l
1130 170 l
1130 0 l
201 0 l
201 1493 l

ce} _d
/M{1767 0 201 0 1567 1493 sc
201 1493 m
502 1493 l
883 477 l
1266 1493 l
1567 1493 l
1567 0 l
1370 0 l
1370 1311 l
985 287 l
782 287 l
397 1311 l
397 0 l
201 0 l
201 1493 l

ce} _d
/R{1423 0 201 0 1364 1493 sc
909 700 m
952 685 994 654 1035 606 c
1076 558 1118 492 1159 408 c
1364 0 l
1147 0 l
956 383 l
907 483 859 549 812 582 c
766 615 703 631 623 631 c
403 631 l
403 0 l
201 0 l
201 1493 l
657 1493 l
828 1493 955 1457 1039 1386 c
1123 1315 1165 1207 1165 1063 c
1165 969 1143 891 1099 829 c
1056 767 992 724 909 700 c

403 1327 m
403 797 l
657 797 l
754 797 828 819 877 864 c
927 909 952 976 952 1063 c
952 1150 927 1216 877 1260 c
828 1305 754 1327 657 1327 c
403 1327 l

ce} _d
/S{1300 0 135 -29 1186 1520 sc
1096 1444 m
1096 1247 l
1019 1284 947 1311 879 1329 c
811 1347 745 1356 682 1356 c
572 1356 487 1335 427 1292 c
368 1249 338 1189 338 1110 c
338 1044 358 994 397 960 c
437 927 512 900 623 879 c
745 854 l
896 825 1007 775 1078 702 c
1150 630 1186 533 1186 412 c
1186 267 1137 158 1040 83 c
943 8 801 -29 614 -29 c
543 -29 468 -21 388 -5 c
309 11 226 35 141 66 c
141 274 l
223 228 303 193 382 170 c
461 147 538 135 614 135 c
729 135 818 158 881 203 c
944 248 975 313 975 397 c
975 470 952 528 907 569 c
862 610 789 641 686 662 c
563 686 l
412 716 303 763 236 827 c
169 891 135 980 135 1094 c
135 1226 181 1330 274 1406 c
367 1482 496 1520 659 1520 c
729 1520 800 1514 873 1501 c
946 1488 1020 1469 1096 1444 c

ce} _d
/T{1251 0 -6 0 1257 1493 sc
-6 1493 m
1257 1493 l
1257 1323 l
727 1323 l
727 0 l
524 0 l
524 1323 l
-6 1323 l
-6 1493 l

ce} _d
/a{1255 0 123 -29 1069 1147 sc
702 563 m
553 563 450 546 393 512 c
336 478 307 420 307 338 c
307 273 328 221 371 182 c
414 144 473 125 547 125 c
649 125 731 161 792 233 c
854 306 885 402 885 522 c
885 563 l
702 563 l

1069 639 m
1069 0 l
885 0 l
885 170 l
843 102 791 52 728 19 c
665 -13 589 -29 498 -29 c
383 -29 292 3 224 67 c
157 132 123 218 123 326 c
123 452 165 547 249 611 c
334 675 460 707 627 707 c
885 707 l
885 725 l
885 810 857 875 801 921 c
746 968 668 991 567 991 c
503 991 441 983 380 968 c
319 953 261 930 205 899 c
205 1069 l
272 1095 338 1114 401 1127 c
464 1140 526 1147 586 1147 c
748 1147 869 1105 949 1021 c
1029 937 1069 810 1069 639 c

ce} _d
/c{1126 0 113 -29 999 1147 sc
999 1077 m
999 905 l
947 934 895 955 842 969 c
790 984 737 991 684 991 c
565 991 472 953 406 877 c
340 802 307 696 307 559 c
307 422 340 316 406 240 c
472 165 565 127 684 127 c
737 127 790 134 842 148 c
895 163 947 184 999 213 c
999 43 l
948 19 894 1 839 -11 c
784 -23 726 -29 664 -29 c
495 -29 361 24 262 130 c
163 236 113 379 113 559 c
113 742 163 885 263 990 c
364 1095 501 1147 676 1147 c
733 1147 788 1141 842 1129 c
896 1118 948 1100 999 1077 c

ce} _d
/d{1300 0 113 -29 1114 1556 sc
930 950 m
930 1556 l
1114 1556 l
1114 0 l
930 0 l
930 168 l
891 101 842 52 783 19 c
724 -13 654 -29 571 -29 c
436 -29 325 25 240 133 c
155 241 113 383 113 559 c
113 735 155 877 240 985 c
325 1093 436 1147 571 1147 c
654 1147 724 1131 783 1098 c
842 1066 891 1017 930 950 c

303 559 m
303 424 331 317 386 240 c
442 163 519 125 616 125 c
713 125 790 163 846 240 c
902 317 930 424 930 559 c
930 694 902 800 846 877 c
790 954 713 993 616 993 c
519 993 442 954 386 877 c
331 800 303 694 303 559 c

ce} _d
/e{1260 0 113 -29 1151 1147 sc
1151 606 m
1151 516 l
305 516 l
313 389 351 293 419 226 c
488 160 583 127 705 127 c
776 127 844 136 910 153 c
977 170 1043 196 1108 231 c
1108 57 l
1042 29 974 8 905 -7 c
836 -22 765 -29 694 -29 c
515 -29 374 23 269 127 c
165 231 113 372 113 549 c
113 732 162 878 261 985 c
360 1093 494 1147 662 1147 c
813 1147 932 1098 1019 1001 c
1107 904 1151 773 1151 606 c

967 660 m
966 761 937 841 882 901 c
827 961 755 991 664 991 c
561 991 479 962 417 904 c
356 846 320 764 311 659 c
967 660 l

ce} _d
/i{569 0 193 0 377 1556 sc
193 1120 m
377 1120 l
377 0 l
193 0 l
193 1120 l

193 1556 m
377 1556 l
377 1323 l
193 1323 l
193 1556 l

ce} _d
/l{569 0 193 0 377 1556 sc
193 1556 m
377 1556 l
377 0 l
193 0 l
193 1556 l

ce} _d
/m{1995 0 186 0 1821 1147 sc
1065 905 m
1111 988 1166 1049 1230 1088 c
1294 1127 1369 1147 1456 1147 c
1573 1147 1663 1106 1726 1024 c
1789 943 1821 827 1821 676 c
1821 0 l
1636 0 l
1636 670 l
1636 777 1617 857 1579 909 c
1541 961 1483 987 1405 987 c
1310 987 1234 955 1179 892 c
1124 829 1096 742 1096 633 c
1096 0 l
911 0 l
911 670 l
911 778 892 858 854 909 c
816 961 757 987 678 987 c
584 987 509 955 454 891 c
399 828 371 742 371 633 c
371 0 l
186 0 l
186 1120 l
371 1120 l
371 946 l
413 1015 463 1065 522 1098 c
581 1131 650 1147 731 1147 c
812 1147 881 1126 938 1085 c
995 1044 1038 984 1065 905 c

ce} _d
/n{1298 0 186 0 1124 1147 sc
1124 676 m
1124 0 l
940 0 l
940 670 l
940 776 919 855 878 908 c
837 961 775 987 692 987 c
593 987 514 955 457 892 c
400 829 371 742 371 633 c
371 0 l
186 0 l
186 1120 l
371 1120 l
371 946 l
415 1013 467 1064 526 1097 c
586 1130 655 1147 733 1147 c
862 1147 959 1107 1025 1027 c
1091 948 1124 831 1124 676 c

ce} _d
/o{1253 0 113 -29 1141 1147 sc
627 991 m
528 991 450 952 393 875 c
336 798 307 693 307 559 c
307 425 335 319 392 242 c
449 165 528 127 627 127 c
725 127 803 166 860 243 c
917 320 946 426 946 559 c
946 692 917 797 860 874 c
803 952 725 991 627 991 c

627 1147 m
787 1147 913 1095 1004 991 c
1095 887 1141 743 1141 559 c
1141 376 1095 232 1004 127 c
913 23 787 -29 627 -29 c
466 -29 340 23 249 127 c
158 232 113 376 113 559 c
113 743 158 887 249 991 c
340 1095 466 1147 627 1147 c

ce} _d
/p{1300 0 186 -426 1188 1147 sc
371 168 m
371 -426 l
186 -426 l
186 1120 l
371 1120 l
371 950 l
410 1017 458 1066 517 1098 c
576 1131 647 1147 729 1147 c
865 1147 975 1093 1060 985 c
1145 877 1188 735 1188 559 c
1188 383 1145 241 1060 133 c
975 25 865 -29 729 -29 c
647 -29 576 -13 517 19 c
458 52 410 101 371 168 c

997 559 m
997 694 969 800 913 877 c
858 954 781 993 684 993 c
587 993 510 954 454 877 c
399 800 371 694 371 559 c
371 424 399 317 454 240 c
510 163 587 125 684 125 c
781 125 858 163 913 240 c
969 317 997 424 997 559 c

ce} _d
/r{842 0 186 0 842 1147 sc
842 948 m
821 960 799 969 774 974 c
750 980 723 983 694 983 c
590 983 510 949 454 881 c
399 814 371 717 371 590 c
371 0 l
186 0 l
186 1120 l
371 1120 l
371 946 l
410 1014 460 1064 522 1097 c
584 1130 659 1147 748 1147 c
761 1147 775 1146 790 1144 c
805 1143 822 1140 841 1137 c
842 948 l

ce} _d
/s{1067 0 111 -29 967 1147 sc
907 1087 m
907 913 l
855 940 801 960 745 973 c
689 986 631 993 571 993 c
480 993 411 979 365 951 c
320 923 297 881 297 825 c
297 782 313 749 346 724 c
379 700 444 677 543 655 c
606 641 l
737 613 829 573 884 522 c
939 471 967 400 967 309 c
967 205 926 123 843 62 c
761 1 648 -29 504 -29 c
444 -29 381 -23 316 -11 c
251 0 183 18 111 41 c
111 231 l
179 196 246 169 312 151 c
378 134 443 125 508 125 c
595 125 661 140 708 169 c
755 199 778 241 778 295 c
778 345 761 383 727 410 c
694 437 620 462 506 487 c
442 502 l
328 526 246 563 195 612 c
144 662 119 730 119 817 c
119 922 156 1004 231 1061 c
306 1118 412 1147 549 1147 c
617 1147 681 1142 741 1132 c
801 1122 856 1107 907 1087 c

ce} _d
/t{803 0 55 0 754 1438 sc
375 1438 m
375 1120 l
754 1120 l
754 977 l
375 977 l
375 369 l
375 278 387 219 412 193 c
437 167 488 154 565 154 c
754 154 l
754 0 l
565 0 l
423 0 325 26 271 79 c
217 132 190 229 190 369 c
190 977 l
55 977 l
55 1120 l
190 1120 l
190 1438 l
375 1438 l

ce} _d
/u{1298 0 174 -29 1112 1147 sc
174 442 m
174 1120 l
358 1120 l
358 449 l
358 343 379 263 420 210 c
461 157 523 131 606 131 c
705 131 784 163 841 226 c
899 289 928 376 928 485 c
928 1120 l
1112 1120 l
1112 0 l
928 0 l
928 172 l
883 104 831 53 772 20 c
713 -13 645 -29 567 -29 c
438 -29 341 11 274 91 c
207 171 174 288 174 442 c

637 1147 m
637 1147 l

ce} _d
/x{1212 0 59 0 1145 1120 sc
1124 1120 m
719 575 l
1145 0 l
928 0 l
602 440 l
276 0 l
59 0 l
494 586 l
96 1120 l
313 1120 l
610 721 l
907 1120 l
1124 1120 l

ce} _d
/z{1075 0 88 0 987 1120 sc
113 1120 m
987 1120 l
987 952 l
295 147 l
987 147 l
987 0 l
88 0 l
88 168 l
780 973 l
113 973 l
113 1120 l

ce} _d
end readonly def

/BuildGlyph {
 exch begin
 CharStrings exch
 2 copy known not {pop /.notdef} if
 true 3 1 roll get exec
 end
} _d

/BuildChar {
 1 index /Encoding get exch get
 1 index /BuildGlyph get exec
} _d

FontName currentdict end definefont pop
end
%%EndProlog
mpldict begin
-511.694 0.334 translate
1635.388 791.332 0 0 clipbox
gsave
0 0 m
1635.388069 0 l
1635.388069 791.3325 l
0 791.3325 l
cl
1.000 setgray
fill
grestore
gsave
100.23125 316.13375 m
746.328069 316.13375 l
746.328069 745.41375 l
100.23125 745.41375 l
cl
1.000 setgray
fill
grestore
2.000 setlinewidth
1 setlinejoin
2 setlinecap
[] 0 setdash
0.690 setgray
gsave
646.097 429.28 100.231 316.134 clipbox
130.997765 316.13375 m
130.997765 745.41375 l
stroke
grestore
0.800 setlinewidth
0 setlinecap
0.000 setgray
gsave
/o {
gsave
newpath
translate
0.8 setlinewidth
1 setlinejoin

0 setlinecap

0 0 m
0 -3.5 l

gsave
0.000 setgray
fill
grestore
stroke
grestore
} bind def
130.998 316.134 o
grestore
gsave
104.497765 286.336875 translate
0.000000 rotate
/DejaVuSans 30.0 selectfont
0.000000 0.929688 moveto
/one glyphshow
19.086914 0.929688 moveto
/zero glyphshow
/DejaVuSans 21.0 selectfont
38.460938 12.414062 moveto
/zero glyphshow
grestore
2.000 setlinewidth
2 setlinecap
0.690 setgray
gsave
646.097 429.28 100.231 316.134 clipbox
284.830341 316.13375 m
284.830341 745.41375 l
stroke
grestore
0.800 setlinewidth
0 setlinecap
0.000 setgray
gsave
/o {
gsave
newpath
translate
0.8 setlinewidth
1 setlinejoin

0 setlinecap

0 0 m
0 -3.5 l

gsave
0.000 setgray
fill
grestore
stroke
grestore
} bind def
284.83 316.134 o
grestore
gsave
258.330341 286.336875 translate
0.000000 rotate
/DejaVuSans 30.0 selectfont
0.000000 0.203125 moveto
/one glyphshow
19.086914 0.203125 moveto
/zero glyphshow
/DejaVuSans 21.0 selectfont
38.460938 11.687500 moveto
/one glyphshow
grestore
2.000 setlinewidth
2 setlinecap
0.690 setgray
gsave
646.097 429.28 100.231 316.134 clipbox
438.662917 316.13375 m
438.662917 745.41375 l
stroke
grestore
0.800 setlinewidth
0 setlinecap
0.000 setgray
gsave
/o {
gsave
newpath
translate
0.8 setlinewidth
1 setlinejoin

0 setlinecap

0 0 m
0 -3.5 l

gsave
0.000 setgray
fill
grestore
stroke
grestore
} bind def
438.663 316.134 o
grestore
gsave
412.162917 286.336875 translate
0.000000 rotate
/DejaVuSans 30.0 selectfont
0.000000 0.929688 moveto
/one glyphshow
19.086914 0.929688 moveto
/zero glyphshow
/DejaVuSans 21.0 selectfont
38.460938 12.414062 moveto
/two glyphshow
grestore
2.000 setlinewidth
2 setlinecap
0.690 setgray
gsave
646.097 429.28 100.231 316.134 clipbox
592.495493 316.13375 m
592.495493 745.41375 l
stroke
grestore
0.800 setlinewidth
0 setlinecap
0.000 setgray
gsave
/o {
gsave
newpath
translate
0.8 setlinewidth
1 setlinejoin

0 setlinecap

0 0 m
0 -3.5 l

gsave
0.000 setgray
fill
grestore
stroke
grestore
} bind def
592.495 316.134 o
grestore
gsave
565.995493 286.336875 translate
0.000000 rotate
/DejaVuSans 30.0 selectfont
0.000000 0.929688 moveto
/one glyphshow
19.086914 0.929688 moveto
/zero glyphshow
/DejaVuSans 21.0 selectfont
38.460938 12.414062 moveto
/three glyphshow
grestore
2.000 setlinewidth
2 setlinecap
0.690 setgray
gsave
646.097 429.28 100.231 316.134 clipbox
746.328069 316.13375 m
746.328069 745.41375 l
stroke
grestore
0.800 setlinewidth
0 setlinecap
0.000 setgray
gsave
/o {
gsave
newpath
translate
0.8 setlinewidth
1 setlinejoin

0 setlinecap

0 0 m
0 -3.5 l

gsave
0.000 setgray
fill
grestore
stroke
grestore
} bind def
746.328 316.134 o
grestore
gsave
719.828069 286.336875 translate
0.000000 rotate
/DejaVuSans 30.0 selectfont
0.000000 0.203125 moveto
/one glyphshow
19.086914 0.203125 moveto
/zero glyphshow
/DejaVuSans 21.0 selectfont
38.460938 11.687500 moveto
/four glyphshow
grestore
1.000 setlinewidth
2 setlinecap
0.690 setgray
gsave
646.097 429.28 100.231 316.134 clipbox
107.168798 316.13375 m
107.168798 745.41375 l
stroke
grestore
0.600 setlinewidth
0 setlinecap
0.000 setgray
gsave
/o {
gsave
newpath
translate
0.6 setlinewidth
1 setlinejoin

0 setlinecap

0 0 m
0 -2 l

gsave
0.000 setgray
fill
grestore
stroke
grestore
} bind def
107.169 316.134 o
grestore
1.000 setlinewidth
2 setlinecap
0.690 setgray
gsave
646.097 429.28 100.231 316.134 clipbox
116.089848 316.13375 m
116.089848 745.41375 l
stroke
grestore
0.600 setlinewidth
0 setlinecap
0.000 setgray
gsave
/o {
gsave
newpath
translate
0.6 setlinewidth
1 setlinejoin

0 setlinecap

0 0 m
0 -2 l

gsave
0.000 setgray
fill
grestore
stroke
grestore
} bind def
116.09 316.134 o
grestore
1.000 setlinewidth
2 setlinecap
0.690 setgray
gsave
646.097 429.28 100.231 316.134 clipbox
123.958773 316.13375 m
123.958773 745.41375 l
stroke
grestore
0.600 setlinewidth
0 setlinecap
0.000 setgray
gsave
/o {
gsave
newpath
translate
0.6 setlinewidth
1 setlinejoin

0 setlinecap

0 0 m
0 -2 l

gsave
0.000 setgray
fill
grestore
stroke
grestore
} bind def
123.959 316.134 o
grestore
1.000 setlinewidth
2 setlinecap
0.690 setgray
gsave
646.097 429.28 100.231 316.134 clipbox
177.305985 316.13375 m
177.305985 745.41375 l
stroke
grestore
0.600 setlinewidth
0 setlinecap
0.000 setgray
gsave
/o {
gsave
newpath
translate
0.6 setlinewidth
1 setlinejoin

0 setlinecap

0 0 m
0 -2 l

gsave
0.000 setgray
fill
grestore
stroke
grestore
} bind def
177.306 316.134 o
grestore
1.000 setlinewidth
2 setlinecap
0.690 setgray
gsave
646.097 429.28 100.231 316.134 clipbox
204.394557 316.13375 m
204.394557 745.41375 l
stroke
grestore
0.600 setlinewidth
0 setlinecap
0.000 setgray
gsave
/o {
gsave
newpath
translate
0.6 setlinewidth
1 setlinejoin

0 setlinecap

0 0 m
0 -2 l

gsave
0.000 setgray
fill
grestore
stroke
grestore
} bind def
204.395 316.134 o
grestore
1.000 setlinewidth
2 setlinecap
0.690 setgray
gsave
646.097 429.28 100.231 316.134 clipbox
223.614204 316.13375 m
223.614204 745.41375 l
stroke
grestore
0.600 setlinewidth
0 setlinecap
0.000 setgray
gsave
/o {
gsave
newpath
translate
0.6 setlinewidth
1 setlinejoin

0 setlinecap

0 0 m
0 -2 l

gsave
0.000 setgray
fill
grestore
stroke
grestore
} bind def
223.614 316.134 o
grestore
1.000 setlinewidth
2 setlinecap
0.690 setgray
gsave
646.097 429.28 100.231 316.134 clipbox
238.522121 316.13375 m
238.522121 745.41375 l
stroke
grestore
0.600 setlinewidth
0 setlinecap
0.000 setgray
gsave
/o {
gsave
newpath
translate
0.6 setlinewidth
1 setlinejoin

0 setlinecap

0 0 m
0 -2 l

gsave
0.000 setgray
fill
grestore
stroke
grestore
} bind def
238.522 316.134 o
grestore
1.000 setlinewidth
2 setlinecap
0.690 setgray
gsave
646.097 429.28 100.231 316.134 clipbox
250.702776 316.13375 m
250.702776 745.41375 l
stroke
grestore
0.600 setlinewidth
0 setlinecap
0.000 setgray
gsave
/o {
gsave
newpath
translate
0.6 setlinewidth
1 setlinejoin

0 setlinecap

0 0 m
0 -2 l

gsave
0.000 setgray
fill
grestore
stroke
grestore
} bind def
250.703 316.134 o
grestore
1.000 setlinewidth
2 setlinecap
0.690 setgray
gsave
646.097 429.28 100.231 316.134 clipbox
261.001374 316.13375 m
261.001374 745.41375 l
stroke
grestore
0.600 setlinewidth
0 setlinecap
0.000 setgray
gsave
/o {
gsave
newpath
translate
0.6 setlinewidth
1 setlinejoin

0 setlinecap

0 0 m
0 -2 l

gsave
0.000 setgray
fill
grestore
stroke
grestore
} bind def
261.001 316.134 o
grestore
1.000 setlinewidth
2 setlinecap
0.690 setgray
gsave
646.097 429.28 100.231 316.134 clipbox
269.922424 316.13375 m
269.922424 745.41375 l
stroke
grestore
0.600 setlinewidth
0 setlinecap
0.000 setgray
gsave
/o {
gsave
newpath
translate
0.6 setlinewidth
1 setlinejoin

0 setlinecap

0 0 m
0 -2 l

gsave
0.000 setgray
fill
grestore
stroke
grestore
} bind def
269.922 316.134 o
grestore
1.000 setlinewidth
2 setlinecap
0.690 setgray
gsave
646.097 429.28 100.231 316.134 clipbox
277.791348 316.13375 m
277.791348 745.41375 l
stroke
grestore
0.600 setlinewidth
0 setlinecap
0.000 setgray
gsave
/o {
gsave
newpath
translate
0.6 setlinewidth
1 setlinejoin

0 setlinecap

0 0 m
0 -2 l

gsave
0.000 setgray
fill
grestore
stroke
grestore
} bind def
277.791 316.134 o
grestore
1.000 setlinewidth
2 setlinecap
0.690 setgray
gsave
646.097 429.28 100.231 316.134 clipbox
331.138561 316.13375 m
331.138561 745.41375 l
stroke
grestore
0.600 setlinewidth
0 setlinecap
0.000 setgray
gsave
/o {
gsave
newpath
translate
0.6 setlinewidth
1 setlinejoin

0 setlinecap

0 0 m
0 -2 l

gsave
0.000 setgray
fill
grestore
stroke
grestore
} bind def
331.139 316.134 o
grestore
1.000 setlinewidth
2 setlinecap
0.690 setgray
gsave
646.097 429.28 100.231 316.134 clipbox
358.227133 316.13375 m
358.227133 745.41375 l
stroke
grestore
0.600 setlinewidth
0 setlinecap
0.000 setgray
gsave
/o {
gsave
newpath
translate
0.6 setlinewidth
1 setlinejoin

0 setlinecap

0 0 m
0 -2 l

gsave
0.000 setgray
fill
grestore
stroke
grestore
} bind def
358.227 316.134 o
grestore
1.000 setlinewidth
2 setlinecap
0.690 setgray
gsave
646.097 429.28 100.231 316.134 clipbox
377.44678 316.13375 m
377.44678 745.41375 l
stroke
grestore
0.600 setlinewidth
0 setlinecap
0.000 setgray
gsave
/o {
gsave
newpath
translate
0.6 setlinewidth
1 setlinejoin

0 setlinecap

0 0 m
0 -2 l

gsave
0.000 setgray
fill
grestore
stroke
grestore
} bind def
377.447 316.134 o
grestore
1.000 setlinewidth
2 setlinecap
0.690 setgray
gsave
646.097 429.28 100.231 316.134 clipbox
392.354697 316.13375 m
392.354697 745.41375 l
stroke
grestore
0.600 setlinewidth
0 setlinecap
0.000 setgray
gsave
/o {
gsave
newpath
translate
0.6 setlinewidth
1 setlinejoin

0 setlinecap

0 0 m
0 -2 l

gsave
0.000 setgray
fill
grestore
stroke
grestore
} bind def
392.355 316.134 o
grestore
1.000 setlinewidth
2 setlinecap
0.690 setgray
gsave
646.097 429.28 100.231 316.134 clipbox
404.535352 316.13375 m
404.535352 745.41375 l
stroke
grestore
0.600 setlinewidth
0 setlinecap
0.000 setgray
gsave
/o {
gsave
newpath
translate
0.6 setlinewidth
1 setlinejoin

0 setlinecap

0 0 m
0 -2 l

gsave
0.000 setgray
fill
grestore
stroke
grestore
} bind def
404.535 316.134 o
grestore
1.000 setlinewidth
2 setlinecap
0.690 setgray
gsave
646.097 429.28 100.231 316.134 clipbox
414.833949 316.13375 m
414.833949 745.41375 l
stroke
grestore
0.600 setlinewidth
0 setlinecap
0.000 setgray
gsave
/o {
gsave
newpath
translate
0.6 setlinewidth
1 setlinejoin

0 setlinecap

0 0 m
0 -2 l

gsave
0.000 setgray
fill
grestore
stroke
grestore
} bind def
414.834 316.134 o
grestore
1.000 setlinewidth
2 setlinecap
0.690 setgray
gsave
646.097 429.28 100.231 316.134 clipbox
423.755 316.13375 m
423.755 745.41375 l
stroke
grestore
0.600 setlinewidth
0 setlinecap
0.000 setgray
gsave
/o {
gsave
newpath
translate
0.6 setlinewidth
1 setlinejoin

0 setlinecap

0 0 m
0 -2 l

gsave
0.000 setgray
fill
grestore
stroke
grestore
} bind def
423.755 316.134 o
grestore
1.000 setlinewidth
2 setlinecap
0.690 setgray
gsave
646.097 429.28 100.231 316.134 clipbox
431.623924 316.13375 m
431.623924 745.41375 l
stroke
grestore
0.600 setlinewidth
0 setlinecap
0.000 setgray
gsave
/o {
gsave
newpath
translate
0.6 setlinewidth
1 setlinejoin

0 setlinecap

0 0 m
0 -2 l

gsave
0.000 setgray
fill
grestore
stroke
grestore
} bind def
431.624 316.134 o
grestore
1.000 setlinewidth
2 setlinecap
0.690 setgray
gsave
646.097 429.28 100.231 316.134 clipbox
484.971137 316.13375 m
484.971137 745.41375 l
stroke
grestore
0.600 setlinewidth
0 setlinecap
0.000 setgray
gsave
/o {
gsave
newpath
translate
0.6 setlinewidth
1 setlinejoin

0 setlinecap

0 0 m
0 -2 l

gsave
0.000 setgray
fill
grestore
stroke
grestore
} bind def
484.971 316.134 o
grestore
1.000 setlinewidth
2 setlinecap
0.690 setgray
gsave
646.097 429.28 100.231 316.134 clipbox
512.059708 316.13375 m
512.059708 745.41375 l
stroke
grestore
0.600 setlinewidth
0 setlinecap
0.000 setgray
gsave
/o {
gsave
newpath
translate
0.6 setlinewidth
1 setlinejoin

0 setlinecap

0 0 m
0 -2 l

gsave
0.000 setgray
fill
grestore
stroke
grestore
} bind def
512.06 316.134 o
grestore
1.000 setlinewidth
2 setlinecap
0.690 setgray
gsave
646.097 429.28 100.231 316.134 clipbox
531.279356 316.13375 m
531.279356 745.41375 l
stroke
grestore
0.600 setlinewidth
0 setlinecap
0.000 setgray
gsave
/o {
gsave
newpath
translate
0.6 setlinewidth
1 setlinejoin

0 setlinecap

0 0 m
0 -2 l

gsave
0.000 setgray
fill
grestore
stroke
grestore
} bind def
531.279 316.134 o
grestore
1.000 setlinewidth
2 setlinecap
0.690 setgray
gsave
646.097 429.28 100.231 316.134 clipbox
546.187273 316.13375 m
546.187273 745.41375 l
stroke
grestore
0.600 setlinewidth
0 setlinecap
0.000 setgray
gsave
/o {
gsave
newpath
translate
0.6 setlinewidth
1 setlinejoin

0 setlinecap

0 0 m
0 -2 l

gsave
0.000 setgray
fill
grestore
stroke
grestore
} bind def
546.187 316.134 o
grestore
1.000 setlinewidth
2 setlinecap
0.690 setgray
gsave
646.097 429.28 100.231 316.134 clipbox
558.367928 316.13375 m
558.367928 745.41375 l
stroke
grestore
0.600 setlinewidth
0 setlinecap
0.000 setgray
gsave
/o {
gsave
newpath
translate
0.6 setlinewidth
1 setlinejoin

0 setlinecap

0 0 m
0 -2 l

gsave
0.000 setgray
fill
grestore
stroke
grestore
} bind def
558.368 316.134 o
grestore
1.000 setlinewidth
2 setlinecap
0.690 setgray
gsave
646.097 429.28 100.231 316.134 clipbox
568.666525 316.13375 m
568.666525 745.41375 l
stroke
grestore
0.600 setlinewidth
0 setlinecap
0.000 setgray
gsave
/o {
gsave
newpath
translate
0.6 setlinewidth
1 setlinejoin

0 setlinecap

0 0 m
0 -2 l

gsave
0.000 setgray
fill
grestore
stroke
grestore
} bind def
568.667 316.134 o
grestore
1.000 setlinewidth
2 setlinecap
0.690 setgray
gsave
646.097 429.28 100.231 316.134 clipbox
577.587576 316.13375 m
577.587576 745.41375 l
stroke
grestore
0.600 setlinewidth
0 setlinecap
0.000 setgray
gsave
/o {
gsave
newpath
translate
0.6 setlinewidth
1 setlinejoin

0 setlinecap

0 0 m
0 -2 l

gsave
0.000 setgray
fill
grestore
stroke
grestore
} bind def
577.588 316.134 o
grestore
1.000 setlinewidth
2 setlinecap
0.690 setgray
gsave
646.097 429.28 100.231 316.134 clipbox
585.4565 316.13375 m
585.4565 745.41375 l
stroke
grestore
0.600 setlinewidth
0 setlinecap
0.000 setgray
gsave
/o {
gsave
newpath
translate
0.6 setlinewidth
1 setlinejoin

0 setlinecap

0 0 m
0 -2 l

gsave
0.000 setgray
fill
grestore
stroke
grestore
} bind def
585.457 316.134 o
grestore
1.000 setlinewidth
2 setlinecap
0.690 setgray
gsave
646.097 429.28 100.231 316.134 clipbox
638.803712 316.13375 m
638.803712 745.41375 l
stroke
grestore
0.600 setlinewidth
0 setlinecap
0.000 setgray
gsave
/o {
gsave
newpath
translate
0.6 setlinewidth
1 setlinejoin

0 setlinecap

0 0 m
0 -2 l

gsave
0.000 setgray
fill
grestore
stroke
grestore
} bind def
638.804 316.134 o
grestore
1.000 setlinewidth
2 setlinecap
0.690 setgray
gsave
646.097 429.28 100.231 316.134 clipbox
665.892284 316.13375 m
665.892284 745.41375 l
stroke
grestore
0.600 setlinewidth
0 setlinecap
0.000 setgray
gsave
/o {
gsave
newpath
translate
0.6 setlinewidth
1 setlinejoin

0 setlinecap

0 0 m
0 -2 l

gsave
0.000 setgray
fill
grestore
stroke
grestore
} bind def
665.892 316.134 o
grestore
1.000 setlinewidth
2 setlinecap
0.690 setgray
gsave
646.097 429.28 100.231 316.134 clipbox
685.111932 316.13375 m
685.111932 745.41375 l
stroke
grestore
0.600 setlinewidth
0 setlinecap
0.000 setgray
gsave
/o {
gsave
newpath
translate
0.6 setlinewidth
1 setlinejoin

0 setlinecap

0 0 m
0 -2 l

gsave
0.000 setgray
fill
grestore
stroke
grestore
} bind def
685.112 316.134 o
grestore
1.000 setlinewidth
2 setlinecap
0.690 setgray
gsave
646.097 429.28 100.231 316.134 clipbox
700.019849 316.13375 m
700.019849 745.41375 l
stroke
grestore
0.600 setlinewidth
0 setlinecap
0.000 setgray
gsave
/o {
gsave
newpath
translate
0.6 setlinewidth
1 setlinejoin

0 setlinecap

0 0 m
0 -2 l

gsave
0.000 setgray
fill
grestore
stroke
grestore
} bind def
700.02 316.134 o
grestore
1.000 setlinewidth
2 setlinecap
0.690 setgray
gsave
646.097 429.28 100.231 316.134 clipbox
712.200504 316.13375 m
712.200504 745.41375 l
stroke
grestore
0.600 setlinewidth
0 setlinecap
0.000 setgray
gsave
/o {
gsave
newpath
translate
0.6 setlinewidth
1 setlinejoin

0 setlinecap

0 0 m
0 -2 l

gsave
0.000 setgray
fill
grestore
stroke
grestore
} bind def
712.201 316.134 o
grestore
1.000 setlinewidth
2 setlinecap
0.690 setgray
gsave
646.097 429.28 100.231 316.134 clipbox
722.499101 316.13375 m
722.499101 745.41375 l
stroke
grestore
0.600 setlinewidth
0 setlinecap
0.000 setgray
gsave
/o {
gsave
newpath
translate
0.6 setlinewidth
1 setlinejoin

0 setlinecap

0 0 m
0 -2 l

gsave
0.000 setgray
fill
grestore
stroke
grestore
} bind def
722.499 316.134 o
grestore
1.000 setlinewidth
2 setlinecap
0.690 setgray
gsave
646.097 429.28 100.231 316.134 clipbox
731.420152 316.13375 m
731.420152 745.41375 l
stroke
grestore
0.600 setlinewidth
0 setlinecap
0.000 setgray
gsave
/o {
gsave
newpath
translate
0.6 setlinewidth
1 setlinejoin

0 setlinecap

0 0 m
0 -2 l

gsave
0.000 setgray
fill
grestore
stroke
grestore
} bind def
731.42 316.134 o
grestore
1.000 setlinewidth
2 setlinecap
0.690 setgray
gsave
646.097 429.28 100.231 316.134 clipbox
739.289076 316.13375 m
739.289076 745.41375 l
stroke
grestore
0.600 setlinewidth
0 setlinecap
0.000 setgray
gsave
/o {
gsave
newpath
translate
0.6 setlinewidth
1 setlinejoin

0 setlinecap

0 0 m
0 -2 l

gsave
0.000 setgray
fill
grestore
stroke
grestore
} bind def
739.289 316.134 o
grestore
/DejaVuSans 30.000 selectfont
gsave

300.201534 253.305625 translate
0.000000 rotate
0.000000 0 m /numbersign glyphshow
25.136719 0 m /space glyphshow
34.672852 0 m /e glyphshow
52.629883 0 m /x glyphshow
70.383789 0 m /p glyphshow
89.426758 0 m /l glyphshow
97.761719 0 m /i glyphshow
106.096680 0 m /c glyphshow
122.590820 0 m /i glyphshow
130.925781 0 m /t glyphshow
142.688477 0 m /space glyphshow
152.224609 0 m /t glyphshow
163.987305 0 m /r glyphshow
176.321289 0 m /i glyphshow
184.656250 0 m /p glyphshow
203.699219 0 m /l glyphshow
212.034180 0 m /e glyphshow
230.491211 0 m /s glyphshow
grestore
2.000 setlinewidth
2 setlinecap
0.690 setgray
gsave
646.097 429.28 100.231 316.134 clipbox
100.23125 474.874772 m
746.328069 474.874772 l
stroke
grestore
0.800 setlinewidth
0 setlinecap
0.000 setgray
gsave
/o {
gsave
newpath
translate
0.8 setlinewidth
1 setlinejoin

0 setlinecap

-0 0 m
-3.5 0 l

gsave
0.000 setgray
fill
grestore
stroke
grestore
} bind def
100.231 474.875 o
grestore
gsave
40.231250 463.476334 translate
0.000000 rotate
/DejaVuSans 30.0 selectfont
0.000000 0.203125 moveto
/one glyphshow
19.086914 0.203125 moveto
/zero glyphshow
/DejaVuSans 21.0 selectfont
38.460938 11.687500 moveto
/one glyphshow
grestore
2.000 setlinewidth
2 setlinecap
0.690 setgray
gsave
646.097 429.28 100.231 316.134 clipbox
100.23125 692.491956 m
746.328069 692.491956 l
stroke
grestore
0.800 setlinewidth
0 setlinecap
0.000 setgray
gsave
/o {
gsave
newpath
translate
0.8 setlinewidth
1 setlinejoin

0 setlinecap

-0 0 m
-3.5 0 l

gsave
0.000 setgray
fill
grestore
stroke
grestore
} bind def
100.231 692.492 o
grestore
gsave
40.231250 681.093519 translate
0.000000 rotate
/DejaVuSans 30.0 selectfont
0.000000 0.929688 moveto
/one glyphshow
19.086914 0.929688 moveto
/zero glyphshow
/DejaVuSans 21.0 selectfont
38.460938 12.414062 moveto
/two glyphshow
grestore
1.000 setlinewidth
2 setlinecap
0.690 setgray
gsave
646.097 429.28 100.231 316.134 clipbox
100.23125 322.766887 m
746.328069 322.766887 l
stroke
grestore
0.600 setlinewidth
0 setlinecap
0.000 setgray
gsave
/o {
gsave
newpath
translate
0.6 setlinewidth
1 setlinejoin

0 setlinecap

-0 0 m
-2 0 l

gsave
0.000 setgray
fill
grestore
stroke
grestore
} bind def
100.231 322.767 o
grestore
1.000 setlinewidth
2 setlinecap
0.690 setgray
gsave
646.097 429.28 100.231 316.134 clipbox
100.23125 361.087371 m
746.328069 361.087371 l
stroke
grestore
0.600 setlinewidth
0 setlinecap
0.000 setgray
gsave
/o {
gsave
newpath
translate
0.6 setlinewidth
1 setlinejoin

0 setlinecap

-0 0 m
-2 0 l

gsave
0.000 setgray
fill
grestore
stroke
grestore
} bind def
100.231 361.087 o
grestore
1.000 setlinewidth
2 setlinecap
0.690 setgray
gsave
646.097 429.28 100.231 316.134 clipbox
100.23125 388.276188 m
746.328069 388.276188 l
stroke
grestore
0.600 setlinewidth
0 setlinecap
0.000 setgray
gsave
/o {
gsave
newpath
translate
0.6 setlinewidth
1 setlinejoin

0 setlinecap

-0 0 m
-2 0 l

gsave
0.000 setgray
fill
grestore
stroke
grestore
} bind def
100.231 388.276 o
grestore
1.000 setlinewidth
2 setlinecap
0.690 setgray
gsave
646.097 429.28 100.231 316.134 clipbox
100.23125 409.365472 m
746.328069 409.365472 l
stroke
grestore
0.600 setlinewidth
0 setlinecap
0.000 setgray
gsave
/o {
gsave
newpath
translate
0.6 setlinewidth
1 setlinejoin

0 setlinecap

-0 0 m
-2 0 l

gsave
0.000 setgray
fill
grestore
stroke
grestore
} bind def
100.231 409.365 o
grestore
1.000 setlinewidth
2 setlinecap
0.690 setgray
gsave
646.097 429.28 100.231 316.134 clipbox
100.23125 426.596672 m
746.328069 426.596672 l
stroke
grestore
0.600 setlinewidth
0 setlinecap
0.000 setgray
gsave
/o {
gsave
newpath
translate
0.6 setlinewidth
1 setlinejoin

0 setlinecap

-0 0 m
-2 0 l

gsave
0.000 setgray
fill
grestore
stroke
grestore
} bind def
100.231 426.597 o
grestore
1.000 setlinewidth
2 setlinecap
0.690 setgray
gsave
646.097 429.28 100.231 316.134 clipbox
100.23125 441.165443 m
746.328069 441.165443 l
stroke
grestore
0.600 setlinewidth
0 setlinecap
0.000 setgray
gsave
/o {
gsave
newpath
translate
0.6 setlinewidth
1 setlinejoin

0 setlinecap

-0 0 m
-2 0 l

gsave
0.000 setgray
fill
grestore
stroke
grestore
} bind def
100.231 441.165 o
grestore
1.000 setlinewidth
2 setlinecap
0.690 setgray
gsave
646.097 429.28 100.231 316.134 clipbox
100.23125 453.785488 m
746.328069 453.785488 l
stroke
grestore
0.600 setlinewidth
0 setlinecap
0.000 setgray
gsave
/o {
gsave
newpath
translate
0.6 setlinewidth
1 setlinejoin

0 setlinecap

-0 0 m
-2 0 l

gsave
0.000 setgray
fill
grestore
stroke
grestore
} bind def
100.231 453.785 o
grestore
1.000 setlinewidth
2 setlinecap
0.690 setgray
gsave
646.097 429.28 100.231 316.134 clipbox
100.23125 464.917156 m
746.328069 464.917156 l
stroke
grestore
0.600 setlinewidth
0 setlinecap
0.000 setgray
gsave
/o {
gsave
newpath
translate
0.6 setlinewidth
1 setlinejoin

0 setlinecap

-0 0 m
-2 0 l

gsave
0.000 setgray
fill
grestore
stroke
grestore
} bind def
100.231 464.917 o
grestore
1.000 setlinewidth
2 setlinecap
0.690 setgray
gsave
646.097 429.28 100.231 316.134 clipbox
100.23125 540.384072 m
746.328069 540.384072 l
stroke
grestore
0.600 setlinewidth
0 setlinecap
0.000 setgray
gsave
/o {
gsave
newpath
translate
0.6 setlinewidth
1 setlinejoin

0 setlinecap

-0 0 m
-2 0 l

gsave
0.000 setgray
fill
grestore
stroke
grestore
} bind def
100.231 540.384 o
grestore
1.000 setlinewidth
2 setlinecap
0.690 setgray
gsave
646.097 429.28 100.231 316.134 clipbox
100.23125 578.704556 m
746.328069 578.704556 l
stroke
grestore
0.600 setlinewidth
0 setlinecap
0.000 setgray
gsave
/o {
gsave
newpath
translate
0.6 setlinewidth
1 setlinejoin

0 setlinecap

-0 0 m
-2 0 l

gsave
0.000 setgray
fill
grestore
stroke
grestore
} bind def
100.231 578.705 o
grestore
1.000 setlinewidth
2 setlinecap
0.690 setgray
gsave
646.097 429.28 100.231 316.134 clipbox
100.23125 605.893372 m
746.328069 605.893372 l
stroke
grestore
0.600 setlinewidth
0 setlinecap
0.000 setgray
gsave
/o {
gsave
newpath
translate
0.6 setlinewidth
1 setlinejoin

0 setlinecap

-0 0 m
-2 0 l

gsave
0.000 setgray
fill
grestore
stroke
grestore
} bind def
100.231 605.893 o
grestore
1.000 setlinewidth
2 setlinecap
0.690 setgray
gsave
646.097 429.28 100.231 316.134 clipbox
100.23125 626.982656 m
746.328069 626.982656 l
stroke
grestore
0.600 setlinewidth
0 setlinecap
0.000 setgray
gsave
/o {
gsave
newpath
translate
0.6 setlinewidth
1 setlinejoin

0 setlinecap

-0 0 m
-2 0 l

gsave
0.000 setgray
fill
grestore
stroke
grestore
} bind def
100.231 626.983 o
grestore
1.000 setlinewidth
2 setlinecap
0.690 setgray
gsave
646.097 429.28 100.231 316.134 clipbox
100.23125 644.213856 m
746.328069 644.213856 l
stroke
grestore
0.600 setlinewidth
0 setlinecap
0.000 setgray
gsave
/o {
gsave
newpath
translate
0.6 setlinewidth
1 setlinejoin

0 setlinecap

-0 0 m
-2 0 l

gsave
0.000 setgray
fill
grestore
stroke
grestore
} bind def
100.231 644.214 o
grestore
1.000 setlinewidth
2 setlinecap
0.690 setgray
gsave
646.097 429.28 100.231 316.134 clipbox
100.23125 658.782628 m
746.328069 658.782628 l
stroke
grestore
0.600 setlinewidth
0 setlinecap
0.000 setgray
gsave
/o {
gsave
newpath
translate
0.6 setlinewidth
1 setlinejoin

0 setlinecap

-0 0 m
-2 0 l

gsave
0.000 setgray
fill
grestore
stroke
grestore
} bind def
100.231 658.783 o
grestore
1.000 setlinewidth
2 setlinecap
0.690 setgray
gsave
646.097 429.28 100.231 316.134 clipbox
100.23125 671.402672 m
746.328069 671.402672 l
stroke
grestore
0.600 setlinewidth
0 setlinecap
0.000 setgray
gsave
/o {
gsave
newpath
translate
0.6 setlinewidth
1 setlinejoin

0 setlinecap

-0 0 m
-2 0 l

gsave
0.000 setgray
fill
grestore
stroke
grestore
} bind def
100.231 671.403 o
grestore
1.000 setlinewidth
2 setlinecap
0.690 setgray
gsave
646.097 429.28 100.231 316.134 clipbox
100.23125 682.53434 m
746.328069 682.53434 l
stroke
grestore
0.600 setlinewidth
0 setlinecap
0.000 setgray
gsave
/o {
gsave
newpath
translate
0.6 setlinewidth
1 setlinejoin

0 setlinecap

-0 0 m
-2 0 l

gsave
0.000 setgray
fill
grestore
stroke
grestore
} bind def
100.231 682.534 o
grestore
gsave

29.996875 461.601875 translate
90.000000 rotate
0.000000 0 m /R glyphshow
20.844727 0 m /S glyphshow
39.887695 0 m /S glyphshow
58.930664 0 m /space glyphshow
68.466797 0 m /parenleft glyphshow
80.170898 0 m /M glyphshow
106.054688 0 m /B glyphshow
126.635742 0 m /parenright glyphshow
grestore
4.000 setlinewidth
[14.8 6.4] 0 setdash
0.000 0.000 1.000 setrgbcolor
gsave
646.097 429.28 100.231 316.134 clipbox
130.997765 694.05445 m
438.662917 694.167793 l
484.971137 694.490356 l
512.059708 694.532912 l
531.279356 694.614268 l
546.187273 694.809978 l
573.275845 694.980431 l
592.495493 695.258026 l
653.711629 698.534174 l
700.019849 705.745218 l
727.108421 717.667446 l
746.328069 725.901023 l
stroke
grestore
2 setlinecap
[] 0 setdash
1.000 0.000 0.000 setrgbcolor
gsave
646.097 429.28 100.231 316.134 clipbox
130.997765 335.646477 m
438.662917 340.977474 l
484.971137 344.796577 l
512.059708 350.989637 l
531.279356 354.600607 l
546.187273 359.850686 l
573.275845 369.664561 l
592.495493 378.475957 l
653.711629 418.166803 l
700.019849 455.134396 l
727.108421 482.941353 l
746.328069 500.948911 l
stroke
grestore
0 setlinecap
[4 6.6] 0 setdash
1.000 0.647 0.000 setrgbcolor
gsave
646.097 429.28 100.231 316.134 clipbox
130.997765 550.951198 m
438.662917 553.937503 l
484.971137 553.998896 l
512.059708 554.21958 l
531.279356 554.191002 l
546.187273 554.419385 l
573.275845 554.199168 l
592.495493 554.443822 l
653.711629 555.097199 l
700.019849 557.006879 l
727.108421 558.898161 l
746.328069 559.841336 l
stroke
grestore
0.800 setlinewidth
0 setlinejoin
2 setlinecap
[] 0 setdash
0.000 setgray
gsave
100.23125 316.13375 m
100.23125 745.41375 l
stroke
grestore
gsave
746.328069 316.13375 m
746.328069 745.41375 l
stroke
grestore
gsave
100.23125 316.13375 m
746.328069 316.13375 l
stroke
grestore
gsave
100.23125 745.41375 m
746.328069 745.41375 l
stroke
grestore
/DejaVuSans 40.000 selectfont
gsave

254.381222 753.741875 translate
0.000000 rotate
0.000000 0 m /R glyphshow
26.042969 0 m /e glyphshow
50.652344 0 m /s glyphshow
71.492188 0 m /i glyphshow
82.605469 0 m /d glyphshow
107.996094 0 m /e glyphshow
132.605469 0 m /n glyphshow
157.957031 0 m /t glyphshow
173.640625 0 m /space glyphshow
186.355469 0 m /s glyphshow
207.195312 0 m /e glyphshow
231.804688 0 m /t glyphshow
247.488281 0 m /space glyphshow
260.203125 0 m /s glyphshow
281.042969 0 m /i glyphshow
292.156250 0 m /z glyphshow
313.152344 0 m /e glyphshow
grestore
gsave
955.59125 316.13375 m
1601.688069 316.13375 l
1601.688069 745.41375 l
955.59125 745.41375 l
cl
1.000 setgray
fill
grestore
2.000 setlinewidth
1 setlinejoin
0.690 setgray
gsave
646.097 429.28 955.591 316.134 clipbox
986.357765 316.13375 m
986.357765 745.41375 l
stroke
grestore
0.800 setlinewidth
0 setlinecap
0.000 setgray
gsave
/o {
gsave
newpath
translate
0.8 setlinewidth
1 setlinejoin

0 setlinecap

0 0 m
0 -3.5 l

gsave
0.000 setgray
fill
grestore
stroke
grestore
} bind def
986.358 316.134 o
grestore
gsave
959.857765 286.336875 translate
0.000000 rotate
/DejaVuSans 30.0 selectfont
0.000000 0.929688 moveto
/one glyphshow
19.086914 0.929688 moveto
/zero glyphshow
/DejaVuSans 21.0 selectfont
38.460938 12.414062 moveto
/zero glyphshow
grestore
2.000 setlinewidth
2 setlinecap
0.690 setgray
gsave
646.097 429.28 955.591 316.134 clipbox
1140.190341 316.13375 m
1140.190341 745.41375 l
stroke
grestore
0.800 setlinewidth
0 setlinecap
0.000 setgray
gsave
/o {
gsave
newpath
translate
0.8 setlinewidth
1 setlinejoin

0 setlinecap

0 0 m
0 -3.5 l

gsave
0.000 setgray
fill
grestore
stroke
grestore
} bind def
1140.19 316.134 o
grestore
gsave
1113.690341 286.336875 translate
0.000000 rotate
/DejaVuSans 30.0 selectfont
0.000000 0.203125 moveto
/one glyphshow
19.086914 0.203125 moveto
/zero glyphshow
/DejaVuSans 21.0 selectfont
38.460938 11.687500 moveto
/one glyphshow
grestore
2.000 setlinewidth
2 setlinecap
0.690 setgray
gsave
646.097 429.28 955.591 316.134 clipbox
1294.022917 316.13375 m
1294.022917 745.41375 l
stroke
grestore
0.800 setlinewidth
0 setlinecap
0.000 setgray
gsave
/o {
gsave
newpath
translate
0.8 setlinewidth
1 setlinejoin

0 setlinecap

0 0 m
0 -3.5 l

gsave
0.000 setgray
fill
grestore
stroke
grestore
} bind def
1294.02 316.134 o
grestore
gsave
1267.522917 286.336875 translate
0.000000 rotate
/DejaVuSans 30.0 selectfont
0.000000 0.929688 moveto
/one glyphshow
19.086914 0.929688 moveto
/zero glyphshow
/DejaVuSans 21.0 selectfont
38.460938 12.414062 moveto
/two glyphshow
grestore
2.000 setlinewidth
2 setlinecap
0.690 setgray
gsave
646.097 429.28 955.591 316.134 clipbox
1447.855493 316.13375 m
1447.855493 745.41375 l
stroke
grestore
0.800 setlinewidth
0 setlinecap
0.000 setgray
gsave
/o {
gsave
newpath
translate
0.8 setlinewidth
1 setlinejoin

0 setlinecap

0 0 m
0 -3.5 l

gsave
0.000 setgray
fill
grestore
stroke
grestore
} bind def
1447.86 316.134 o
grestore
gsave
1421.355493 286.336875 translate
0.000000 rotate
/DejaVuSans 30.0 selectfont
0.000000 0.929688 moveto
/one glyphshow
19.086914 0.929688 moveto
/zero glyphshow
/DejaVuSans 21.0 selectfont
38.460938 12.414062 moveto
/three glyphshow
grestore
2.000 setlinewidth
2 setlinecap
0.690 setgray
gsave
646.097 429.28 955.591 316.134 clipbox
1601.688069 316.13375 m
1601.688069 745.41375 l
stroke
grestore
0.800 setlinewidth
0 setlinecap
0.000 setgray
gsave
/o {
gsave
newpath
translate
0.8 setlinewidth
1 setlinejoin

0 setlinecap

0 0 m
0 -3.5 l

gsave
0.000 setgray
fill
grestore
stroke
grestore
} bind def
1601.69 316.134 o
grestore
gsave
1575.188069 286.336875 translate
0.000000 rotate
/DejaVuSans 30.0 selectfont
0.000000 0.203125 moveto
/one glyphshow
19.086914 0.203125 moveto
/zero glyphshow
/DejaVuSans 21.0 selectfont
38.460938 11.687500 moveto
/four glyphshow
grestore
1.000 setlinewidth
2 setlinecap
0.690 setgray
gsave
646.097 429.28 955.591 316.134 clipbox
962.528798 316.13375 m
962.528798 745.41375 l
stroke
grestore
0.600 setlinewidth
0 setlinecap
0.000 setgray
gsave
/o {
gsave
newpath
translate
0.6 setlinewidth
1 setlinejoin

0 setlinecap

0 0 m
0 -2 l

gsave
0.000 setgray
fill
grestore
stroke
grestore
} bind def
962.529 316.134 o
grestore
1.000 setlinewidth
2 setlinecap
0.690 setgray
gsave
646.097 429.28 955.591 316.134 clipbox
971.449848 316.13375 m
971.449848 745.41375 l
stroke
grestore
0.600 setlinewidth
0 setlinecap
0.000 setgray
gsave
/o {
gsave
newpath
translate
0.6 setlinewidth
1 setlinejoin

0 setlinecap

0 0 m
0 -2 l

gsave
0.000 setgray
fill
grestore
stroke
grestore
} bind def
971.45 316.134 o
grestore
1.000 setlinewidth
2 setlinecap
0.690 setgray
gsave
646.097 429.28 955.591 316.134 clipbox
979.318773 316.13375 m
979.318773 745.41375 l
stroke
grestore
0.600 setlinewidth
0 setlinecap
0.000 setgray
gsave
/o {
gsave
newpath
translate
0.6 setlinewidth
1 setlinejoin

0 setlinecap

0 0 m
0 -2 l

gsave
0.000 setgray
fill
grestore
stroke
grestore
} bind def
979.319 316.134 o
grestore
1.000 setlinewidth
2 setlinecap
0.690 setgray
gsave
646.097 429.28 955.591 316.134 clipbox
1032.665985 316.13375 m
1032.665985 745.41375 l
stroke
grestore
0.600 setlinewidth
0 setlinecap
0.000 setgray
gsave
/o {
gsave
newpath
translate
0.6 setlinewidth
1 setlinejoin

0 setlinecap

0 0 m
0 -2 l

gsave
0.000 setgray
fill
grestore
stroke
grestore
} bind def
1032.67 316.134 o
grestore
1.000 setlinewidth
2 setlinecap
0.690 setgray
gsave
646.097 429.28 955.591 316.134 clipbox
1059.754557 316.13375 m
1059.754557 745.41375 l
stroke
grestore
0.600 setlinewidth
0 setlinecap
0.000 setgray
gsave
/o {
gsave
newpath
translate
0.6 setlinewidth
1 setlinejoin

0 setlinecap

0 0 m
0 -2 l

gsave
0.000 setgray
fill
grestore
stroke
grestore
} bind def
1059.75 316.134 o
grestore
1.000 setlinewidth
2 setlinecap
0.690 setgray
gsave
646.097 429.28 955.591 316.134 clipbox
1078.974204 316.13375 m
1078.974204 745.41375 l
stroke
grestore
0.600 setlinewidth
0 setlinecap
0.000 setgray
gsave
/o {
gsave
newpath
translate
0.6 setlinewidth
1 setlinejoin

0 setlinecap

0 0 m
0 -2 l

gsave
0.000 setgray
fill
grestore
stroke
grestore
} bind def
1078.97 316.134 o
grestore
1.000 setlinewidth
2 setlinecap
0.690 setgray
gsave
646.097 429.28 955.591 316.134 clipbox
1093.882121 316.13375 m
1093.882121 745.41375 l
stroke
grestore
0.600 setlinewidth
0 setlinecap
0.000 setgray
gsave
/o {
gsave
newpath
translate
0.6 setlinewidth
1 setlinejoin

0 setlinecap

0 0 m
0 -2 l

gsave
0.000 setgray
fill
grestore
stroke
grestore
} bind def
1093.88 316.134 o
grestore
1.000 setlinewidth
2 setlinecap
0.690 setgray
gsave
646.097 429.28 955.591 316.134 clipbox
1106.062776 316.13375 m
1106.062776 745.41375 l
stroke
grestore
0.600 setlinewidth
0 setlinecap
0.000 setgray
gsave
/o {
gsave
newpath
translate
0.6 setlinewidth
1 setlinejoin

0 setlinecap

0 0 m
0 -2 l

gsave
0.000 setgray
fill
grestore
stroke
grestore
} bind def
1106.06 316.134 o
grestore
1.000 setlinewidth
2 setlinecap
0.690 setgray
gsave
646.097 429.28 955.591 316.134 clipbox
1116.361374 316.13375 m
1116.361374 745.41375 l
stroke
grestore
0.600 setlinewidth
0 setlinecap
0.000 setgray
gsave
/o {
gsave
newpath
translate
0.6 setlinewidth
1 setlinejoin

0 setlinecap

0 0 m
0 -2 l

gsave
0.000 setgray
fill
grestore
stroke
grestore
} bind def
1116.36 316.134 o
grestore
1.000 setlinewidth
2 setlinecap
0.690 setgray
gsave
646.097 429.28 955.591 316.134 clipbox
1125.282424 316.13375 m
1125.282424 745.41375 l
stroke
grestore
0.600 setlinewidth
0 setlinecap
0.000 setgray
gsave
/o {
gsave
newpath
translate
0.6 setlinewidth
1 setlinejoin

0 setlinecap

0 0 m
0 -2 l

gsave
0.000 setgray
fill
grestore
stroke
grestore
} bind def
1125.28 316.134 o
grestore
1.000 setlinewidth
2 setlinecap
0.690 setgray
gsave
646.097 429.28 955.591 316.134 clipbox
1133.151348 316.13375 m
1133.151348 745.41375 l
stroke
grestore
0.600 setlinewidth
0 setlinecap
0.000 setgray
gsave
/o {
gsave
newpath
translate
0.6 setlinewidth
1 setlinejoin

0 setlinecap

0 0 m
0 -2 l

gsave
0.000 setgray
fill
grestore
stroke
grestore
} bind def
1133.15 316.134 o
grestore
1.000 setlinewidth
2 setlinecap
0.690 setgray
gsave
646.097 429.28 955.591 316.134 clipbox
1186.498561 316.13375 m
1186.498561 745.41375 l
stroke
grestore
0.600 setlinewidth
0 setlinecap
0.000 setgray
gsave
/o {
gsave
newpath
translate
0.6 setlinewidth
1 setlinejoin

0 setlinecap

0 0 m
0 -2 l

gsave
0.000 setgray
fill
grestore
stroke
grestore
} bind def
1186.5 316.134 o
grestore
1.000 setlinewidth
2 setlinecap
0.690 setgray
gsave
646.097 429.28 955.591 316.134 clipbox
1213.587133 316.13375 m
1213.587133 745.41375 l
stroke
grestore
0.600 setlinewidth
0 setlinecap
0.000 setgray
gsave
/o {
gsave
newpath
translate
0.6 setlinewidth
1 setlinejoin

0 setlinecap

0 0 m
0 -2 l

gsave
0.000 setgray
fill
grestore
stroke
grestore
} bind def
1213.59 316.134 o
grestore
1.000 setlinewidth
2 setlinecap
0.690 setgray
gsave
646.097 429.28 955.591 316.134 clipbox
1232.80678 316.13375 m
1232.80678 745.41375 l
stroke
grestore
0.600 setlinewidth
0 setlinecap
0.000 setgray
gsave
/o {
gsave
newpath
translate
0.6 setlinewidth
1 setlinejoin

0 setlinecap

0 0 m
0 -2 l

gsave
0.000 setgray
fill
grestore
stroke
grestore
} bind def
1232.81 316.134 o
grestore
1.000 setlinewidth
2 setlinecap
0.690 setgray
gsave
646.097 429.28 955.591 316.134 clipbox
1247.714697 316.13375 m
1247.714697 745.41375 l
stroke
grestore
0.600 setlinewidth
0 setlinecap
0.000 setgray
gsave
/o {
gsave
newpath
translate
0.6 setlinewidth
1 setlinejoin

0 setlinecap

0 0 m
0 -2 l

gsave
0.000 setgray
fill
grestore
stroke
grestore
} bind def
1247.71 316.134 o
grestore
1.000 setlinewidth
2 setlinecap
0.690 setgray
gsave
646.097 429.28 955.591 316.134 clipbox
1259.895352 316.13375 m
1259.895352 745.41375 l
stroke
grestore
0.600 setlinewidth
0 setlinecap
0.000 setgray
gsave
/o {
gsave
newpath
translate
0.6 setlinewidth
1 setlinejoin

0 setlinecap

0 0 m
0 -2 l

gsave
0.000 setgray
fill
grestore
stroke
grestore
} bind def
1259.9 316.134 o
grestore
1.000 setlinewidth
2 setlinecap
0.690 setgray
gsave
646.097 429.28 955.591 316.134 clipbox
1270.193949 316.13375 m
1270.193949 745.41375 l
stroke
grestore
0.600 setlinewidth
0 setlinecap
0.000 setgray
gsave
/o {
gsave
newpath
translate
0.6 setlinewidth
1 setlinejoin

0 setlinecap

0 0 m
0 -2 l

gsave
0.000 setgray
fill
grestore
stroke
grestore
} bind def
1270.19 316.134 o
grestore
1.000 setlinewidth
2 setlinecap
0.690 setgray
gsave
646.097 429.28 955.591 316.134 clipbox
1279.115 316.13375 m
1279.115 745.41375 l
stroke
grestore
0.600 setlinewidth
0 setlinecap
0.000 setgray
gsave
/o {
gsave
newpath
translate
0.6 setlinewidth
1 setlinejoin

0 setlinecap

0 0 m
0 -2 l

gsave
0.000 setgray
fill
grestore
stroke
grestore
} bind def
1279.11 316.134 o
grestore
1.000 setlinewidth
2 setlinecap
0.690 setgray
gsave
646.097 429.28 955.591 316.134 clipbox
1286.983924 316.13375 m
1286.983924 745.41375 l
stroke
grestore
0.600 setlinewidth
0 setlinecap
0.000 setgray
gsave
/o {
gsave
newpath
translate
0.6 setlinewidth
1 setlinejoin

0 setlinecap

0 0 m
0 -2 l

gsave
0.000 setgray
fill
grestore
stroke
grestore
} bind def
1286.98 316.134 o
grestore
1.000 setlinewidth
2 setlinecap
0.690 setgray
gsave
646.097 429.28 955.591 316.134 clipbox
1340.331137 316.13375 m
1340.331137 745.41375 l
stroke
grestore
0.600 setlinewidth
0 setlinecap
0.000 setgray
gsave
/o {
gsave
newpath
translate
0.6 setlinewidth
1 setlinejoin

0 setlinecap

0 0 m
0 -2 l

gsave
0.000 setgray
fill
grestore
stroke
grestore
} bind def
1340.33 316.134 o
grestore
1.000 setlinewidth
2 setlinecap
0.690 setgray
gsave
646.097 429.28 955.591 316.134 clipbox
1367.419708 316.13375 m
1367.419708 745.41375 l
stroke
grestore
0.600 setlinewidth
0 setlinecap
0.000 setgray
gsave
/o {
gsave
newpath
translate
0.6 setlinewidth
1 setlinejoin

0 setlinecap

0 0 m
0 -2 l

gsave
0.000 setgray
fill
grestore
stroke
grestore
} bind def
1367.42 316.134 o
grestore
1.000 setlinewidth
2 setlinecap
0.690 setgray
gsave
646.097 429.28 955.591 316.134 clipbox
1386.639356 316.13375 m
1386.639356 745.41375 l
stroke
grestore
0.600 setlinewidth
0 setlinecap
0.000 setgray
gsave
/o {
gsave
newpath
translate
0.6 setlinewidth
1 setlinejoin

0 setlinecap

0 0 m
0 -2 l

gsave
0.000 setgray
fill
grestore
stroke
grestore
} bind def
1386.64 316.134 o
grestore
1.000 setlinewidth
2 setlinecap
0.690 setgray
gsave
646.097 429.28 955.591 316.134 clipbox
1401.547273 316.13375 m
1401.547273 745.41375 l
stroke
grestore
0.600 setlinewidth
0 setlinecap
0.000 setgray
gsave
/o {
gsave
newpath
translate
0.6 setlinewidth
1 setlinejoin

0 setlinecap

0 0 m
0 -2 l

gsave
0.000 setgray
fill
grestore
stroke
grestore
} bind def
1401.55 316.134 o
grestore
1.000 setlinewidth
2 setlinecap
0.690 setgray
gsave
646.097 429.28 955.591 316.134 clipbox
1413.727928 316.13375 m
1413.727928 745.41375 l
stroke
grestore
0.600 setlinewidth
0 setlinecap
0.000 setgray
gsave
/o {
gsave
newpath
translate
0.6 setlinewidth
1 setlinejoin

0 setlinecap

0 0 m
0 -2 l

gsave
0.000 setgray
fill
grestore
stroke
grestore
} bind def
1413.73 316.134 o
grestore
1.000 setlinewidth
2 setlinecap
0.690 setgray
gsave
646.097 429.28 955.591 316.134 clipbox
1424.026525 316.13375 m
1424.026525 745.41375 l
stroke
grestore
0.600 setlinewidth
0 setlinecap
0.000 setgray
gsave
/o {
gsave
newpath
translate
0.6 setlinewidth
1 setlinejoin

0 setlinecap

0 0 m
0 -2 l

gsave
0.000 setgray
fill
grestore
stroke
grestore
} bind def
1424.03 316.134 o
grestore
1.000 setlinewidth
2 setlinecap
0.690 setgray
gsave
646.097 429.28 955.591 316.134 clipbox
1432.947576 316.13375 m
1432.947576 745.41375 l
stroke
grestore
0.600 setlinewidth
0 setlinecap
0.000 setgray
gsave
/o {
gsave
newpath
translate
0.6 setlinewidth
1 setlinejoin

0 setlinecap

0 0 m
0 -2 l

gsave
0.000 setgray
fill
grestore
stroke
grestore
} bind def
1432.95 316.134 o
grestore
1.000 setlinewidth
2 setlinecap
0.690 setgray
gsave
646.097 429.28 955.591 316.134 clipbox
1440.8165 316.13375 m
1440.8165 745.41375 l
stroke
grestore
0.600 setlinewidth
0 setlinecap
0.000 setgray
gsave
/o {
gsave
newpath
translate
0.6 setlinewidth
1 setlinejoin

0 setlinecap

0 0 m
0 -2 l

gsave
0.000 setgray
fill
grestore
stroke
grestore
} bind def
1440.82 316.134 o
grestore
1.000 setlinewidth
2 setlinecap
0.690 setgray
gsave
646.097 429.28 955.591 316.134 clipbox
1494.163712 316.13375 m
1494.163712 745.41375 l
stroke
grestore
0.600 setlinewidth
0 setlinecap
0.000 setgray
gsave
/o {
gsave
newpath
translate
0.6 setlinewidth
1 setlinejoin

0 setlinecap

0 0 m
0 -2 l

gsave
0.000 setgray
fill
grestore
stroke
grestore
} bind def
1494.16 316.134 o
grestore
1.000 setlinewidth
2 setlinecap
0.690 setgray
gsave
646.097 429.28 955.591 316.134 clipbox
1521.252284 316.13375 m
1521.252284 745.41375 l
stroke
grestore
0.600 setlinewidth
0 setlinecap
0.000 setgray
gsave
/o {
gsave
newpath
translate
0.6 setlinewidth
1 setlinejoin

0 setlinecap

0 0 m
0 -2 l

gsave
0.000 setgray
fill
grestore
stroke
grestore
} bind def
1521.25 316.134 o
grestore
1.000 setlinewidth
2 setlinecap
0.690 setgray
gsave
646.097 429.28 955.591 316.134 clipbox
1540.471932 316.13375 m
1540.471932 745.41375 l
stroke
grestore
0.600 setlinewidth
0 setlinecap
0.000 setgray
gsave
/o {
gsave
newpath
translate
0.6 setlinewidth
1 setlinejoin

0 setlinecap

0 0 m
0 -2 l

gsave
0.000 setgray
fill
grestore
stroke
grestore
} bind def
1540.47 316.134 o
grestore
1.000 setlinewidth
2 setlinecap
0.690 setgray
gsave
646.097 429.28 955.591 316.134 clipbox
1555.379849 316.13375 m
1555.379849 745.41375 l
stroke
grestore
0.600 setlinewidth
0 setlinecap
0.000 setgray
gsave
/o {
gsave
newpath
translate
0.6 setlinewidth
1 setlinejoin

0 setlinecap

0 0 m
0 -2 l

gsave
0.000 setgray
fill
grestore
stroke
grestore
} bind def
1555.38 316.134 o
grestore
1.000 setlinewidth
2 setlinecap
0.690 setgray
gsave
646.097 429.28 955.591 316.134 clipbox
1567.560504 316.13375 m
1567.560504 745.41375 l
stroke
grestore
0.600 setlinewidth
0 setlinecap
0.000 setgray
gsave
/o {
gsave
newpath
translate
0.6 setlinewidth
1 setlinejoin

0 setlinecap

0 0 m
0 -2 l

gsave
0.000 setgray
fill
grestore
stroke
grestore
} bind def
1567.56 316.134 o
grestore
1.000 setlinewidth
2 setlinecap
0.690 setgray
gsave
646.097 429.28 955.591 316.134 clipbox
1577.859101 316.13375 m
1577.859101 745.41375 l
stroke
grestore
0.600 setlinewidth
0 setlinecap
0.000 setgray
gsave
/o {
gsave
newpath
translate
0.6 setlinewidth
1 setlinejoin

0 setlinecap

0 0 m
0 -2 l

gsave
0.000 setgray
fill
grestore
stroke
grestore
} bind def
1577.86 316.134 o
grestore
1.000 setlinewidth
2 setlinecap
0.690 setgray
gsave
646.097 429.28 955.591 316.134 clipbox
1586.780152 316.13375 m
1586.780152 745.41375 l
stroke
grestore
0.600 setlinewidth
0 setlinecap
0.000 setgray
gsave
/o {
gsave
newpath
translate
0.6 setlinewidth
1 setlinejoin

0 setlinecap

0 0 m
0 -2 l

gsave
0.000 setgray
fill
grestore
stroke
grestore
} bind def
1586.78 316.134 o
grestore
1.000 setlinewidth
2 setlinecap
0.690 setgray
gsave
646.097 429.28 955.591 316.134 clipbox
1594.649076 316.13375 m
1594.649076 745.41375 l
stroke
grestore
0.600 setlinewidth
0 setlinecap
0.000 setgray
gsave
/o {
gsave
newpath
translate
0.6 setlinewidth
1 setlinejoin

0 setlinecap

0 0 m
0 -2 l

gsave
0.000 setgray
fill
grestore
stroke
grestore
} bind def
1594.65 316.134 o
grestore
/DejaVuSans 30.000 selectfont
gsave

1155.561534 253.305625 translate
0.000000 rotate
0.000000 0 m /numbersign glyphshow
25.136719 0 m /space glyphshow
34.672852 0 m /e glyphshow
52.629883 0 m /x glyphshow
70.383789 0 m /p glyphshow
89.426758 0 m /l glyphshow
97.761719 0 m /i glyphshow
106.096680 0 m /c glyphshow
122.590820 0 m /i glyphshow
130.925781 0 m /t glyphshow
142.688477 0 m /space glyphshow
152.224609 0 m /t glyphshow
163.987305 0 m /r glyphshow
176.321289 0 m /i glyphshow
184.656250 0 m /p glyphshow
203.699219 0 m /l glyphshow
212.034180 0 m /e glyphshow
230.491211 0 m /s glyphshow
grestore
2.000 setlinewidth
2 setlinecap
0.690 setgray
gsave
646.097 429.28 955.591 316.134 clipbox
955.59125 392.457949 m
1601.688069 392.457949 l
stroke
grestore
0.800 setlinewidth
0 setlinecap
0.000 setgray
gsave
/o {
gsave
newpath
translate
0.8 setlinewidth
1 setlinejoin

0 setlinecap

-0 0 m
-3.5 0 l

gsave
0.000 setgray
fill
grestore
stroke
grestore
} bind def
955.591 392.458 o
grestore
gsave
895.591250 381.059512 translate
0.000000 rotate
/DejaVuSans 30.0 selectfont
0.000000 0.203125 moveto
/one glyphshow
19.086914 0.203125 moveto
/zero glyphshow
/DejaVuSans 21.0 selectfont
38.460938 11.687500 moveto
/one glyphshow
grestore
2.000 setlinewidth
2 setlinecap
0.690 setgray
gsave
646.097 429.28 955.591 316.134 clipbox
955.59125 501.109282 m
1601.688069 501.109282 l
stroke
grestore
0.800 setlinewidth
0 setlinecap
0.000 setgray
gsave
/o {
gsave
newpath
translate
0.8 setlinewidth
1 setlinejoin

0 setlinecap

-0 0 m
-3.5 0 l

gsave
0.000 setgray
fill
grestore
stroke
grestore
} bind def
955.591 501.109 o
grestore
gsave
895.591250 489.710844 translate
0.000000 rotate
/DejaVuSans 30.0 selectfont
0.000000 0.929688 moveto
/one glyphshow
19.086914 0.929688 moveto
/zero glyphshow
/DejaVuSans 21.0 selectfont
38.460938 12.414062 moveto
/two glyphshow
grestore
2.000 setlinewidth
2 setlinecap
0.690 setgray
gsave
646.097 429.28 955.591 316.134 clipbox
955.59125 609.760614 m
1601.688069 609.760614 l
stroke
grestore
0.800 setlinewidth
0 setlinecap
0.000 setgray
gsave
/o {
gsave
newpath
translate
0.8 setlinewidth
1 setlinejoin

0 setlinecap

-0 0 m
-3.5 0 l

gsave
0.000 setgray
fill
grestore
stroke
grestore
} bind def
955.591 609.761 o
grestore
gsave
895.591250 598.362176 translate
0.000000 rotate
/DejaVuSans 30.0 selectfont
0.000000 0.929688 moveto
/one glyphshow
19.086914 0.929688 moveto
/zero glyphshow
/DejaVuSans 21.0 selectfont
38.460938 12.414062 moveto
/three glyphshow
grestore
2.000 setlinewidth
2 setlinecap
0.690 setgray
gsave
646.097 429.28 955.591 316.134 clipbox
955.59125 718.411946 m
1601.688069 718.411946 l
stroke
grestore
0.800 setlinewidth
0 setlinecap
0.000 setgray
gsave
/o {
gsave
newpath
translate
0.8 setlinewidth
1 setlinejoin

0 setlinecap

-0 0 m
-3.5 0 l

gsave
0.000 setgray
fill
grestore
stroke
grestore
} bind def
955.591 718.412 o
grestore
gsave
895.591250 707.013508 translate
0.000000 rotate
/DejaVuSans 30.0 selectfont
0.000000 0.203125 moveto
/one glyphshow
19.086914 0.203125 moveto
/zero glyphshow
/DejaVuSans 21.0 selectfont
38.460938 11.687500 moveto
/four glyphshow
grestore
1.000 setlinewidth
2 setlinecap
0.690 setgray
gsave
646.097 429.28 955.591 316.134 clipbox
955.59125 316.513927 m
1601.688069 316.513927 l
stroke
grestore
0.600 setlinewidth
0 setlinecap
0.000 setgray
gsave
/o {
gsave
newpath
translate
0.6 setlinewidth
1 setlinejoin

0 setlinecap

-0 0 m
-2 0 l

gsave
0.000 setgray
fill
grestore
stroke
grestore
} bind def
955.591 316.514 o
grestore
1.000 setlinewidth
2 setlinecap
0.690 setgray
gsave
646.097 429.28 955.591 316.134 clipbox
955.59125 335.646477 m
1601.688069 335.646477 l
stroke
grestore
0.600 setlinewidth
0 setlinecap
0.000 setgray
gsave
/o {
gsave
newpath
translate
0.6 setlinewidth
1 setlinejoin

0 setlinecap

-0 0 m
-2 0 l

gsave
0.000 setgray
fill
grestore
stroke
grestore
} bind def
955.591 335.646 o
grestore
1.000 setlinewidth
2 setlinecap
0.690 setgray
gsave
646.097 429.28 955.591 316.134 clipbox
955.59125 349.221237 m
1601.688069 349.221237 l
stroke
grestore
0.600 setlinewidth
0 setlinecap
0.000 setgray
gsave
/o {
gsave
newpath
translate
0.6 setlinewidth
1 setlinejoin

0 setlinecap

-0 0 m
-2 0 l

gsave
0.000 setgray
fill
grestore
stroke
grestore
} bind def
955.591 349.221 o
grestore
1.000 setlinewidth
2 setlinecap
0.690 setgray
gsave
646.097 429.28 955.591 316.134 clipbox
955.59125 359.750639 m
1601.688069 359.750639 l
stroke
grestore
0.600 setlinewidth
0 setlinecap
0.000 setgray
gsave
/o {
gsave
newpath
translate
0.6 setlinewidth
1 setlinejoin

0 setlinecap

-0 0 m
-2 0 l

gsave
0.000 setgray
fill
grestore
stroke
grestore
} bind def
955.591 359.751 o
grestore
1.000 setlinewidth
2 setlinecap
0.690 setgray
gsave
646.097 429.28 955.591 316.134 clipbox
955.59125 368.353787 m
1601.688069 368.353787 l
stroke
grestore
0.600 setlinewidth
0 setlinecap
0.000 setgray
gsave
/o {
gsave
newpath
translate
0.6 setlinewidth
1 setlinejoin

0 setlinecap

-0 0 m
-2 0 l

gsave
0.000 setgray
fill
grestore
stroke
grestore
} bind def
955.591 368.354 o
grestore
1.000 setlinewidth
2 setlinecap
0.690 setgray
gsave
646.097 429.28 955.591 316.134 clipbox
955.59125 375.627645 m
1601.688069 375.627645 l
stroke
grestore
0.600 setlinewidth
0 setlinecap
0.000 setgray
gsave
/o {
gsave
newpath
translate
0.6 setlinewidth
1 setlinejoin

0 setlinecap

-0 0 m
-2 0 l

gsave
0.000 setgray
fill
grestore
stroke
grestore
} bind def
955.591 375.628 o
grestore
1.000 setlinewidth
2 setlinecap
0.690 setgray
gsave
646.097 429.28 955.591 316.134 clipbox
955.59125 381.928547 m
1601.688069 381.928547 l
stroke
grestore
0.600 setlinewidth
0 setlinecap
0.000 setgray
gsave
/o {
gsave
newpath
translate
0.6 setlinewidth
1 setlinejoin

0 setlinecap

-0 0 m
-2 0 l

gsave
0.000 setgray
fill
grestore
stroke
grestore
} bind def
955.591 381.929 o
grestore
1.000 setlinewidth
2 setlinecap
0.690 setgray
gsave
646.097 429.28 955.591 316.134 clipbox
955.59125 387.486337 m
1601.688069 387.486337 l
stroke
grestore
0.600 setlinewidth
0 setlinecap
0.000 setgray
gsave
/o {
gsave
newpath
translate
0.6 setlinewidth
1 setlinejoin

0 setlinecap

-0 0 m
-2 0 l

gsave
0.000 setgray
fill
grestore
stroke
grestore
} bind def
955.591 387.486 o
grestore
1.000 setlinewidth
2 setlinecap
0.690 setgray
gsave
646.097 429.28 955.591 316.134 clipbox
955.59125 425.16526 m
1601.688069 425.16526 l
stroke
grestore
0.600 setlinewidth
0 setlinecap
0.000 setgray
gsave
/o {
gsave
newpath
translate
0.6 setlinewidth
1 setlinejoin

0 setlinecap

-0 0 m
-2 0 l

gsave
0.000 setgray
fill
grestore
stroke
grestore
} bind def
955.591 425.165 o
grestore
1.000 setlinewidth
2 setlinecap
0.690 setgray
gsave
646.097 429.28 955.591 316.134 clipbox
955.59125 444.297809 m
1601.688069 444.297809 l
stroke
grestore
0.600 setlinewidth
0 setlinecap
0.000 setgray
gsave
/o {
gsave
newpath
translate
0.6 setlinewidth
1 setlinejoin

0 setlinecap

-0 0 m
-2 0 l

gsave
0.000 setgray
fill
grestore
stroke
grestore
} bind def
955.591 444.298 o
grestore
1.000 setlinewidth
2 setlinecap
0.690 setgray
gsave
646.097 429.28 955.591 316.134 clipbox
955.59125 457.87257 m
1601.688069 457.87257 l
stroke
grestore
0.600 setlinewidth
0 setlinecap
0.000 setgray
gsave
/o {
gsave
newpath
translate
0.6 setlinewidth
1 setlinejoin

0 setlinecap

-0 0 m
-2 0 l

gsave
0.000 setgray
fill
grestore
stroke
grestore
} bind def
955.591 457.873 o
grestore
1.000 setlinewidth
2 setlinecap
0.690 setgray
gsave
646.097 429.28 955.591 316.134 clipbox
955.59125 468.401972 m
1601.688069 468.401972 l
stroke
grestore
0.600 setlinewidth
0 setlinecap
0.000 setgray
gsave
/o {
gsave
newpath
translate
0.6 setlinewidth
1 setlinejoin

0 setlinecap

-0 0 m
-2 0 l

gsave
0.000 setgray
fill
grestore
stroke
grestore
} bind def
955.591 468.402 o
grestore
1.000 setlinewidth
2 setlinecap
0.690 setgray
gsave
646.097 429.28 955.591 316.134 clipbox
955.59125 477.005119 m
1601.688069 477.005119 l
stroke
grestore
0.600 setlinewidth
0 setlinecap
0.000 setgray
gsave
/o {
gsave
newpath
translate
0.6 setlinewidth
1 setlinejoin

0 setlinecap

-0 0 m
-2 0 l

gsave
0.000 setgray
fill
grestore
stroke
grestore
} bind def
955.591 477.005 o
grestore
1.000 setlinewidth
2 setlinecap
0.690 setgray
gsave
646.097 429.28 955.591 316.134 clipbox
955.59125 484.278977 m
1601.688069 484.278977 l
stroke
grestore
0.600 setlinewidth
0 setlinecap
0.000 setgray
gsave
/o {
gsave
newpath
translate
0.6 setlinewidth
1 setlinejoin

0 setlinecap

-0 0 m
-2 0 l

gsave
0.000 setgray
fill
grestore
stroke
grestore
} bind def
955.591 484.279 o
grestore
1.000 setlinewidth
2 setlinecap
0.690 setgray
gsave
646.097 429.28 955.591 316.134 clipbox
955.59125 490.57988 m
1601.688069 490.57988 l
stroke
grestore
0.600 setlinewidth
0 setlinecap
0.000 setgray
gsave
/o {
gsave
newpath
translate
0.6 setlinewidth
1 setlinejoin

0 setlinecap

-0 0 m
-2 0 l

gsave
0.000 setgray
fill
grestore
stroke
grestore
} bind def
955.591 490.58 o
grestore
1.000 setlinewidth
2 setlinecap
0.690 setgray
gsave
646.097 429.28 955.591 316.134 clipbox
955.59125 496.137669 m
1601.688069 496.137669 l
stroke
grestore
0.600 setlinewidth
0 setlinecap
0.000 setgray
gsave
/o {
gsave
newpath
translate
0.6 setlinewidth
1 setlinejoin

0 setlinecap

-0 0 m
-2 0 l

gsave
0.000 setgray
fill
grestore
stroke
grestore
} bind def
955.591 496.138 o
grestore
1.000 setlinewidth
2 setlinecap
0.690 setgray
gsave
646.097 429.28 955.591 316.134 clipbox
955.59125 533.816592 m
1601.688069 533.816592 l
stroke
grestore
0.600 setlinewidth
0 setlinecap
0.000 setgray
gsave
/o {
gsave
newpath
translate
0.6 setlinewidth
1 setlinejoin

0 setlinecap

-0 0 m
-2 0 l

gsave
0.000 setgray
fill
grestore
stroke
grestore
} bind def
955.591 533.817 o
grestore
1.000 setlinewidth
2 setlinecap
0.690 setgray
gsave
646.097 429.28 955.591 316.134 clipbox
955.59125 552.949142 m
1601.688069 552.949142 l
stroke
grestore
0.600 setlinewidth
0 setlinecap
0.000 setgray
gsave
/o {
gsave
newpath
translate
0.6 setlinewidth
1 setlinejoin

0 setlinecap

-0 0 m
-2 0 l

gsave
0.000 setgray
fill
grestore
stroke
grestore
} bind def
955.591 552.949 o
grestore
1.000 setlinewidth
2 setlinecap
0.690 setgray
gsave
646.097 429.28 955.591 316.134 clipbox
955.59125 566.523902 m
1601.688069 566.523902 l
stroke
grestore
0.600 setlinewidth
0 setlinecap
0.000 setgray
gsave
/o {
gsave
newpath
translate
0.6 setlinewidth
1 setlinejoin

0 setlinecap

-0 0 m
-2 0 l

gsave
0.000 setgray
fill
grestore
stroke
grestore
} bind def
955.591 566.524 o
grestore
1.000 setlinewidth
2 setlinecap
0.690 setgray
gsave
646.097 429.28 955.591 316.134 clipbox
955.59125 577.053304 m
1601.688069 577.053304 l
stroke
grestore
0.600 setlinewidth
0 setlinecap
0.000 setgray
gsave
/o {
gsave
newpath
translate
0.6 setlinewidth
1 setlinejoin

0 setlinecap

-0 0 m
-2 0 l

gsave
0.000 setgray
fill
grestore
stroke
grestore
} bind def
955.591 577.053 o
grestore
1.000 setlinewidth
2 setlinecap
0.690 setgray
gsave
646.097 429.28 955.591 316.134 clipbox
955.59125 585.656452 m
1601.688069 585.656452 l
stroke
grestore
0.600 setlinewidth
0 setlinecap
0.000 setgray
gsave
/o {
gsave
newpath
translate
0.6 setlinewidth
1 setlinejoin

0 setlinecap

-0 0 m
-2 0 l

gsave
0.000 setgray
fill
grestore
stroke
grestore
} bind def
955.591 585.656 o
grestore
1.000 setlinewidth
2 setlinecap
0.690 setgray
gsave
646.097 429.28 955.591 316.134 clipbox
955.59125 592.930309 m
1601.688069 592.930309 l
stroke
grestore
0.600 setlinewidth
0 setlinecap
0.000 setgray
gsave
/o {
gsave
newpath
translate
0.6 setlinewidth
1 setlinejoin

0 setlinecap

-0 0 m
-2 0 l

gsave
0.000 setgray
fill
grestore
stroke
grestore
} bind def
955.591 592.93 o
grestore
1.000 setlinewidth
2 setlinecap
0.690 setgray
gsave
646.097 429.28 955.591 316.134 clipbox
955.59125 599.231212 m
1601.688069 599.231212 l
stroke
grestore
0.600 setlinewidth
0 setlinecap
0.000 setgray
gsave
/o {
gsave
newpath
translate
0.6 setlinewidth
1 setlinejoin

0 setlinecap

-0 0 m
-2 0 l

gsave
0.000 setgray
fill
grestore
stroke
grestore
} bind def
955.591 599.231 o
grestore
1.000 setlinewidth
2 setlinecap
0.690 setgray
gsave
646.097 429.28 955.591 316.134 clipbox
955.59125 604.789001 m
1601.688069 604.789001 l
stroke
grestore
0.600 setlinewidth
0 setlinecap
0.000 setgray
gsave
/o {
gsave
newpath
translate
0.6 setlinewidth
1 setlinejoin

0 setlinecap

-0 0 m
-2 0 l

gsave
0.000 setgray
fill
grestore
stroke
grestore
} bind def
955.591 604.789 o
grestore
1.000 setlinewidth
2 setlinecap
0.690 setgray
gsave
646.097 429.28 955.591 316.134 clipbox
955.59125 642.467924 m
1601.688069 642.467924 l
stroke
grestore
0.600 setlinewidth
0 setlinecap
0.000 setgray
gsave
/o {
gsave
newpath
translate
0.6 setlinewidth
1 setlinejoin

0 setlinecap

-0 0 m
-2 0 l

gsave
0.000 setgray
fill
grestore
stroke
grestore
} bind def
955.591 642.468 o
grestore
1.000 setlinewidth
2 setlinecap
0.690 setgray
gsave
646.097 429.28 955.591 316.134 clipbox
955.59125 661.600474 m
1601.688069 661.600474 l
stroke
grestore
0.600 setlinewidth
0 setlinecap
0.000 setgray
gsave
/o {
gsave
newpath
translate
0.6 setlinewidth
1 setlinejoin

0 setlinecap

-0 0 m
-2 0 l

gsave
0.000 setgray
fill
grestore
stroke
grestore
} bind def
955.591 661.6 o
grestore
1.000 setlinewidth
2 setlinecap
0.690 setgray
gsave
646.097 429.28 955.591 316.134 clipbox
955.59125 675.175234 m
1601.688069 675.175234 l
stroke
grestore
0.600 setlinewidth
0 setlinecap
0.000 setgray
gsave
/o {
gsave
newpath
translate
0.6 setlinewidth
1 setlinejoin

0 setlinecap

-0 0 m
-2 0 l

gsave
0.000 setgray
fill
grestore
stroke
grestore
} bind def
955.591 675.175 o
grestore
1.000 setlinewidth
2 setlinecap
0.690 setgray
gsave
646.097 429.28 955.591 316.134 clipbox
955.59125 685.704636 m
1601.688069 685.704636 l
stroke
grestore
0.600 setlinewidth
0 setlinecap
0.000 setgray
gsave
/o {
gsave
newpath
translate
0.6 setlinewidth
1 setlinejoin

0 setlinecap

-0 0 m
-2 0 l

gsave
0.000 setgray
fill
grestore
stroke
grestore
} bind def
955.591 685.705 o
grestore
1.000 setlinewidth
2 setlinecap
0.690 setgray
gsave
646.097 429.28 955.591 316.134 clipbox
955.59125 694.307784 m
1601.688069 694.307784 l
stroke
grestore
0.600 setlinewidth
0 setlinecap
0.000 setgray
gsave
/o {
gsave
newpath
translate
0.6 setlinewidth
1 setlinejoin

0 setlinecap

-0 0 m
-2 0 l

gsave
0.000 setgray
fill
grestore
stroke
grestore
} bind def
955.591 694.308 o
grestore
1.000 setlinewidth
2 setlinecap
0.690 setgray
gsave
646.097 429.28 955.591 316.134 clipbox
955.59125 701.581642 m
1601.688069 701.581642 l
stroke
grestore
0.600 setlinewidth
0 setlinecap
0.000 setgray
gsave
/o {
gsave
newpath
translate
0.6 setlinewidth
1 setlinejoin

0 setlinecap

-0 0 m
-2 0 l

gsave
0.000 setgray
fill
grestore
stroke
grestore
} bind def
955.591 701.582 o
grestore
1.000 setlinewidth
2 setlinecap
0.690 setgray
gsave
646.097 429.28 955.591 316.134 clipbox
955.59125 707.882544 m
1601.688069 707.882544 l
stroke
grestore
0.600 setlinewidth
0 setlinecap
0.000 setgray
gsave
/o {
gsave
newpath
translate
0.6 setlinewidth
1 setlinejoin

0 setlinecap

-0 0 m
-2 0 l

gsave
0.000 setgray
fill
grestore
stroke
grestore
} bind def
955.591 707.883 o
grestore
1.000 setlinewidth
2 setlinecap
0.690 setgray
gsave
646.097 429.28 955.591 316.134 clipbox
955.59125 713.440334 m
1601.688069 713.440334 l
stroke
grestore
0.600 setlinewidth
0 setlinecap
0.000 setgray
gsave
/o {
gsave
newpath
translate
0.6 setlinewidth
1 setlinejoin

0 setlinecap

-0 0 m
-2 0 l

gsave
0.000 setgray
fill
grestore
stroke
grestore
} bind def
955.591 713.44 o
grestore
gsave

885.356875 379.586250 translate
90.000000 rotate
0.000000 0 m /E glyphshow
18.955078 0 m /x glyphshow
35.833984 0 m /e glyphshow
54.291016 0 m /c glyphshow
70.785156 0 m /u glyphshow
89.798828 0 m /t glyphshow
101.561523 0 m /i glyphshow
109.896484 0 m /o glyphshow
128.250977 0 m /n glyphshow
147.264648 0 m /space glyphshow
156.800781 0 m /t glyphshow
168.563477 0 m /i glyphshow
176.898438 0 m /m glyphshow
206.122070 0 m /e glyphshow
224.579102 0 m /space glyphshow
234.115234 0 m /parenleft glyphshow
245.819336 0 m /m glyphshow
275.042969 0 m /s glyphshow
290.672852 0 m /parenright glyphshow
grestore
4.000 setlinewidth
[14.8 6.4] 0 setdash
0.000 0.000 1.000 setrgbcolor
gsave
646.097 429.28 955.591 316.134 clipbox
986.357765 600.968341 m
1294.022917 603.351733 l
1340.331137 604.789001 l
1367.419708 605.620506 l
1386.639356 606.386955 l
1401.547273 607.637338 l
1428.635845 610.60242 l
1447.855493 611.701965 l
1509.071629 616.191101 l
1555.379849 620.32775 l
1582.468421 624.200351 l
1601.688069 627.520712 l
stroke
grestore
2 setlinecap
[] 0 setdash
1.000 0.000 0.000 setrgbcolor
gsave
646.097 429.28 955.591 316.134 clipbox
986.357765 335.646477 m
1294.022917 387.486337 l
1340.331137 414.635858 l
1367.419708 445.845052 l
1386.639356 457.87257 l
1401.547273 473.749575 l
1428.635845 503.411527 l
1447.855493 528.051907 l
1509.071629 607.587953 l
1555.379849 664.778358 l
1582.468421 703.107134 l
1601.688069 725.901023 l
stroke
grestore
0 setlinecap
[4 6.6] 0 setdash
1.000 0.647 0.000 setrgbcolor
gsave
646.097 429.28 955.591 316.134 clipbox
986.357765 404.838047 m
1294.022917 411.590499 l
1340.331137 414.635858 l
1367.419708 414.635858 l
1386.639356 414.635858 l
1401.547273 417.496532 l
1428.635845 420.193647 l
1447.855493 422.7449 l
1509.071629 433.768407 l
1555.379849 447.343168 l
1582.468421 455.45221 l
1601.688069 464.467471 l
stroke
grestore
0.800 setlinewidth
0 setlinejoin
2 setlinecap
[] 0 setdash
0.000 setgray
gsave
955.59125 316.13375 m
955.59125 745.41375 l
stroke
grestore
gsave
1601.688069 316.13375 m
1601.688069 745.41375 l
stroke
grestore
gsave
955.59125 316.13375 m
1601.688069 316.13375 l
stroke
grestore
gsave
955.59125 745.41375 m
1601.688069 745.41375 l
stroke
grestore
/DejaVuSans 40.000 selectfont
gsave

1128.944347 753.741875 translate
0.000000 rotate
0.000000 0 m /E glyphshow
25.273438 0 m /x glyphshow
47.695312 0 m /e glyphshow
72.304688 0 m /c glyphshow
94.296875 0 m /u glyphshow
119.648438 0 m /t glyphshow
135.332031 0 m /i glyphshow
146.445312 0 m /o glyphshow
170.917969 0 m /n glyphshow
196.269531 0 m /space glyphshow
208.984375 0 m /t glyphshow
224.667969 0 m /i glyphshow
235.781250 0 m /m glyphshow
274.746094 0 m /e glyphshow
grestore
1.000 setlinewidth
0 setlinecap
0.800 setgray
gsave
722.039546 7.2 m
913.352046 7.2 l
917.352046 7.2 919.352046 9.2 919.352046 13.2 c
919.352046 142.29375 l
919.352046 146.29375 917.352046 148.29375 913.352046 148.29375 c
722.039546 148.29375 l
718.039546 148.29375 716.039546 146.29375 716.039546 142.29375 c
716.039546 13.2 l
716.039546 9.2 718.039546 7.2 722.039546 7.2 c
cl
gsave
1.000 setgray
fill
grestore
stroke
grestore
4.000 setlinewidth
1 setlinejoin
[14.8 6.4] 0 setdash
0.000 0.000 1.000 setrgbcolor
gsave
728.039546 123.996875 m
758.039546 123.996875 l
788.039546 123.996875 l
stroke
grestore
0.000 setgray
/DejaVuSans 30.000 selectfont
gsave

812.039546 113.496875 translate
0.000000 rotate
0.000000 0 m /J glyphshow
8.847656 0 m /e glyphshow
27.304688 0 m /n glyphshow
46.318359 0 m /a glyphshow
grestore
2 setlinecap
[] 0 setdash
1.000 0.000 0.000 setrgbcolor
gsave
728.039546 79.965625 m
758.039546 79.965625 l
788.039546 79.965625 l
stroke
grestore
0.000 setgray
gsave

812.039546 69.465625 translate
0.000000 rotate
0.000000 0 m /L glyphshow
16.713867 0 m /i glyphshow
25.048828 0 m /R glyphshow
44.518555 0 m /o glyphshow
62.873047 0 m /T glyphshow
grestore
0 setlinecap
[4 6.6] 0 setdash
1.000 0.647 0.000 setrgbcolor
gsave
728.039546 35.934375 m
758.039546 35.934375 l
788.039546 35.934375 l
stroke
grestore
0.000 setgray
gsave

812.039546 25.434375 translate
0.000000 rotate
0.000000 0 m /R glyphshow
20.844727 0 m /D glyphshow
43.945312 0 m /F glyphshow
60.076172 0 m /o glyphshow
77.555664 0 m /x glyphshow
grestore

end
showpage
