real_time,user_time,sys_time,max_rss,max_vsz
15970,9990,6666,23032,224607756
15913,6664,6659,23188,224607756
15347,9958,0,23176,224607756
16093,6656,6648,23220,224607756
15844,9977,3331,23364,224607756
15719,13314,0,22796,224607756
15972,16644,0,23244,224607756
15405,9989,3331,23272,224607756
15772,9941,3277,22796,224607756
15810,6659,6635,23088,224607756
15512,13290,0,23180,224607756
15914,13271,3329,23360,224607756
15314,6662,3328,23036,224607756
15888,9903,3325,23300,224607756
16933,9981,6614,23180,224607756
16767,13292,3312,23464,224607756
15946,9898,3328,22800,224607756
16733,9967,6656,22944,224607756
15816,9956,3303,23088,224607756
15462,6655,6552,22948,224607756
