real_time,user_time,sys_time,max_rss,max_vsz
14702,9981,3333,22948,224607756
14762,9982,3331,23152,224607756
14699,13316,0,23176,224607756
14236,9981,3330,23124,224607756
14807,6658,6646,22800,224607756
15132,9988,3324,23452,224607756
14680,6663,6631,23176,224607756
15083,9989,3331,23372,224607756
14547,9991,3329,23084,224607756
14793,9995,3315,23456,224607756
14732,6656,3331,23240,224607756
15015,9991,3331,23120,224607756
14960,9993,3333,23320,224607756
15244,9992,3324,22948,224607756
15239,6664,6648,23064,224607756
15261,9977,3329,23452,224607756
15348,9951,3328,23120,224607756
15726,13272,3332,23360,224607756
14712,9976,3329,23320,224607756
15075,16547,0,23064,224607756
