real_time,user_time,sys_time,max_rss,max_vsz
4760,3333,0,2172,4092
4915,3330,3328,2260,4092
4861,6659,0,2296,4092
4809,3329,0,2288,4092
4885,6643,0,2296,4092
4836,3333,0,2236,4092
4825,6651,0,2300,4092
4838,3332,0,2296,4092
4901,6657,0,2280,4092
5037,3333,0,2272,4092
4907,3333,0,2164,4092
4899,6653,0,2164,4092
4839,3330,0,2284,4092
4912,6633,0,2280,4092
4909,3330,0,2300,4092
4861,3330,3324,2296,4092
4936,3324,0,2296,4092
4957,3283,0,2296,4092
5187,6664,0,2168,4092
5295,6655,0,2292,4092
