real_time,user_time,sys_time,max_rss,max_vsz
22524,23300,0,23360,224607756
24031,23285,0,23372,224607756
22479,9984,6653,23464,224607756
24416,9992,3328,23092,224607756
25767,19967,0,23332,224607756
23318,16619,3328,23440,224607756
22313,13318,3327,23176,224607756
22216,13318,3301,23092,224607756
22060,19966,0,23412,224607756
22329,3329,6664,23328,224607756
22635,3329,6663,23320,224607756
22777,13285,3249,23364,224607756
22438,16636,3296,23332,224607756
22062,16598,0,22944,224607756
22191,6657,6661,23320,224607756
23435,23309,0,23176,224607756
23525,13324,3328,23360,224607756
23509,16647,0,23360,224607756
22506,13326,3331,23372,224607756
21964,13324,3327,23356,224607756
