real_time,user_time,sys_time,max_rss,max_vsz
19088,13306,3331,23508,224607756
18868,3333,6660,23360,224607756
18673,19975,0,23676,224607756
19121,13324,3331,23404,224607756
19205,19916,0,23364,224607756
18776,13320,3328,23428,224607756
19017,16641,0,23248,224607756
19248,16644,0,23392,224607756
18905,16647,0,23356,224607756
19722,9992,9978,23268,224607756
19343,16576,0,23416,224607756
20826,16617,3294,23372,224607756
20027,16541,3322,23544,224607756
18814,16642,0,23412,224607756
19237,13305,0,23248,224607756
18381,3331,6663,22976,224607756
22031,19944,0,23364,224607756
19278,16635,3331,23364,224607756
20755,16647,6660,23132,224607756
20872,16609,3333,23132,224607756
