real_time,user_time,sys_time,max_rss,max_vsz
18394,19841,0,23660,224607756
18873,16629,0,23152,224607756
18696,9977,9991,23292,224607756
19077,16622,3328,23240,224607756
19154,16654,0,23568,224607756
18006,9981,3331,23568,224607756
18598,16643,0,23152,224607756
18230,9876,6658,23504,224607756
18521,9936,9963,23384,224607756
18389,13276,0,23268,224607756
18359,9988,3324,23448,224607756
18234,13316,3329,23376,224607756
19985,16650,3330,23384,224607756
18840,9984,3327,23148,224607756
21211,13314,3329,23388,224607756
20050,13255,3327,23292,224607756
19832,19962,0,23268,224607756
20527,13321,3333,23152,224607756
18605,13285,3333,23568,224607756
18941,13320,6662,23424,224607756
