real_time,user_time,sys_time,max_rss,max_vsz
19706,19919,0,2968,4620
18685,19975,0,2964,4620
17740,16633,0,2948,4620
18423,16633,0,2968,4620
19029,19955,0,2944,4620
18459,19940,0,2964,4620
17875,13287,3301,2944,4620
18126,19945,0,2916,4620
17958,16635,0,2836,4620
18065,16653,3310,2836,4620
18266,16650,0,2836,4620
17877,16643,0,2964,4620
18114,13284,3329,2872,4620
17871,16623,0,2836,4620
17917,16649,0,2836,4620
18311,13293,3330,2892,4620
18151,16622,0,2968,4620
17667,16652,0,2892,4620
18032,16580,0,2876,4620
18216,16644,0,2928,4620
