real_time,user_time,sys_time,max_rss,max_vsz
18619,19977,0,2896,4712
18833,19947,0,2920,4712
17688,16639,0,2912,4712
17892,19941,0,2828,4712
18116,16646,0,2852,4712
18010,19912,0,2900,4712
17581,16604,0,2788,4712
17651,16603,0,2792,4712
18094,19932,0,2876,4712
17861,16594,0,2848,4712
17973,19919,0,2788,4712
17646,16596,0,2920,4712
17906,16616,3333,2900,4712
17868,16651,0,2904,4712
18043,16597,0,2916,4712
17912,16645,3331,2892,4712
17836,16635,0,2916,4712
17783,19971,0,2916,4712
17932,13325,3330,2848,4712
18148,19977,0,2916,4712
