real_time,user_time,sys_time,max_rss,max_vsz
2896402,2894994,0,10172,11972
2927013,2925420,0,10240,11972
2843717,2842126,3331,10104,11972
2836218,2835541,0,10220,11972
2830398,2825539,3331,10236,11972
2834533,2822210,9993,10236,11972
2859635,2848673,9997,10304,11972
2907581,2898861,6663,10236,11972
2906121,2898960,3333,10240,11972
2874307,2868756,3331,10200,11972
2873885,2872213,0,10108,11972
2834413,2828922,6662,10212,11972
2787847,2782265,3332,10304,11972
2829631,2825581,3332,10108,11972
2789254,2782123,6662,10236,11972
2879154,2872365,6663,10232,11972
2784280,2775581,6664,10240,11972
2837136,2832382,3332,10108,11972
2956309,2948865,6664,10228,11972
2824821,2822246,3331,10220,11972
