real_time,user_time,sys_time,max_rss,max_vsz
391067,386408,3332,11516,13376
416755,412573,3331,11564,13376
395825,389685,3331,11544,13376
387329,379607,6661,11516,13376
379965,373082,6664,11588,13376
390509,389782,0,11648,13376
378869,376489,0,11560,13376
386041,379771,3333,11584,13376
390713,386224,3332,11580,13376
378522,379791,0,11648,13376
391150,389718,0,11572,13376
398739,393092,3328,11496,13376
378621,363122,13325,11572,13376
379993,379798,0,11544,13376
381016,379762,0,11456,13376
378450,366512,9992,11572,13376
378392,379813,0,11568,13376
384605,386456,0,11588,13376
383029,383179,0,11652,13376
378583,376512,3332,11584,13376
