real_time,user_time,sys_time,max_rss,max_vsz
766018,762846,3331,16304,18072
722675,712925,9995,16180,18072
723094,716347,6663,16304,18072
727621,723010,3332,16308,18072
740791,736294,3332,16236,18072
744238,742983,3332,16312,18072
743494,739507,3330,16268,18072
730483,729693,0,16268,18072
723588,719709,3332,16296,18072
722217,716306,3331,16284,18072
742245,729656,9992,16372,18072
745282,742768,0,16180,18072
725839,712974,13327,16292,18072
730613,716286,13328,16236,18072
723000,716352,6663,16296,18072
723386,723000,0,16284,18072
726605,716367,9997,16304,18072
723603,716361,6663,16292,18072
727409,716305,13324,16244,18072
726440,726312,0,16308,18072
