real_time,user_time,sys_time,max_rss,max_vsz
5614447,5608068,3332,11124,12952
5839389,5836201,0,11144,12952
5746793,5744706,0,11088,12952
5630374,5628129,0,11144,12952
5624875,5614822,6664,11144,12952
5633978,5621447,9997,11200,12952
5733242,5728123,3332,11204,12952
5783678,5784554,0,11216,12952
5706559,5704555,0,11196,12952
5712801,5711267,0,11204,12952
5726752,5724684,0,11180,12952
5636838,5634727,0,11128,12952
5800746,5794704,3332,11204,12952
5806968,5801096,3332,11196,12952
5747697,5741032,3330,11088,12952
5775082,5774679,0,11280,12952
5730302,5717859,9997,11220,12952
5721888,5718198,0,11220,12952
5769931,5761306,3332,11284,12952
5651370,5648116,0,11284,12952
