real_time,user_time,sys_time,max_rss,max_vsz
1010858,0,0,102488,10743612
1017286,0,0,103428,10743612
997992,0,0,102820,10743612
1015208,0,3332,102932,10743612
1027323,0,0,103308,10743612
1007354,3333,0,102416,10743612
1012264,3333,0,102588,10678076
1036227,3333,0,102960,10743612
988363,0,3333,102340,10743612
989437,0,0,102588,10743612
1025655,0,3329,102452,10743612
1017379,3333,0,102280,10743612
1020374,0,0,102232,10743612
1005649,0,3333,102524,10743612
1000225,0,3333,102304,10743612
1017528,0,3333,102572,10743612
1022609,3333,0,102508,10743612
1023169,0,3329,102320,10743612
1031820,3333,0,102780,10743612
1003151,3333,0,102596,10743612
