real_time,user_time,sys_time,max_rss,max_vsz
20271,19915,0,2628,4484
20683,19959,0,2744,4484
20621,19965,0,2740,4484
18614,16544,0,2752,4484
20681,19972,0,2628,4484
19538,19975,0,2692,4484
19390,19948,0,2716,4484
18763,16625,0,2740,4484
18498,19981,0,2760,4484
18202,16640,0,2736,4484
18426,16644,0,2664,4484
18259,16615,3330,2740,4484
19952,19881,0,2760,4484
18811,16587,0,2744,4484
19433,16595,0,2688,4484
18467,16637,3333,2700,4484
19381,19897,0,2692,4484
18503,16642,0,2716,4484
18739,16623,0,2668,4484
19053,16584,3329,2624,4484
