real_time,user_time,sys_time,max_rss,max_vsz
2546,0,0,2268,3956
2893,0,3331,2144,3956
3665,3333,0,2268,3956
2440,0,0,2272,3956
2474,0,3327,2136,3956
2769,3333,0,2100,3956
2319,0,0,2144,3956
2309,3333,0,2256,3956
2410,3330,0,2176,3956
2238,3315,0,2268,3956
2246,0,0,2144,3956
2395,3333,0,2248,3956
2355,3328,0,2232,3956
2450,0,0,2272,3956
2403,0,0,2196,3956
2451,3322,0,2140,3956
2371,3329,0,2176,3956
2433,0,3333,2208,3956
2551,3333,0,2176,3956
2425,3329,0,2264,3956
