real_time,user_time,sys_time,max_rss,max_vsz
4072,3329,0,2480,4220
3366,3329,0,2444,4220
3597,3325,3296,2508,4220
3281,3331,0,2500,4220
3243,3310,0,2372,4220
3279,3326,0,2504,4220
3232,3331,0,2488,4220
3236,0,0,2500,4220
3295,3302,0,2372,4220
3269,3331,0,2492,4220
3278,3325,0,2480,4220
3357,3326,0,2492,4220
3315,0,3323,2488,4220
3273,3305,0,2376,4220
3386,3333,0,2480,4220
3417,3333,0,2440,4220
3506,3301,0,2432,4220
3471,3330,0,2492,4220
3483,3332,0,2492,4220
3497,3331,0,2376,4220
