real_time,user_time,sys_time,max_rss,max_vsz
14917,16591,0,2668,4332
15736,13321,0,2660,4332
14720,13312,0,2536,4332
14656,16649,0,2672,4332
14128,13319,0,2604,4332
14210,16607,0,2668,4332
14255,13309,0,2672,4332
14356,9948,3330,2668,4332
14193,13314,3333,2628,4332
13873,13322,0,2672,4332
14301,13291,0,2660,4332
13888,16648,0,2596,4332
14622,13316,0,2668,4332
14921,16591,0,2656,4332
14102,13320,0,2604,4332
14954,16644,0,2576,4332
14914,13265,0,2648,4332
14897,16644,0,2600,4332
14764,13291,0,2668,4332
15139,13283,0,2544,4332
