reasoner,dataset-size,real_time,user_time,sys_time,max_rss,max_vsz
Jena,1,825950,1111,740,101683,10743612
Jena,100,875178,926,740,101745,10739971
Jena,200,900841,925,1296,102041,10736330
Jena,300,914980,925,1294,102040,10732689
Jena,400,931545,370,1850,102232,10736330
Jena,500,951053,185,1480,102436,10739971
Jena,750,995066,740,924,102704,10736362
Jena,1000,1033565,741,1851,102898,10743612
Jena,2500,1152140,1481,1481,107943,10736330
Jena,5000,1251490,2036,555,114962,10732689
Jena,7500,1348140,1481,1480,129136,10743612
Jena,10000,1437375,925,1296,143247,10732689
LiRoT,1,2834,3143,0,2229,3960
LiRoT,100,5239,4991,366,2318,4092
LiRoT,200,7408,6841,555,2424,4224
LiRoT,300,11541,11091,185,2590,4356
LiRoT,400,13335,13303,185,2712,4488
LiRoT,500,16812,16431,370,2845,4620
LiRoT,750,25046,25144,0,3144,4884
LiRoT,1000,37043,36422,555,3502,5148
LiRoT,2500,130623,130092,554,5279,7052
LiRoT,5000,353075,351439,1481,7770,9452
LiRoT,7500,715943,714641,925,10306,12064
LiRoT,10000,1085862,1081513,3701,12331,14028
RDFox,1,12908,8501,4614,22386,224607756
RDFox,100,14654,11454,2396,22578,224607756
RDFox,200,15039,11081,2578,23073,224607756
RDFox,300,14843,9980,3503,23070,224607756
RDFox,400,15382,12373,2032,23124,224607756
RDFox,500,15993,12562,2025,23114,224607756
RDFox,750,16520,11825,3502,23182,224607756
RDFox,1000,16591,11459,4434,23133,224607756
RDFox,2500,19432,15147,2403,23351,224607756
RDFox,5000,23959,16830,3508,23967,224607756
RDFox,7500,27467,19225,3695,24161,224607756
RDFox,10000,31374,21998,3877,24321,224607756
RETE,1,2828,2401,0,2324,4084
RETE,100,6818,5725,1109,2494,4208
RETE,200,7255,6654,555,2670,4348
RETE,300,11838,10900,370,2944,4616
RETE,400,13680,12932,370,3097,4880
RETE,500,16937,16808,0,3333,5008
RETE,750,25962,24775,1295,3829,5544
RETE,1000,38732,37717,1110,4397,6068
RETE,2500,133653,132853,925,7342,9068
RETE,5000,355622,353497,2036,11528,13244
RETE,7500,718488,714420,3517,15954,17636
RETE,10000,1090648,1083946,4998,19633,21288
RETE+alpha,1,2720,2401,370,2218,3956
RETE+alpha,100,5019,4622,370,2369,4088
RETE+alpha,200,7311,7210,0,2488,4220
RETE+alpha,300,11514,11271,0,2709,4484
RETE+alpha,400,13401,12557,370,2782,4600
RETE+alpha,500,16959,16246,369,2973,4632
RETE+alpha,750,25765,24946,925,3313,5028
RETE+alpha,1000,37471,36604,925,3729,5492
RETE+alpha,2500,130367,128415,1479,5838,7560
RETE+alpha,5000,354916,353455,1661,8859,10564
RETE+alpha,7500,708632,704810,3700,11990,13724
RETE+alpha,10000,1077665,1075013,2035,14516,16268
RETE+terms,1,3189,2952,185,2219,3960
RETE+terms,100,5511,5342,0,2370,4092
RETE+terms,200,8258,7570,369,2494,4224
RETE+terms,300,12296,12194,184,2672,4356
RETE+terms,400,14165,14221,0,2805,4472
RETE+terms,500,17711,17920,0,2949,4632
RETE+terms,750,26606,25134,185,3268,5028
RETE+terms,1000,39441,38646,925,3652,5356
RETE+terms,2500,139283,138221,925,5680,7424
RETE+terms,5000,377789,375115,2220,8508,10248
RETE+terms,7500,762700,761231,740,11377,13052
RETE+terms,10000,1182276,1178222,2591,13705,15428
