real_time,user_time,sys_time,max_rss,max_vsz
1192247,1189210,0,13688,15428
1141153,1136196,3331,13632,15428
1143428,1139436,3328,13696,15428
1166461,1156070,9996,13764,15428
1202333,1199395,3329,13760,15428
1270022,1268731,0,13700,15428
1282359,1282234,0,13688,15428
1261367,1262344,0,13696,15428
1268576,1262271,3330,13748,15428
1167287,1165956,0,13760,15428
1188061,1182712,3332,13668,15428
1142965,1132815,6661,13672,15428
1147667,1136124,9994,13760,15428
1172005,1169371,0,13828,15428
1165296,1166128,0,13636,15428
1155882,1149512,6664,13696,15428
1168002,1166141,0,13636,15428
1144516,1139491,3331,13736,15428
1164784,1159437,3331,13744,15428
1160063,1159469,0,13636,15428
