real_time,user_time,sys_time,max_rss,max_vsz
13079,6626,6657,22164,224607756
13082,9992,3323,22568,224607756
13517,13306,0,22160,224607756
13874,9989,3284,22488,224607756
12742,9957,0,22328,224607756
12350,9989,0,22456,224607756
12539,6659,3320,22328,224607756
12563,6656,3325,22536,224607756
13188,9944,3329,22536,224607756
14887,6660,3328,22328,224607756
13213,13320,0,22480,224607756
12639,9984,3301,22308,224607756
12932,13324,0,22672,224607756
13751,9967,0,22636,224607756
12932,6661,6664,22308,224607756
13526,9987,3322,22332,224607756
12328,6657,3329,22704,224607756
13006,13309,0,22160,224607756
13826,13312,0,22400,224607756
13447,6614,6658,22484,224607756
