real_time,user_time,sys_time,max_rss,max_vsz
14260,9975,3316,22556,224607756
14381,6630,6658,22480,224607756
12169,9939,3290,22660,224607756
12826,13309,0,22164,224607756
12550,9990,3326,22548,224607756
12891,13271,0,22552,224607756
12789,13283,0,22672,224607756
12547,9984,3325,22252,224607756
12461,9983,3333,22164,224607756
12618,6664,3325,22672,224607756
12689,9993,0,22532,224607756
13422,6655,6640,22160,224607756
13101,6660,6655,22480,224607756
12628,9990,3325,22252,224607756
12372,6662,6657,22456,224607756
12589,9990,3333,22460,224607756
12607,9986,3324,22400,224607756
12822,9971,3301,22668,224607756
12731,6658,6649,22532,224607756
12559,9994,3333,22164,224607756
