real_time,user_time,sys_time,max_rss,max_vsz
12660,9978,0,22392,224607756
12062,9988,0,22392,224607756
12418,6658,3329,22368,224607756
13538,9985,0,22540,224607756
14122,9985,3333,22528,224607756
13912,9995,3328,22312,224607756
13777,13319,0,22628,224607756
13697,9994,3328,22312,224607756
13945,13317,0,22392,224607756
15178,9962,0,22592,224607756
14459,9974,3330,22696,224607756
11877,6661,3332,22388,224607756
11959,6654,6650,22220,224607756
12468,9995,3331,22880,224607756
12775,6647,3331,22372,224607756
13302,6661,3322,22596,224607756
13034,6640,3326,22692,224607756
13339,13263,0,22312,224607756
13278,3330,6655,22580,224607756
13150,9984,0,22540,224607756
