real_time,user_time,sys_time,max_rss,max_vsz
20081,19972,0,23564,224607756
19761,9986,6658,23288,224607756
25837,13308,9961,23484,224607756
24895,16639,6660,23220,224607756
19674,13313,6656,22996,224607756
19113,13249,6647,23388,224607756
19013,13320,6651,23520,224607756
19976,16641,3330,23564,224607756
20549,9996,3327,23264,224607756
22861,13306,0,23380,224607756
22800,16637,3324,23376,224607756
20203,9982,6662,23000,224607756
19556,19944,0,23380,224607756
19393,19983,0,23496,224607756
21699,13317,3310,23564,224607756
20331,13318,3325,23284,224607756
23398,16565,6638,23420,224607756
21468,9963,3299,23152,224607756
19558,6660,3333,23440,224607756
19248,13265,3332,23652,224607756
