real_time,user_time,sys_time,max_rss,max_vsz
15893,9984,3323,22760,224607756
17000,16629,0,22848,224607756
20145,19952,0,22744,224607756
20486,16628,0,22372,224607756
20996,13301,6660,22744,224607756
19971,16637,3326,22544,224607756
20443,9968,9995,22884,224607756
20183,16644,3331,22672,224607756
20995,16629,3328,22460,224607756
20759,16618,3331,22692,224607756
25220,16606,0,22612,224607756
19357,13318,3323,22696,224607756
19388,9986,6653,22612,224607756
16340,13241,0,22848,224607756
15246,13305,0,22876,224607756
15814,13323,3329,22524,224607756
14652,16509,0,22376,224607756
14735,9985,3323,22612,224607756
13866,6649,6651,22696,224607756
13906,9994,3331,22872,224607756
