real_time,user_time,sys_time,max_rss,max_vsz
487075,486427,0,7460,9184
484456,479724,3333,7356,9184
477552,479809,0,7516,9184
476894,473049,3327,7516,9184
475343,473054,3332,7464,9184
478545,476455,3331,7524,9184
482164,483070,0,7508,9184
478117,479799,0,7524,9184
484159,476409,6660,7484,9184
478582,479702,0,7488,9184
484702,479767,6662,7460,9184
478136,469727,6662,7528,9184
477885,476464,0,7472,9184
476981,476463,0,7508,9184
478823,479805,0,7452,9184
479561,476418,3331,7516,9184
485128,486408,0,7508,9184
471899,473125,0,7504,9184
475656,476440,0,7396,9184
482244,479815,3331,7592,9184
