real_time,user_time,sys_time,max_rss,max_vsz
1065639,0,3333,104440,10743612
1091230,3329,0,102984,10743612
1091411,3330,0,111092,10743612
1065948,3330,0,102776,10743612
1051698,0,3333,103024,10743612
1095607,0,0,113252,10743612
1070817,3328,0,102948,10743612
1054485,0,3333,104008,10743612
1053246,3333,0,103232,10678076
1037009,0,0,102892,10743612
1066839,3302,0,103184,10743612
1073191,0,3333,102752,10743612
1075138,0,3333,102808,10743612
1038487,0,3333,103772,10743612
1045804,0,3333,102984,10743612
1050807,0,0,102996,10743612
1054896,0,0,103096,10743612
1035465,0,0,102820,10743612
1065705,0,0,102924,10743612
1052794,3333,0,102904,10678076
