real_time,user_time,sys_time,max_rss,max_vsz
17134,16624,0,2748,4492
17342,16633,0,2760,4492
17267,16654,0,2692,4492
16650,13308,3330,2760,4492
16313,13317,0,2736,4492
16845,16624,0,2688,4492
16342,16625,0,2760,4492
16347,16630,0,2672,4492
16461,16651,0,2760,4492
16664,16644,0,2760,4492
17110,16645,0,2752,4492
17164,16634,0,2756,4492
16216,16650,0,2692,4492
16439,16640,0,2668,4492
16219,16649,0,2632,4492
16378,16636,0,2700,4492
16459,16648,0,2764,4492
16392,16646,0,2760,4492
16575,16583,0,2748,4492
16380,16648,0,2744,4492
