real_time,user_time,sys_time,max_rss,max_vsz
1026398,1026012,0,10660,12516
960928,959517,3329,10724,12516
976211,972904,3332,10700,12516
964662,962958,0,10792,12516
972431,966220,3331,10700,12516
962317,959581,3332,10596,12516
957521,952962,3332,10632,12516
960479,959655,0,10704,12516
963907,959610,3329,10592,12516
985802,982860,3332,10596,12516
967860,962929,6664,10596,12516
969810,969623,0,10596,12516
956616,956315,0,10700,12516
955578,952881,0,10632,12516
963790,959608,3328,10592,12516
965471,962999,3332,10708,12516
986011,979599,6663,10704,12516
979688,979621,0,10652,12516
962866,962904,0,10708,12516
1045195,1042985,3333,10700,12516
