real_time,user_time,sys_time,max_rss,max_vsz
913169,0,3329,101956,10743612
897084,0,0,101968,10743612
896684,0,0,101656,10743612
895594,0,3333,101876,10678076
883440,3333,0,101928,10743612
896660,0,0,101980,10678076
901337,3331,0,101772,10743612
893510,0,3333,101776,10678076
892211,3333,0,101872,10743612
894495,3332,0,101976,10743612
888452,0,3331,101836,10743612
897489,3329,0,101788,10743612
906810,0,0,102240,10743612
905259,0,3320,102124,10678076
900435,0,3302,102088,10743612
897126,0,3332,101956,10678076
884104,0,0,101960,10743612
906403,0,0,101796,10743612
895654,0,3332,101656,10743612
893011,3330,0,101836,10743612
