real_time,user_time,sys_time,max_rss,max_vsz
917839,0,0,101912,10743612
899778,0,0,101860,10743612
908223,3333,0,102012,10743612
908244,0,3333,101824,10743612
904832,3333,0,101864,10743612
897343,3333,0,101752,10743612
915002,0,3329,101860,10743612
886750,3333,0,101832,10743612
892198,0,0,101856,10743612
891041,0,0,101740,10743612
894864,0,0,101848,10743612
896258,0,0,101820,10743612
890455,3333,0,102032,10743612
904005,0,0,101908,10743612
892779,0,0,102012,10743612
897561,3333,0,101544,10743612
901695,0,0,102044,10743612
901618,0,3333,102000,10743612
903475,0,0,102044,10743612
904497,0,3329,102044,10743612
