real_time,user_time,sys_time,max_rss,max_vsz
15022,13313,0,23100,224607756
15549,9991,3323,23372,224607756
15660,9989,3331,22960,224607756
16323,9983,3320,23168,224607756
18438,16617,0,23048,224607756
18286,13315,6653,23048,224607756
18566,13310,3308,23468,224607756
16332,16624,0,23132,224607756
14264,9990,3333,23192,224607756
14689,9981,3328,23256,224607756
15807,9991,3323,23264,224607756
15012,13284,0,23336,224607756
15277,6662,3327,23076,224607756
15899,6655,3331,23096,224607756
15141,6659,6661,23332,224607756
16279,16633,0,22808,224607756
15390,9991,0,23376,224607756
15175,9980,3329,23312,224607756
14702,9995,3297,23284,224607756
15366,13308,0,22808,224607756
