real_time,user_time,sys_time,max_rss,max_vsz
18422,16649,0,2708,4516
18511,19949,0,2768,4516
18738,19982,0,2680,4516
18515,19979,0,2768,4516
18466,16650,0,2640,4516
18661,19940,0,2768,4516
18387,16645,0,2600,4516
18636,16644,0,2764,4516
18684,19979,0,2768,4516
18638,16627,3331,2676,4516
18592,16561,0,2696,4516
18362,19957,0,2704,4516
19241,19973,0,2768,4516
19672,19944,0,2676,4516
19645,19984,0,2704,4516
19704,19957,0,2756,4516
19498,16635,3329,2768,4516
18811,19978,0,2696,4516
18814,19982,0,2728,4516
18689,16535,0,2772,4516
