real_time,user_time,sys_time,max_rss,max_vsz
11167,9988,0,2648,4380
10843,13278,0,2636,4380
10756,6655,3329,2636,4380
11411,9982,0,2520,4380
11233,9978,3329,2524,4380
11350,9989,0,2636,4380
11421,13290,0,2652,4380
11434,9987,0,2652,4380
11440,9979,0,2652,4380
11237,13255,0,2612,4380
10704,9983,0,2524,4380
10471,9978,0,2648,4380
10984,13311,0,2644,4380
10638,9988,0,2560,4380
10615,9988,0,2528,4380
10888,9990,0,2524,4380
10794,9992,0,2640,4380
11070,9991,0,2524,4380
12614,13310,0,2652,4380
13358,13312,0,2648,4380
