real_time,user_time,sys_time,max_rss,max_vsz
7169,3330,3325,2520,4224
6882,6656,0,2532,4224
7015,6604,0,2400,4224
6905,6659,0,2520,4224
7458,6633,0,2492,4224
7151,3327,6664,2516,4224
6997,6654,0,2520,4224
7150,6663,0,2512,4224
7081,6662,0,2404,4224
6990,6656,3333,2536,4224
6895,6656,0,2532,4224
7394,6657,0,2460,4224
7136,6660,0,2408,4224
6930,3328,3333,2516,4224
7195,6658,0,2532,4224
7145,6659,0,2536,4224
7218,6644,3327,2536,4224
6925,6655,0,2492,4224
7594,6655,0,2400,4224
8279,6657,0,2400,4224
