real_time,user_time,sys_time,max_rss,max_vsz
243298,239737,3330,4708,6440
224328,226541,0,4616,6440
241548,239865,0,4616,6440
227225,223223,3324,4728,6440
226106,226539,0,4620,6440
226306,226517,0,4748,6440
227916,223112,6649,4684,6440
228814,226478,3326,4740,6440
228968,229838,0,4732,6440
223231,223167,0,4616,6440
226073,226486,0,4620,6440
225797,226562,0,4708,6440
226040,226546,0,4712,6440
225109,226548,0,4616,6440
228075,226552,0,4684,6440
226439,223216,3333,4728,6440
230686,229818,0,4736,6440
229043,223135,6622,4748,6440
227487,223217,3329,4752,6440
225564,223226,3333,4748,6440
