real_time,user_time,sys_time,max_rss,max_vsz
77540,76599,0,5276,7060
80342,79936,0,5292,7060
78736,79716,0,5292,7060
75155,76519,0,5164,7060
73473,69953,3328,5164,7060
74214,69931,3328,5204,7060
74240,73230,0,5164,7060
75552,76590,0,5296,7060
80879,79932,0,5296,7060
76115,73235,3330,5292,7060
74683,73282,0,5280,7060
73436,69951,3329,5296,7060
74905,73239,0,5280,7060
74893,73193,0,5160,7060
75320,76596,0,5296,7060
73627,73298,0,5284,7060
73160,73268,0,5228,7060
75025,73284,3328,5160,7060
75179,76558,0,5200,7060
74293,73271,0,5284,7060
