real_time,user_time,sys_time,max_rss,max_vsz
1193561,1188901,3331,14956,16704
1071717,1066131,6663,14924,16704
1101674,1096082,3331,14980,16704
1086207,1086196,0,14972,16704
1083148,1072786,9996,14992,16704
1066942,1066133,0,14904,16704
1073327,1072764,0,14980,16704
1088535,1086146,3332,14984,16704
1077741,1072879,6664,14992,16704
1060757,1059524,0,14980,16704
1057534,1052894,3332,14980,16704
1092172,1086141,6663,14980,16704
1065052,1059473,6663,14996,16704
1057935,1059396,0,14980,16704
1089937,1085913,3332,14980,16704
1088978,1086166,3332,14936,16704
1055623,1056165,0,14992,16704
1094075,1089497,6664,14864,16704
1091165,1089483,0,14904,16704
1062725,1062822,0,14992,16704
