real_time,user_time,sys_time,max_rss,max_vsz
15870,13313,0,2560,4224
16747,16571,0,2556,4224
15718,13312,0,2552,4224
15390,13286,0,2444,4224
14903,13314,0,2564,4224
14927,16620,0,2556,4224
15242,13265,0,2440,4224
15313,16622,0,2496,4224
15251,13312,0,2548,4224
15393,13282,0,2552,4224
15201,16639,0,2480,4224
15016,13315,0,2568,4224
15758,16616,0,2568,4224
15705,13321,3327,2556,4224
14999,13314,0,2564,4224
15276,16640,0,2568,4224
15130,16649,0,2504,4224
15048,13308,0,2544,4224
15485,16648,0,2548,4224
15874,16640,0,2568,4224
