real_time,user_time,sys_time,max_rss,max_vsz
1250393,3327,0,118460,10743612
1270716,0,3333,111664,10743612
1298400,0,3333,117380,10743612
1287838,3333,0,114440,10678076
1234380,3331,0,113156,10678076
1251179,3333,0,116032,10743612
1226950,3333,0,116104,10743612
1264687,3333,0,113144,10743612
1257443,3333,0,115856,10743612
1234481,0,3333,112892,10678076
1257208,3333,0,114644,10743612
1247722,3331,0,113912,10743612
1268260,3301,0,115424,10743612
1237621,3330,0,112356,10743612
1238026,0,3330,119264,10743612
1234734,3330,0,115100,10743612
1280977,0,3333,113628,10678076
1257845,3333,0,115740,10743612
1234380,0,3329,117408,10743612
1287422,3333,0,114832,10678076
