real_time,user_time,sys_time,max_rss,max_vsz
1202719,0,0,113112,10743612
1256256,3329,0,114276,10743612
1254158,0,3333,114736,10678076
1255519,0,0,115204,10743612
1254403,3333,0,113528,10743612
1272234,0,3327,114188,10743612
1254304,3330,0,115012,10743612
1281775,3333,0,117096,10743612
1270755,3333,0,116688,10678076
1240882,3333,0,114432,10743612
1254453,3333,0,114164,10743612
1248821,3333,0,119516,10746540
1259862,0,3333,115828,10743612
1241875,3333,0,114424,10743612
1221816,3333,0,114980,10743612
1251810,0,3333,114780,10743612
1224150,3333,0,111372,10678076
1315498,0,0,114064,10743612
1256108,3333,0,115332,10743612
1227635,0,0,117476,10678076
