real_time,user_time,sys_time,max_rss,max_vsz
19405,19954,0,2772,4500
19248,19974,0,2708,4500
19688,19975,0,2768,4500
18426,19938,0,2768,4500
18227,16644,0,2772,4500
18514,16601,0,2764,4500
18532,19934,0,2696,4500
17995,16632,0,2772,4500
18405,19932,0,2768,4500
18247,16620,0,2768,4500
18194,16594,0,2640,4500
18162,19979,0,2700,4500
19187,19873,0,2640,4500
17972,16617,0,2744,4500
18112,19976,0,2772,4500
17810,16633,0,2700,4500
18406,19955,0,2640,4500
18343,16617,0,2636,4500
18330,16609,0,2704,4500
18287,16597,3328,2756,4500
