real_time,user_time,sys_time,max_rss,max_vsz
5849,3333,0,2324,4092
6198,6604,0,2268,4092
7901,9993,0,2396,4092
5591,6636,0,2380,4092
6109,6605,0,2396,4092
5890,6651,0,2264,4092
5820,3328,0,2396,4092
5550,3309,0,2396,4092
5663,3331,0,2268,4092
6103,6654,0,2396,4092
6369,3333,0,2268,4092
6459,6501,0,2360,4092
6284,6656,0,2400,4092
6356,6655,0,2396,4092
6325,6644,0,2264,4092
6283,3331,0,2268,4092
6992,6661,0,2380,4092
6838,6657,0,2360,4092
6939,6637,0,2268,4092
6833,6654,0,2268,4092
