real_time,user_time,sys_time,max_rss,max_vsz
22592,16548,3329,23680,224607756
20598,16626,0,23676,224607756
20628,16650,3331,23676,224607756
21134,16580,0,23704,224607756
20548,9993,3331,23468,224607756
21214,13306,3298,23848,224607756
20573,16649,0,23704,224607756
20784,16647,0,23848,224607756
20812,16649,0,23700,224607756
23405,13316,9968,23820,224607756
23158,19966,0,23592,224607756
21498,16652,6648,23884,224607756
20687,16559,0,23324,224607756
21249,19937,3310,23324,224607756
21440,13291,3329,23848,224607756
21389,16618,0,23676,224607756
21518,23248,0,23588,224607756
21220,13321,3331,23700,224607756
22614,16613,0,23468,224607756
23167,19935,0,23588,224607756
