real_time,user_time,sys_time,max_rss,max_vsz
117847,116595,0,3648,5376
112977,109940,3333,3744,5376
116140,113242,0,3720,5376
112313,106593,3333,3680,5376
120426,116534,6660,3612,5376
113028,113257,0,3612,5376
113102,113257,0,3612,5376
114360,113274,0,3668,5376
113864,113265,3333,3700,5376
111866,109943,0,3720,5376
112763,113242,0,3724,5376
111105,109947,0,3608,5376
112973,109931,3333,3716,5376
112110,109904,0,3740,5376
115243,116591,0,3616,5376
117243,116608,0,3568,5376
112439,106596,3330,3736,5376
114669,113272,0,3676,5376
113077,113272,0,3652,5376
113660,113253,0,3740,5376
