real_time,user_time,sys_time,max_rss,max_vsz
14439,13285,0,22448,224607756
14168,9983,3323,21984,224607756
13283,9993,0,22220,224607756
13149,9982,0,22448,224607756
12824,6655,3329,22416,224607756
12745,13275,0,22240,224607756
12731,6656,6655,22128,224607756
12789,9971,3327,22448,224607756
12558,6655,6613,22364,224607756
13348,6657,6626,22160,224607756
13165,9968,3330,22368,224607756
13769,13264,0,22372,224607756
12757,9983,0,22208,224607756
13283,9992,3323,22364,224607756
13484,13323,0,22368,224607756
13512,9986,0,22448,224607756
12129,9979,3326,22364,224607756
12355,6659,3329,22452,224607756
12837,9987,3304,22368,224607756
12817,13283,0,22268,224607756
