real_time,user_time,sys_time,max_rss,max_vsz
14071,13321,0,22700,224607756
15019,13290,0,22448,224607756
13949,9960,0,22396,224607756
12762,9984,0,22048,224607756
13429,9989,3319,22476,224607756
12363,13320,0,22256,224607756
13157,9958,3306,22448,224607756
12658,9968,3328,22448,224607756
12662,9983,3329,22544,224607756
12628,6662,6609,22452,224607756
12853,13310,0,22360,224607756
13002,13311,0,22504,224607756
12232,13317,0,22392,224607756
13281,9984,0,22640,224607756
12715,9990,0,22640,224607756
13359,6659,6660,22700,224607756
12838,9983,3327,22548,224607756
12701,13308,0,22544,224607756
12272,9986,0,22284,224607756
12931,13317,0,22700,224607756
