real_time,user_time,sys_time,max_rss,max_vsz
12693,13317,0,2468,4220
12685,13314,0,2600,4220
11586,13316,0,2588,4220
12139,9987,0,2600,4220
11616,9986,0,2536,4220
11640,13280,0,2596,4220
11753,9993,0,2592,4220
12929,13302,0,2472,4220
12367,6651,3330,2532,4220
11342,13316,0,2476,4220
11485,9956,0,2472,4220
11499,13292,0,2596,4220
12000,9951,0,2584,4220
11730,9941,0,2600,4220
11722,9977,3328,2508,4220
11690,9987,0,2508,4220
12481,13306,0,2528,4220
11531,9993,0,2472,4220
11322,9956,0,2576,4220
11549,13315,0,2580,4220
