real_time,user_time,sys_time,max_rss,max_vsz
7867,3328,3329,2500,4220
7734,6656,0,2512,4220
7979,6646,0,2520,4220
7397,9977,0,2476,4220
7281,6659,0,2388,4220
7369,6596,0,2464,4220
7235,9989,0,2392,4220
7400,6588,0,2508,4220
7438,6656,0,2424,4220
7386,9989,0,2444,4220
7414,6658,0,2516,4220
7365,6657,0,2496,4220
7490,6661,3328,2500,4220
7798,6654,0,2516,4220
7802,9988,0,2456,4220
7718,6663,0,2492,4220
7305,6656,0,2388,4220
7733,9987,0,2516,4220
7855,6656,0,2452,4220
9061,9990,0,2512,4220
