real_time,user_time,sys_time,max_rss,max_vsz
14498,13311,0,23280,224607756
14827,13319,0,23184,224607756
14279,13323,0,23148,224607756
14790,9980,3317,23228,224607756
14641,16609,0,23184,224607756
14345,13305,0,22624,224607756
15425,9964,3321,23188,224607756
14752,9932,3317,23004,224607756
16064,9989,3327,23092,224607756
15820,13316,0,23000,224607756
16217,13314,3327,22620,224607756
14612,3330,9990,23148,224607756
14568,13284,0,23008,224607756
14229,13307,0,23044,224607756
16224,9987,6661,23276,224607756
14880,9940,0,23004,224607756
14541,9957,3327,23044,224607756
14692,3331,9995,22620,224607756
14446,6610,6661,23000,224607756
15437,9942,6628,22916,224607756
