real_time,user_time,sys_time,max_rss,max_vsz
13399,9974,3324,22500,224607756
13096,9985,3328,22728,224607756
13252,13319,0,22068,224607756
13272,9960,3329,22592,224607756
13220,9986,3330,22356,224607756
13377,6662,6655,22396,224607756
13760,6645,6655,22568,224607756
14489,9954,3306,22360,224607756
14623,13190,3329,22500,224607756
12918,6651,3290,22072,224607756
13825,6664,3330,22392,224607756
13429,6636,3328,22396,224607756
12773,6658,3333,22304,224607756
12828,6638,3333,22252,224607756
13315,9965,3293,22072,224607756
13967,9937,3300,22728,224607756
13156,9960,3331,22588,224607756
13406,13320,0,22452,224607756
13048,6657,3328,22280,224607756
12599,6658,3326,22400,224607756
