real_time,user_time,sys_time,max_rss,max_vsz
15544,6662,6664,22708,224607756
15554,9980,3328,22624,224607756
15169,9993,0,22712,224607756
14967,6655,6655,22852,224607756
15360,9989,0,22784,224607756
15119,6660,3331,23048,224607756
14796,9993,3328,22904,224607756
15489,13316,3257,22536,224607756
15445,9984,6664,22536,224607756
15791,16640,0,22892,224607756
14738,13287,0,22708,224607756
15146,9949,3333,22624,224607756
14587,16616,0,22708,224607756
15604,13310,3328,22776,224607756
16988,13266,0,22712,224607756
15873,9939,3268,22708,224607756
17236,13307,0,22556,224607756
16359,13317,0,22888,224607756
15468,13312,0,22560,224607756
15913,9992,3286,22752,224607756
