%!PS-Adobe-3.0 EPSF-3.0
%%Title: esp32.eps
%%Creator: Matplotlib v3.5.0, https://matplotlib.org/
%%CreationDate: Wed Dec  8 19:39:07 2021
%%Orientation: portrait
%%BoundingBox: -10 209 623 583
%%HiResBoundingBox: -10.275625 209.486188 622.275625 582.513812
%%EndComments
%%BeginProlog
/mpldict 11 dict def
mpldict begin
/_d { bind def } bind def
/m { moveto } _d
/l { lineto } _d
/r { rlineto } _d
/c { curveto } _d
/cl { closepath } _d
/ce { closepath eofill } _d
/box {
      m
      1 index 0 r
      0 exch r
      neg 0 r
      cl
    } _d
/clipbox {
      box
      clip
      newpath
    } _d
/sc { setcachedevice } _d
%!PS-Adobe-3.0 Resource-Font
%%Creator: Converted from TrueType to Type 3 by Matplotlib.
10 dict begin
/FontName /DejaVuSans def
/PaintType 0 def
/FontMatrix [0.00048828125 0 0 0.00048828125 0 0] def
/FontBBox [-2090 -948 3673 2524] def
/FontType 3 def
/Encoding [/space /numbersign /parenleft /parenright /hyphen /zero /one /two /three /four /five /B /C /E /K /L /M /P /R /S /T /a /c /d /e /g /h /i /l /m /n /o /p /r /s /t /u /x /y] def
/CharStrings 40 dict dup begin
/.notdef 0 def
/space{651 0 0 0 0 0 sc
ce} _d
/numbersign{1716 0 158 0 1559 1470 sc
1047 901 m
756 901 l
672 567 l
965 567 l
1047 901 l

897 1470 m
793 1055 l
1085 1055 l
1190 1470 l
1350 1470 l
1247 1055 l
1559 1055 l
1559 901 l
1208 901 l
1126 567 l
1444 567 l
1444 414 l
1087 414 l
983 0 l
823 0 l
926 414 l
633 414 l
530 0 l
369 0 l
473 414 l
158 414 l
158 567 l
510 567 l
594 901 l
272 901 l
272 1055 l
633 1055 l
735 1470 l
897 1470 l

ce} _d
/parenleft{799 0 176 -270 635 1554 sc
635 1554 m
546 1401 479 1249 436 1099 c
393 949 371 797 371 643 c
371 489 393 336 436 185 c
480 34 546 -117 635 -270 c
475 -270 l
375 -113 300 41 250 192 c
201 343 176 494 176 643 c
176 792 201 941 250 1092 c
299 1243 374 1397 475 1554 c
635 1554 l

ce} _d
/parenright{799 0 164 -270 623 1554 sc
164 1554 m
324 1554 l
424 1397 499 1243 548 1092 c
598 941 623 792 623 643 c
623 494 598 343 548 192 c
499 41 424 -113 324 -270 c
164 -270 l
253 -117 319 34 362 185 c
406 336 428 489 428 643 c
428 797 406 949 362 1099 c
319 1249 253 1401 164 1554 c

ce} _d
/hyphen{739 0 100 479 639 643 sc
100 643 m
639 643 l
639 479 l
100 479 l
100 643 l

ce} _d
/zero{1303 0 135 -29 1167 1520 sc
651 1360 m
547 1360 469 1309 416 1206 c
364 1104 338 950 338 745 c
338 540 364 387 416 284 c
469 182 547 131 651 131 c
756 131 834 182 886 284 c
939 387 965 540 965 745 c
965 950 939 1104 886 1206 c
834 1309 756 1360 651 1360 c

651 1520 m
818 1520 946 1454 1034 1321 c
1123 1189 1167 997 1167 745 c
1167 494 1123 302 1034 169 c
946 37 818 -29 651 -29 c
484 -29 356 37 267 169 c
179 302 135 494 135 745 c
135 997 179 1189 267 1321 c
356 1454 484 1520 651 1520 c

ce} _d
/one{1303 0 225 0 1114 1493 sc
254 170 m
584 170 l
584 1309 l
225 1237 l
225 1421 l
582 1493 l
784 1493 l
784 170 l
1114 170 l
1114 0 l
254 0 l
254 170 l

ce} _d
/two{1303 0 150 0 1098 1520 sc
393 170 m
1098 170 l
1098 0 l
150 0 l
150 170 l
227 249 331 356 463 489 c
596 623 679 709 713 748 c
778 821 823 882 848 932 c
874 983 887 1032 887 1081 c
887 1160 859 1225 803 1275 c
748 1325 675 1350 586 1350 c
523 1350 456 1339 385 1317 c
315 1295 240 1262 160 1217 c
160 1421 l
241 1454 317 1478 388 1495 c
459 1512 523 1520 582 1520 c
737 1520 860 1481 952 1404 c
1044 1327 1090 1223 1090 1094 c
1090 1033 1078 974 1055 919 c
1032 864 991 800 930 725 c
913 706 860 650 771 557 c
682 465 556 336 393 170 c

ce} _d
/three{1303 0 156 -29 1139 1520 sc
831 805 m
928 784 1003 741 1057 676 c
1112 611 1139 530 1139 434 c
1139 287 1088 173 987 92 c
886 11 742 -29 555 -29 c
492 -29 428 -23 361 -10 c
295 2 227 20 156 45 c
156 240 l
212 207 273 183 340 166 c
407 149 476 141 549 141 c
676 141 772 166 838 216 c
905 266 938 339 938 434 c
938 522 907 591 845 640 c
784 690 698 715 588 715 c
414 715 l
414 881 l
596 881 l
695 881 771 901 824 940 c
877 980 903 1037 903 1112 c
903 1189 876 1247 821 1288 c
767 1329 689 1350 588 1350 c
533 1350 473 1344 410 1332 c
347 1320 277 1301 201 1276 c
201 1456 l
278 1477 349 1493 416 1504 c
483 1515 547 1520 606 1520 c
759 1520 881 1485 970 1415 c
1059 1346 1104 1252 1104 1133 c
1104 1050 1080 980 1033 923 c
986 866 918 827 831 805 c

ce} _d
/four{1303 0 100 0 1188 1493 sc
774 1317 m
264 520 l
774 520 l
774 1317 l

721 1493 m
975 1493 l
975 520 l
1188 520 l
1188 352 l
975 352 l
975 0 l
774 0 l
774 352 l
100 352 l
100 547 l
721 1493 l

ce} _d
/five{1303 0 158 -29 1124 1493 sc
221 1493 m
1014 1493 l
1014 1323 l
406 1323 l
406 957 l
435 967 465 974 494 979 c
523 984 553 987 582 987 c
749 987 881 941 978 850 c
1075 759 1124 635 1124 479 c
1124 318 1074 193 974 104 c
874 15 733 -29 551 -29 c
488 -29 424 -24 359 -13 c
294 -2 227 14 158 35 c
158 238 l
218 205 280 181 344 165 c
408 149 476 141 547 141 c
662 141 754 171 821 232 c
888 293 922 375 922 479 c
922 583 888 665 821 726 c
754 787 662 817 547 817 c
493 817 439 811 385 799 c
332 787 277 768 221 743 c
221 1493 l

ce} _d
/B{1405 0 201 0 1260 1493 sc
403 713 m
403 166 l
727 166 l
836 166 916 188 968 233 c
1021 278 1047 347 1047 440 c
1047 533 1021 602 968 646 c
916 691 836 713 727 713 c
403 713 l

403 1327 m
403 877 l
702 877 l
801 877 874 895 922 932 c
971 969 995 1026 995 1102 c
995 1177 971 1234 922 1271 c
874 1308 801 1327 702 1327 c
403 1327 l

201 1493 m
717 1493 l
871 1493 990 1461 1073 1397 c
1156 1333 1198 1242 1198 1124 c
1198 1033 1177 960 1134 906 c
1091 852 1029 818 946 805 c
1045 784 1122 739 1177 671 c
1232 604 1260 519 1260 418 c
1260 285 1215 182 1124 109 c
1033 36 904 0 737 0 c
201 0 l
201 1493 l

ce} _d
/C{1430 0 115 -29 1319 1520 sc
1319 1378 m
1319 1165 l
1251 1228 1178 1276 1101 1307 c
1024 1338 943 1354 856 1354 c
685 1354 555 1302 464 1197 c
373 1093 328 942 328 745 c
328 548 373 398 464 293 c
555 189 685 137 856 137 c
943 137 1024 153 1101 184 c
1178 215 1251 263 1319 326 c
1319 115 l
1248 67 1173 31 1094 7 c
1015 -17 932 -29 844 -29 c
618 -29 440 40 310 178 c
180 317 115 506 115 745 c
115 985 180 1174 310 1312 c
440 1451 618 1520 844 1520 c
933 1520 1017 1508 1096 1484 c
1175 1461 1250 1425 1319 1378 c

ce} _d
/E{1294 0 201 0 1163 1493 sc
201 1493 m
1145 1493 l
1145 1323 l
403 1323 l
403 881 l
1114 881 l
1114 711 l
403 711 l
403 170 l
1163 170 l
1163 0 l
201 0 l
201 1493 l

ce} _d
/K{1343 0 201 0 1386 1493 sc
201 1493 m
403 1493 l
403 862 l
1073 1493 l
1333 1493 l
592 797 l
1386 0 l
1120 0 l
403 719 l
403 0 l
201 0 l
201 1493 l

ce} _d
/L{1141 0 201 0 1130 1493 sc
201 1493 m
403 1493 l
403 170 l
1130 170 l
1130 0 l
201 0 l
201 1493 l

ce} _d
/M{1767 0 201 0 1567 1493 sc
201 1493 m
502 1493 l
883 477 l
1266 1493 l
1567 1493 l
1567 0 l
1370 0 l
1370 1311 l
985 287 l
782 287 l
397 1311 l
397 0 l
201 0 l
201 1493 l

ce} _d
/P{1235 0 201 0 1165 1493 sc
403 1327 m
403 766 l
657 766 l
751 766 824 790 875 839 c
926 888 952 957 952 1047 c
952 1136 926 1205 875 1254 c
824 1303 751 1327 657 1327 c
403 1327 l

201 1493 m
657 1493 l
824 1493 951 1455 1036 1379 c
1122 1304 1165 1193 1165 1047 c
1165 900 1122 788 1036 713 c
951 638 824 600 657 600 c
403 600 l
403 0 l
201 0 l
201 1493 l

ce} _d
/R{1423 0 201 0 1364 1493 sc
909 700 m
952 685 994 654 1035 606 c
1076 558 1118 492 1159 408 c
1364 0 l
1147 0 l
956 383 l
907 483 859 549 812 582 c
766 615 703 631 623 631 c
403 631 l
403 0 l
201 0 l
201 1493 l
657 1493 l
828 1493 955 1457 1039 1386 c
1123 1315 1165 1207 1165 1063 c
1165 969 1143 891 1099 829 c
1056 767 992 724 909 700 c

403 1327 m
403 797 l
657 797 l
754 797 828 819 877 864 c
927 909 952 976 952 1063 c
952 1150 927 1216 877 1260 c
828 1305 754 1327 657 1327 c
403 1327 l

ce} _d
/S{1300 0 135 -29 1186 1520 sc
1096 1444 m
1096 1247 l
1019 1284 947 1311 879 1329 c
811 1347 745 1356 682 1356 c
572 1356 487 1335 427 1292 c
368 1249 338 1189 338 1110 c
338 1044 358 994 397 960 c
437 927 512 900 623 879 c
745 854 l
896 825 1007 775 1078 702 c
1150 630 1186 533 1186 412 c
1186 267 1137 158 1040 83 c
943 8 801 -29 614 -29 c
543 -29 468 -21 388 -5 c
309 11 226 35 141 66 c
141 274 l
223 228 303 193 382 170 c
461 147 538 135 614 135 c
729 135 818 158 881 203 c
944 248 975 313 975 397 c
975 470 952 528 907 569 c
862 610 789 641 686 662 c
563 686 l
412 716 303 763 236 827 c
169 891 135 980 135 1094 c
135 1226 181 1330 274 1406 c
367 1482 496 1520 659 1520 c
729 1520 800 1514 873 1501 c
946 1488 1020 1469 1096 1444 c

ce} _d
/T{1251 0 -6 0 1257 1493 sc
-6 1493 m
1257 1493 l
1257 1323 l
727 1323 l
727 0 l
524 0 l
524 1323 l
-6 1323 l
-6 1493 l

ce} _d
/a{1255 0 123 -29 1069 1147 sc
702 563 m
553 563 450 546 393 512 c
336 478 307 420 307 338 c
307 273 328 221 371 182 c
414 144 473 125 547 125 c
649 125 731 161 792 233 c
854 306 885 402 885 522 c
885 563 l
702 563 l

1069 639 m
1069 0 l
885 0 l
885 170 l
843 102 791 52 728 19 c
665 -13 589 -29 498 -29 c
383 -29 292 3 224 67 c
157 132 123 218 123 326 c
123 452 165 547 249 611 c
334 675 460 707 627 707 c
885 707 l
885 725 l
885 810 857 875 801 921 c
746 968 668 991 567 991 c
503 991 441 983 380 968 c
319 953 261 930 205 899 c
205 1069 l
272 1095 338 1114 401 1127 c
464 1140 526 1147 586 1147 c
748 1147 869 1105 949 1021 c
1029 937 1069 810 1069 639 c

ce} _d
/c{1126 0 113 -29 999 1147 sc
999 1077 m
999 905 l
947 934 895 955 842 969 c
790 984 737 991 684 991 c
565 991 472 953 406 877 c
340 802 307 696 307 559 c
307 422 340 316 406 240 c
472 165 565 127 684 127 c
737 127 790 134 842 148 c
895 163 947 184 999 213 c
999 43 l
948 19 894 1 839 -11 c
784 -23 726 -29 664 -29 c
495 -29 361 24 262 130 c
163 236 113 379 113 559 c
113 742 163 885 263 990 c
364 1095 501 1147 676 1147 c
733 1147 788 1141 842 1129 c
896 1118 948 1100 999 1077 c

ce} _d
/d{1300 0 113 -29 1114 1556 sc
930 950 m
930 1556 l
1114 1556 l
1114 0 l
930 0 l
930 168 l
891 101 842 52 783 19 c
724 -13 654 -29 571 -29 c
436 -29 325 25 240 133 c
155 241 113 383 113 559 c
113 735 155 877 240 985 c
325 1093 436 1147 571 1147 c
654 1147 724 1131 783 1098 c
842 1066 891 1017 930 950 c

303 559 m
303 424 331 317 386 240 c
442 163 519 125 616 125 c
713 125 790 163 846 240 c
902 317 930 424 930 559 c
930 694 902 800 846 877 c
790 954 713 993 616 993 c
519 993 442 954 386 877 c
331 800 303 694 303 559 c

ce} _d
/e{1260 0 113 -29 1151 1147 sc
1151 606 m
1151 516 l
305 516 l
313 389 351 293 419 226 c
488 160 583 127 705 127 c
776 127 844 136 910 153 c
977 170 1043 196 1108 231 c
1108 57 l
1042 29 974 8 905 -7 c
836 -22 765 -29 694 -29 c
515 -29 374 23 269 127 c
165 231 113 372 113 549 c
113 732 162 878 261 985 c
360 1093 494 1147 662 1147 c
813 1147 932 1098 1019 1001 c
1107 904 1151 773 1151 606 c

967 660 m
966 761 937 841 882 901 c
827 961 755 991 664 991 c
561 991 479 962 417 904 c
356 846 320 764 311 659 c
967 660 l

ce} _d
/g{1300 0 113 -426 1114 1147 sc
930 573 m
930 706 902 810 847 883 c
792 956 715 993 616 993 c
517 993 440 956 385 883 c
330 810 303 706 303 573 c
303 440 330 337 385 264 c
440 191 517 154 616 154 c
715 154 792 191 847 264 c
902 337 930 440 930 573 c

1114 139 m
1114 -52 1072 -193 987 -286 c
902 -379 773 -426 598 -426 c
533 -426 472 -421 415 -411 c
358 -402 302 -387 248 -367 c
248 -188 l
302 -217 355 -239 408 -253 c
461 -267 514 -274 569 -274 c
690 -274 780 -242 840 -179 c
900 -116 930 -21 930 106 c
930 197 l
892 131 843 82 784 49 c
725 16 654 0 571 0 c
434 0 323 52 239 157 c
155 262 113 400 113 573 c
113 746 155 885 239 990 c
323 1095 434 1147 571 1147 c
654 1147 725 1131 784 1098 c
843 1065 892 1016 930 950 c
930 1120 l
1114 1120 l
1114 139 l

ce} _d
/h{1298 0 186 0 1124 1556 sc
1124 676 m
1124 0 l
940 0 l
940 670 l
940 776 919 855 878 908 c
837 961 775 987 692 987 c
593 987 514 955 457 892 c
400 829 371 742 371 633 c
371 0 l
186 0 l
186 1556 l
371 1556 l
371 946 l
415 1013 467 1064 526 1097 c
586 1130 655 1147 733 1147 c
862 1147 959 1107 1025 1027 c
1091 948 1124 831 1124 676 c

ce} _d
/i{569 0 193 0 377 1556 sc
193 1120 m
377 1120 l
377 0 l
193 0 l
193 1120 l

193 1556 m
377 1556 l
377 1323 l
193 1323 l
193 1556 l

ce} _d
/l{569 0 193 0 377 1556 sc
193 1556 m
377 1556 l
377 0 l
193 0 l
193 1556 l

ce} _d
/m{1995 0 186 0 1821 1147 sc
1065 905 m
1111 988 1166 1049 1230 1088 c
1294 1127 1369 1147 1456 1147 c
1573 1147 1663 1106 1726 1024 c
1789 943 1821 827 1821 676 c
1821 0 l
1636 0 l
1636 670 l
1636 777 1617 857 1579 909 c
1541 961 1483 987 1405 987 c
1310 987 1234 955 1179 892 c
1124 829 1096 742 1096 633 c
1096 0 l
911 0 l
911 670 l
911 778 892 858 854 909 c
816 961 757 987 678 987 c
584 987 509 955 454 891 c
399 828 371 742 371 633 c
371 0 l
186 0 l
186 1120 l
371 1120 l
371 946 l
413 1015 463 1065 522 1098 c
581 1131 650 1147 731 1147 c
812 1147 881 1126 938 1085 c
995 1044 1038 984 1065 905 c

ce} _d
/n{1298 0 186 0 1124 1147 sc
1124 676 m
1124 0 l
940 0 l
940 670 l
940 776 919 855 878 908 c
837 961 775 987 692 987 c
593 987 514 955 457 892 c
400 829 371 742 371 633 c
371 0 l
186 0 l
186 1120 l
371 1120 l
371 946 l
415 1013 467 1064 526 1097 c
586 1130 655 1147 733 1147 c
862 1147 959 1107 1025 1027 c
1091 948 1124 831 1124 676 c

ce} _d
/o{1253 0 113 -29 1141 1147 sc
627 991 m
528 991 450 952 393 875 c
336 798 307 693 307 559 c
307 425 335 319 392 242 c
449 165 528 127 627 127 c
725 127 803 166 860 243 c
917 320 946 426 946 559 c
946 692 917 797 860 874 c
803 952 725 991 627 991 c

627 1147 m
787 1147 913 1095 1004 991 c
1095 887 1141 743 1141 559 c
1141 376 1095 232 1004 127 c
913 23 787 -29 627 -29 c
466 -29 340 23 249 127 c
158 232 113 376 113 559 c
113 743 158 887 249 991 c
340 1095 466 1147 627 1147 c

ce} _d
/p{1300 0 186 -426 1188 1147 sc
371 168 m
371 -426 l
186 -426 l
186 1120 l
371 1120 l
371 950 l
410 1017 458 1066 517 1098 c
576 1131 647 1147 729 1147 c
865 1147 975 1093 1060 985 c
1145 877 1188 735 1188 559 c
1188 383 1145 241 1060 133 c
975 25 865 -29 729 -29 c
647 -29 576 -13 517 19 c
458 52 410 101 371 168 c

997 559 m
997 694 969 800 913 877 c
858 954 781 993 684 993 c
587 993 510 954 454 877 c
399 800 371 694 371 559 c
371 424 399 317 454 240 c
510 163 587 125 684 125 c
781 125 858 163 913 240 c
969 317 997 424 997 559 c

ce} _d
/r{842 0 186 0 842 1147 sc
842 948 m
821 960 799 969 774 974 c
750 980 723 983 694 983 c
590 983 510 949 454 881 c
399 814 371 717 371 590 c
371 0 l
186 0 l
186 1120 l
371 1120 l
371 946 l
410 1014 460 1064 522 1097 c
584 1130 659 1147 748 1147 c
761 1147 775 1146 790 1144 c
805 1143 822 1140 841 1137 c
842 948 l

ce} _d
/s{1067 0 111 -29 967 1147 sc
907 1087 m
907 913 l
855 940 801 960 745 973 c
689 986 631 993 571 993 c
480 993 411 979 365 951 c
320 923 297 881 297 825 c
297 782 313 749 346 724 c
379 700 444 677 543 655 c
606 641 l
737 613 829 573 884 522 c
939 471 967 400 967 309 c
967 205 926 123 843 62 c
761 1 648 -29 504 -29 c
444 -29 381 -23 316 -11 c
251 0 183 18 111 41 c
111 231 l
179 196 246 169 312 151 c
378 134 443 125 508 125 c
595 125 661 140 708 169 c
755 199 778 241 778 295 c
778 345 761 383 727 410 c
694 437 620 462 506 487 c
442 502 l
328 526 246 563 195 612 c
144 662 119 730 119 817 c
119 922 156 1004 231 1061 c
306 1118 412 1147 549 1147 c
617 1147 681 1142 741 1132 c
801 1122 856 1107 907 1087 c

ce} _d
/t{803 0 55 0 754 1438 sc
375 1438 m
375 1120 l
754 1120 l
754 977 l
375 977 l
375 369 l
375 278 387 219 412 193 c
437 167 488 154 565 154 c
754 154 l
754 0 l
565 0 l
423 0 325 26 271 79 c
217 132 190 229 190 369 c
190 977 l
55 977 l
55 1120 l
190 1120 l
190 1438 l
375 1438 l

ce} _d
/u{1298 0 174 -29 1112 1147 sc
174 442 m
174 1120 l
358 1120 l
358 449 l
358 343 379 263 420 210 c
461 157 523 131 606 131 c
705 131 784 163 841 226 c
899 289 928 376 928 485 c
928 1120 l
1112 1120 l
1112 0 l
928 0 l
928 172 l
883 104 831 53 772 20 c
713 -13 645 -29 567 -29 c
438 -29 341 11 274 91 c
207 171 174 288 174 442 c

637 1147 m
637 1147 l

ce} _d
/x{1212 0 59 0 1145 1120 sc
1124 1120 m
719 575 l
1145 0 l
928 0 l
602 440 l
276 0 l
59 0 l
494 586 l
96 1120 l
313 1120 l
610 721 l
907 1120 l
1124 1120 l

ce} _d
/y{1212 0 61 -426 1151 1120 sc
659 -104 m
607 -237 556 -324 507 -365 c
458 -406 392 -426 309 -426 c
162 -426 l
162 -272 l
270 -272 l
321 -272 360 -260 388 -236 c
416 -212 447 -155 481 -66 c
514 18 l
61 1120 l
256 1120 l
606 244 l
956 1120 l
1151 1120 l
659 -104 l

ce} _d
end readonly def

/BuildGlyph {
 exch begin
 CharStrings exch
 2 copy known not {pop /.notdef} if
 true 3 1 roll get exec
 end
} _d

/BuildChar {
 1 index /Encoding get exch get
 1 index /BuildGlyph get exec
} _d

FontName currentdict end definefont pop
end
%%EndProlog
mpldict begin
-10.276 209.486 translate
632.551 373.028 0 0 clipbox
gsave
0 0 m
632.55125 0 l
632.55125 373.027625 l
0 373.027625 l
cl
1.000 setgray
fill
grestore
gsave
75.715625 56.91875 m
432.835625 56.91875 l
432.835625 323.03075 l
75.715625 323.03075 l
cl
1.000 setgray
fill
grestore
2.000 setlinewidth
1 setlinejoin
2 setlinecap
[] 0 setdash
0.690 setgray
gsave
357.12 266.112 75.716 56.919 clipbox
101.417443 56.91875 m
101.417443 323.03075 l
stroke
grestore
0.800 setlinewidth
0 setlinecap
0.000 setgray
gsave
/o {
gsave
newpath
translate
0.8 setlinewidth
1 setlinejoin

0 setlinecap

0 0 m
0 -3.5 l

gsave
0.000 setgray
fill
grestore
stroke
grestore
} bind def
101.417 56.9188 o
grestore
/DejaVuSans 20.000 selectfont
gsave

82.339318 34.715625 translate
0.000000 rotate
0.000000 0 m /three glyphshow
12.724609 0 m /zero glyphshow
25.449219 0 m /zero glyphshow
grestore
2.000 setlinewidth
2 setlinecap
0.690 setgray
gsave
357.12 266.112 75.716 56.919 clipbox
236.69017 56.91875 m
236.69017 323.03075 l
stroke
grestore
0.800 setlinewidth
0 setlinecap
0.000 setgray
gsave
/o {
gsave
newpath
translate
0.8 setlinewidth
1 setlinejoin

0 setlinecap

0 0 m
0 -3.5 l

gsave
0.000 setgray
fill
grestore
stroke
grestore
} bind def
236.69 56.9188 o
grestore
gsave

217.612045 34.715625 translate
0.000000 rotate
0.000000 0 m /four glyphshow
12.724609 0 m /zero glyphshow
25.449219 0 m /zero glyphshow
grestore
2.000 setlinewidth
2 setlinecap
0.690 setgray
gsave
357.12 266.112 75.716 56.919 clipbox
371.962898 56.91875 m
371.962898 323.03075 l
stroke
grestore
0.800 setlinewidth
0 setlinecap
0.000 setgray
gsave
/o {
gsave
newpath
translate
0.8 setlinewidth
1 setlinejoin

0 setlinecap

0 0 m
0 -3.5 l

gsave
0.000 setgray
fill
grestore
stroke
grestore
} bind def
371.963 56.9188 o
grestore
gsave

352.884773 34.715625 translate
0.000000 rotate
0.000000 0 m /five glyphshow
12.724609 0 m /zero glyphshow
25.449219 0 m /zero glyphshow
grestore
1.000 setlinewidth
2 setlinecap
0.690 setgray
gsave
357.12 266.112 75.716 56.919 clipbox
128.471989 56.91875 m
128.471989 323.03075 l
stroke
grestore
0.600 setlinewidth
0 setlinecap
0.000 setgray
gsave
/o {
gsave
newpath
translate
0.6 setlinewidth
1 setlinejoin

0 setlinecap

0 0 m
0 -2 l

gsave
0.000 setgray
fill
grestore
stroke
grestore
} bind def
128.472 56.9188 o
grestore
1.000 setlinewidth
2 setlinecap
0.690 setgray
gsave
357.12 266.112 75.716 56.919 clipbox
155.526534 56.91875 m
155.526534 323.03075 l
stroke
grestore
0.600 setlinewidth
0 setlinecap
0.000 setgray
gsave
/o {
gsave
newpath
translate
0.6 setlinewidth
1 setlinejoin

0 setlinecap

0 0 m
0 -2 l

gsave
0.000 setgray
fill
grestore
stroke
grestore
} bind def
155.527 56.9188 o
grestore
1.000 setlinewidth
2 setlinecap
0.690 setgray
gsave
357.12 266.112 75.716 56.919 clipbox
182.58108 56.91875 m
182.58108 323.03075 l
stroke
grestore
0.600 setlinewidth
0 setlinecap
0.000 setgray
gsave
/o {
gsave
newpath
translate
0.6 setlinewidth
1 setlinejoin

0 setlinecap

0 0 m
0 -2 l

gsave
0.000 setgray
fill
grestore
stroke
grestore
} bind def
182.581 56.9188 o
grestore
1.000 setlinewidth
2 setlinecap
0.690 setgray
gsave
357.12 266.112 75.716 56.919 clipbox
209.635625 56.91875 m
209.635625 323.03075 l
stroke
grestore
0.600 setlinewidth
0 setlinecap
0.000 setgray
gsave
/o {
gsave
newpath
translate
0.6 setlinewidth
1 setlinejoin

0 setlinecap

0 0 m
0 -2 l

gsave
0.000 setgray
fill
grestore
stroke
grestore
} bind def
209.636 56.9188 o
grestore
1.000 setlinewidth
2 setlinecap
0.690 setgray
gsave
357.12 266.112 75.716 56.919 clipbox
263.744716 56.91875 m
263.744716 323.03075 l
stroke
grestore
0.600 setlinewidth
0 setlinecap
0.000 setgray
gsave
/o {
gsave
newpath
translate
0.6 setlinewidth
1 setlinejoin

0 setlinecap

0 0 m
0 -2 l

gsave
0.000 setgray
fill
grestore
stroke
grestore
} bind def
263.745 56.9188 o
grestore
1.000 setlinewidth
2 setlinecap
0.690 setgray
gsave
357.12 266.112 75.716 56.919 clipbox
290.799261 56.91875 m
290.799261 323.03075 l
stroke
grestore
0.600 setlinewidth
0 setlinecap
0.000 setgray
gsave
/o {
gsave
newpath
translate
0.6 setlinewidth
1 setlinejoin

0 setlinecap

0 0 m
0 -2 l

gsave
0.000 setgray
fill
grestore
stroke
grestore
} bind def
290.799 56.9188 o
grestore
1.000 setlinewidth
2 setlinecap
0.690 setgray
gsave
357.12 266.112 75.716 56.919 clipbox
317.853807 56.91875 m
317.853807 323.03075 l
stroke
grestore
0.600 setlinewidth
0 setlinecap
0.000 setgray
gsave
/o {
gsave
newpath
translate
0.6 setlinewidth
1 setlinejoin

0 setlinecap

0 0 m
0 -2 l

gsave
0.000 setgray
fill
grestore
stroke
grestore
} bind def
317.854 56.9188 o
grestore
1.000 setlinewidth
2 setlinecap
0.690 setgray
gsave
357.12 266.112 75.716 56.919 clipbox
344.908352 56.91875 m
344.908352 323.03075 l
stroke
grestore
0.600 setlinewidth
0 setlinecap
0.000 setgray
gsave
/o {
gsave
newpath
translate
0.6 setlinewidth
1 setlinejoin

0 setlinecap

0 0 m
0 -2 l

gsave
0.000 setgray
fill
grestore
stroke
grestore
} bind def
344.908 56.9188 o
grestore
1.000 setlinewidth
2 setlinecap
0.690 setgray
gsave
357.12 266.112 75.716 56.919 clipbox
399.017443 56.91875 m
399.017443 323.03075 l
stroke
grestore
0.600 setlinewidth
0 setlinecap
0.000 setgray
gsave
/o {
gsave
newpath
translate
0.6 setlinewidth
1 setlinejoin

0 setlinecap

0 0 m
0 -2 l

gsave
0.000 setgray
fill
grestore
stroke
grestore
} bind def
399.017 56.9188 o
grestore
1.000 setlinewidth
2 setlinecap
0.690 setgray
gsave
357.12 266.112 75.716 56.919 clipbox
426.071989 56.91875 m
426.071989 323.03075 l
stroke
grestore
0.600 setlinewidth
0 setlinecap
0.000 setgray
gsave
/o {
gsave
newpath
translate
0.6 setlinewidth
1 setlinejoin

0 setlinecap

0 0 m
0 -2 l

gsave
0.000 setgray
fill
grestore
stroke
grestore
} bind def
426.072 56.9188 o
grestore
gsave

172.213125 11.356250 translate
0.000000 rotate
0.000000 0 m /numbersign glyphshow
16.757812 0 m /space glyphshow
23.115234 0 m /e glyphshow
35.044922 0 m /x glyphshow
46.880859 0 m /p glyphshow
59.576172 0 m /l glyphshow
65.132812 0 m /i glyphshow
70.689453 0 m /c glyphshow
81.685547 0 m /i glyphshow
87.242188 0 m /t glyphshow
95.083984 0 m /space glyphshow
101.441406 0 m /t glyphshow
109.283203 0 m /r glyphshow
117.505859 0 m /i glyphshow
123.062500 0 m /p glyphshow
135.757812 0 m /l glyphshow
141.314453 0 m /e glyphshow
153.619141 0 m /s glyphshow
grestore
2.000 setlinewidth
2 setlinecap
0.690 setgray
gsave
357.12 266.112 75.716 56.919 clipbox
75.715625 69.01475 m
432.835625 69.01475 l
stroke
grestore
0.800 setlinewidth
0 setlinecap
0.000 setgray
gsave
/o {
gsave
newpath
translate
0.8 setlinewidth
1 setlinejoin

0 setlinecap

-0 0 m
-3.5 0 l

gsave
0.000 setgray
fill
grestore
stroke
grestore
} bind def
75.7156 69.0147 o
grestore
gsave

30.559375 61.413187 translate
0.000000 rotate
0.000000 0 m /one glyphshow
12.724609 0 m /zero glyphshow
25.449219 0 m /zero glyphshow
grestore
2.000 setlinewidth
2 setlinecap
0.690 setgray
gsave
357.12 266.112 75.716 56.919 clipbox
75.715625 135.113111 m
432.835625 135.113111 l
stroke
grestore
0.800 setlinewidth
0 setlinecap
0.000 setgray
gsave
/o {
gsave
newpath
translate
0.8 setlinewidth
1 setlinejoin

0 setlinecap

-0 0 m
-3.5 0 l

gsave
0.000 setgray
fill
grestore
stroke
grestore
} bind def
75.7156 135.113 o
grestore
gsave

30.559375 127.511548 translate
0.000000 rotate
0.000000 0 m /one glyphshow
12.724609 0 m /five glyphshow
25.449219 0 m /zero glyphshow
grestore
2.000 setlinewidth
2 setlinecap
0.690 setgray
gsave
357.12 266.112 75.716 56.919 clipbox
75.715625 201.211471 m
432.835625 201.211471 l
stroke
grestore
0.800 setlinewidth
0 setlinecap
0.000 setgray
gsave
/o {
gsave
newpath
translate
0.8 setlinewidth
1 setlinejoin

0 setlinecap

-0 0 m
-3.5 0 l

gsave
0.000 setgray
fill
grestore
stroke
grestore
} bind def
75.7156 201.211 o
grestore
gsave

30.559375 193.609909 translate
0.000000 rotate
0.000000 0 m /two glyphshow
12.724609 0 m /zero glyphshow
25.449219 0 m /zero glyphshow
grestore
2.000 setlinewidth
2 setlinecap
0.690 setgray
gsave
357.12 266.112 75.716 56.919 clipbox
75.715625 267.309832 m
432.835625 267.309832 l
stroke
grestore
0.800 setlinewidth
0 setlinecap
0.000 setgray
gsave
/o {
gsave
newpath
translate
0.8 setlinewidth
1 setlinejoin

0 setlinecap

-0 0 m
-3.5 0 l

gsave
0.000 setgray
fill
grestore
stroke
grestore
} bind def
75.7156 267.31 o
grestore
gsave

30.559375 259.708269 translate
0.000000 rotate
0.000000 0 m /two glyphshow
12.724609 0 m /five glyphshow
25.449219 0 m /zero glyphshow
grestore
1.000 setlinewidth
2 setlinecap
0.690 setgray
gsave
357.12 266.112 75.716 56.919 clipbox
75.715625 82.234422 m
432.835625 82.234422 l
stroke
grestore
0.600 setlinewidth
0 setlinecap
0.000 setgray
gsave
/o {
gsave
newpath
translate
0.6 setlinewidth
1 setlinejoin

0 setlinecap

-0 0 m
-2 0 l

gsave
0.000 setgray
fill
grestore
stroke
grestore
} bind def
75.7156 82.2344 o
grestore
1.000 setlinewidth
2 setlinecap
0.690 setgray
gsave
357.12 266.112 75.716 56.919 clipbox
75.715625 95.454094 m
432.835625 95.454094 l
stroke
grestore
0.600 setlinewidth
0 setlinecap
0.000 setgray
gsave
/o {
gsave
newpath
translate
0.6 setlinewidth
1 setlinejoin

0 setlinecap

-0 0 m
-2 0 l

gsave
0.000 setgray
fill
grestore
stroke
grestore
} bind def
75.7156 95.4541 o
grestore
1.000 setlinewidth
2 setlinecap
0.690 setgray
gsave
357.12 266.112 75.716 56.919 clipbox
75.715625 108.673766 m
432.835625 108.673766 l
stroke
grestore
0.600 setlinewidth
0 setlinecap
0.000 setgray
gsave
/o {
gsave
newpath
translate
0.6 setlinewidth
1 setlinejoin

0 setlinecap

-0 0 m
-2 0 l

gsave
0.000 setgray
fill
grestore
stroke
grestore
} bind def
75.7156 108.674 o
grestore
1.000 setlinewidth
2 setlinecap
0.690 setgray
gsave
357.12 266.112 75.716 56.919 clipbox
75.715625 121.893439 m
432.835625 121.893439 l
stroke
grestore
0.600 setlinewidth
0 setlinecap
0.000 setgray
gsave
/o {
gsave
newpath
translate
0.6 setlinewidth
1 setlinejoin

0 setlinecap

-0 0 m
-2 0 l

gsave
0.000 setgray
fill
grestore
stroke
grestore
} bind def
75.7156 121.893 o
grestore
1.000 setlinewidth
2 setlinecap
0.690 setgray
gsave
357.12 266.112 75.716 56.919 clipbox
75.715625 148.332783 m
432.835625 148.332783 l
stroke
grestore
0.600 setlinewidth
0 setlinecap
0.000 setgray
gsave
/o {
gsave
newpath
translate
0.6 setlinewidth
1 setlinejoin

0 setlinecap

-0 0 m
-2 0 l

gsave
0.000 setgray
fill
grestore
stroke
grestore
} bind def
75.7156 148.333 o
grestore
1.000 setlinewidth
2 setlinecap
0.690 setgray
gsave
357.12 266.112 75.716 56.919 clipbox
75.715625 161.552455 m
432.835625 161.552455 l
stroke
grestore
0.600 setlinewidth
0 setlinecap
0.000 setgray
gsave
/o {
gsave
newpath
translate
0.6 setlinewidth
1 setlinejoin

0 setlinecap

-0 0 m
-2 0 l

gsave
0.000 setgray
fill
grestore
stroke
grestore
} bind def
75.7156 161.552 o
grestore
1.000 setlinewidth
2 setlinecap
0.690 setgray
gsave
357.12 266.112 75.716 56.919 clipbox
75.715625 174.772127 m
432.835625 174.772127 l
stroke
grestore
0.600 setlinewidth
0 setlinecap
0.000 setgray
gsave
/o {
gsave
newpath
translate
0.6 setlinewidth
1 setlinejoin

0 setlinecap

-0 0 m
-2 0 l

gsave
0.000 setgray
fill
grestore
stroke
grestore
} bind def
75.7156 174.772 o
grestore
1.000 setlinewidth
2 setlinecap
0.690 setgray
gsave
357.12 266.112 75.716 56.919 clipbox
75.715625 187.991799 m
432.835625 187.991799 l
stroke
grestore
0.600 setlinewidth
0 setlinecap
0.000 setgray
gsave
/o {
gsave
newpath
translate
0.6 setlinewidth
1 setlinejoin

0 setlinecap

-0 0 m
-2 0 l

gsave
0.000 setgray
fill
grestore
stroke
grestore
} bind def
75.7156 187.992 o
grestore
1.000 setlinewidth
2 setlinecap
0.690 setgray
gsave
357.12 266.112 75.716 56.919 clipbox
75.715625 214.431143 m
432.835625 214.431143 l
stroke
grestore
0.600 setlinewidth
0 setlinecap
0.000 setgray
gsave
/o {
gsave
newpath
translate
0.6 setlinewidth
1 setlinejoin

0 setlinecap

-0 0 m
-2 0 l

gsave
0.000 setgray
fill
grestore
stroke
grestore
} bind def
75.7156 214.431 o
grestore
1.000 setlinewidth
2 setlinecap
0.690 setgray
gsave
357.12 266.112 75.716 56.919 clipbox
75.715625 227.650816 m
432.835625 227.650816 l
stroke
grestore
0.600 setlinewidth
0 setlinecap
0.000 setgray
gsave
/o {
gsave
newpath
translate
0.6 setlinewidth
1 setlinejoin

0 setlinecap

-0 0 m
-2 0 l

gsave
0.000 setgray
fill
grestore
stroke
grestore
} bind def
75.7156 227.651 o
grestore
1.000 setlinewidth
2 setlinecap
0.690 setgray
gsave
357.12 266.112 75.716 56.919 clipbox
75.715625 240.870488 m
432.835625 240.870488 l
stroke
grestore
0.600 setlinewidth
0 setlinecap
0.000 setgray
gsave
/o {
gsave
newpath
translate
0.6 setlinewidth
1 setlinejoin

0 setlinecap

-0 0 m
-2 0 l

gsave
0.000 setgray
fill
grestore
stroke
grestore
} bind def
75.7156 240.87 o
grestore
1.000 setlinewidth
2 setlinecap
0.690 setgray
gsave
357.12 266.112 75.716 56.919 clipbox
75.715625 254.09016 m
432.835625 254.09016 l
stroke
grestore
0.600 setlinewidth
0 setlinecap
0.000 setgray
gsave
/o {
gsave
newpath
translate
0.6 setlinewidth
1 setlinejoin

0 setlinecap

-0 0 m
-2 0 l

gsave
0.000 setgray
fill
grestore
stroke
grestore
} bind def
75.7156 254.09 o
grestore
1.000 setlinewidth
2 setlinecap
0.690 setgray
gsave
357.12 266.112 75.716 56.919 clipbox
75.715625 280.529504 m
432.835625 280.529504 l
stroke
grestore
0.600 setlinewidth
0 setlinecap
0.000 setgray
gsave
/o {
gsave
newpath
translate
0.6 setlinewidth
1 setlinejoin

0 setlinecap

-0 0 m
-2 0 l

gsave
0.000 setgray
fill
grestore
stroke
grestore
} bind def
75.7156 280.53 o
grestore
1.000 setlinewidth
2 setlinecap
0.690 setgray
gsave
357.12 266.112 75.716 56.919 clipbox
75.715625 293.749176 m
432.835625 293.749176 l
stroke
grestore
0.600 setlinewidth
0 setlinecap
0.000 setgray
gsave
/o {
gsave
newpath
translate
0.6 setlinewidth
1 setlinejoin

0 setlinecap

-0 0 m
-2 0 l

gsave
0.000 setgray
fill
grestore
stroke
grestore
} bind def
75.7156 293.749 o
grestore
1.000 setlinewidth
2 setlinecap
0.690 setgray
gsave
357.12 266.112 75.716 56.919 clipbox
75.715625 306.968848 m
432.835625 306.968848 l
stroke
grestore
0.600 setlinewidth
0 setlinecap
0.000 setgray
gsave
/o {
gsave
newpath
translate
0.6 setlinewidth
1 setlinejoin

0 setlinecap

-0 0 m
-2 0 l

gsave
0.000 setgray
fill
grestore
stroke
grestore
} bind def
75.7156 306.969 o
grestore
1.000 setlinewidth
2 setlinecap
0.690 setgray
gsave
357.12 266.112 75.716 56.919 clipbox
75.715625 320.18852 m
432.835625 320.18852 l
stroke
grestore
0.600 setlinewidth
0 setlinecap
0.000 setgray
gsave
/o {
gsave
newpath
translate
0.6 setlinewidth
1 setlinejoin

0 setlinecap

-0 0 m
-2 0 l

gsave
0.000 setgray
fill
grestore
stroke
grestore
} bind def
75.7156 320.189 o
grestore
gsave

22.403125 67.381000 translate
90.000000 rotate
0.000000 0 m /C glyphshow
13.964844 0 m /o glyphshow
26.201172 0 m /n glyphshow
38.876953 0 m /s glyphshow
49.296875 0 m /u glyphshow
61.972656 0 m /m glyphshow
81.455078 0 m /e glyphshow
93.759766 0 m /d glyphshow
106.455078 0 m /space glyphshow
112.812500 0 m /m glyphshow
132.294922 0 m /e glyphshow
144.599609 0 m /m glyphshow
164.082031 0 m /o glyphshow
176.318359 0 m /r glyphshow
184.541016 0 m /y glyphshow
196.376953 0 m /space glyphshow
202.734375 0 m /parenleft glyphshow
210.537109 0 m /K glyphshow
223.652344 0 m /B glyphshow
237.373047 0 m /parenright glyphshow
grestore
4.000 setlinewidth
2 setlinecap
1.000 0.000 0.000 setrgbcolor
gsave
357.12 266.112 75.716 56.919 clipbox
91.948352 69.01475 m
119.002898 78.26852 l
146.057443 99.419996 l
173.111989 121.893439 l
200.166534 144.366881 l
227.22108 164.196389 l
254.275625 187.991799 l
281.33017 206.49934 l
308.384716 225.006881 l
335.439261 243.514422 l
362.493807 265.987865 l
389.548352 284.495406 l
416.602898 304.324914 l
stroke
grestore
0 setlinecap
[25.6 6.4 4 6.4] 0 setdash
1.000 0.647 0.000 setrgbcolor
gsave
357.12 266.112 75.716 56.919 clipbox
91.948352 152.298684 m
119.002898 170.806225 l
146.057443 202.533439 l
173.111989 234.260652 l
200.166534 267.309832 l
227.22108 297.715078 l
stroke
grestore
[14.8 6.4] 0 setdash
0.000 0.000 1.000 setrgbcolor
gsave
357.12 266.112 75.716 56.919 clipbox
91.948352 90.166225 m
119.002898 102.06393 l
146.057443 127.181307 l
173.111989 152.298684 l
200.166534 177.416061 l
227.22108 199.889504 l
254.275625 226.328848 l
281.33017 248.802291 l
308.384716 269.953766 l
335.439261 291.105242 l
stroke
grestore
[4 6.6] 0 setdash
0.000 0.502 0.000 setrgbcolor
gsave
357.12 266.112 75.716 56.919 clipbox
91.948352 88.844258 m
119.002898 100.741963 l
146.057443 125.85934 l
173.111989 149.65475 l
200.166534 174.772127 l
227.22108 197.24557 l
254.275625 223.684914 l
281.33017 244.836389 l
308.384716 265.987865 l
335.439261 287.13934 l
362.493807 310.93475 l
stroke
grestore
0.800 setlinewidth
0 setlinejoin
2 setlinecap
[] 0 setdash
0.000 setgray
gsave
75.715625 56.91875 m
75.715625 323.03075 l
stroke
grestore
gsave
432.835625 56.91875 m
432.835625 323.03075 l
stroke
grestore
gsave
75.715625 56.91875 m
432.835625 56.91875 l
stroke
grestore
gsave
75.715625 323.03075 m
432.835625 323.03075 l
stroke
grestore
/DejaVuSans 30.000 selectfont
gsave

67.885000 343.030750 translate
0.000000 rotate
0.000000 0 m /M glyphshow
25.883789 0 m /e glyphshow
44.340820 0 m /m glyphshow
73.564453 0 m /o glyphshow
91.918945 0 m /r glyphshow
104.252930 0 m /y glyphshow
122.006836 0 m /space glyphshow
131.542969 0 m /u glyphshow
150.556641 0 m /s glyphshow
166.186523 0 m /a glyphshow
184.570312 0 m /g glyphshow
203.613281 0 m /e glyphshow
222.070312 0 m /space glyphshow
231.606445 0 m /o glyphshow
249.960938 0 m /n glyphshow
268.974609 0 m /space glyphshow
278.510742 0 m /E glyphshow
297.465820 0 m /S glyphshow
316.508789 0 m /P glyphshow
334.599609 0 m /three glyphshow
353.686523 0 m /two glyphshow
grestore
1.000 setlinewidth
0 setlinecap
0.800 setgray
gsave
440.835625 128.256 m
621.35125 128.256 l
624.017917 128.256 625.35125 129.589333 625.35125 132.256 c
625.35125 247.6935 l
625.35125 250.360167 624.017917 251.6935 621.35125 251.6935 c
440.835625 251.6935 l
438.168958 251.6935 436.835625 250.360167 436.835625 247.6935 c
436.835625 132.256 l
436.835625 129.589333 438.168958 128.256 440.835625 128.256 c
cl
gsave
1.000 setgray
fill
grestore
stroke
grestore
4.000 setlinewidth
1 setlinejoin
2 setlinecap
1.000 0.000 0.000 setrgbcolor
gsave
444.835625 235.490375 m
464.835625 235.490375 l
484.835625 235.490375 l
stroke
grestore
0.000 setgray
/DejaVuSans 20.000 selectfont
gsave

500.835625 228.490375 translate
0.000000 rotate
0.000000 0 m /L glyphshow
11.142578 0 m /i glyphshow
16.699219 0 m /R glyphshow
29.720703 0 m /o glyphshow
41.957031 0 m /T glyphshow
grestore
0 setlinecap
[25.6 6.4 4 6.4] 0 setdash
1.000 0.647 0.000 setrgbcolor
gsave
444.835625 206.131 m
464.835625 206.131 l
484.835625 206.131 l
stroke
grestore
0.000 setgray
gsave

500.835625 199.131000 translate
0.000000 rotate
0.000000 0 m /R glyphshow
13.896484 0 m /E glyphshow
26.533203 0 m /T glyphshow
38.750000 0 m /E glyphshow
grestore
[14.8 6.4] 0 setdash
0.000 0.000 1.000 setrgbcolor
gsave
444.835625 176.771625 m
464.835625 176.771625 l
484.835625 176.771625 l
stroke
grestore
0.000 setgray
gsave

500.835625 169.771625 translate
0.000000 rotate
0.000000 0 m /R glyphshow
13.896484 0 m /E glyphshow
26.533203 0 m /T glyphshow
38.750000 0 m /E glyphshow
51.386719 0 m /hyphen glyphshow
58.603516 0 m /a glyphshow
70.859375 0 m /l glyphshow
76.416016 0 m /p glyphshow
89.111328 0 m /h glyphshow
101.787109 0 m /a glyphshow
grestore
[4 6.6] 0 setdash
0.000 0.502 0.000 setrgbcolor
gsave
444.835625 147.41225 m
464.835625 147.41225 l
484.835625 147.41225 l
stroke
grestore
0.000 setgray
gsave

500.835625 140.412250 translate
0.000000 rotate
0.000000 0 m /R glyphshow
13.896484 0 m /E glyphshow
26.533203 0 m /T glyphshow
38.750000 0 m /E glyphshow
51.386719 0 m /hyphen glyphshow
58.603516 0 m /t glyphshow
66.445312 0 m /e glyphshow
78.750000 0 m /r glyphshow
86.597656 0 m /m glyphshow
106.080078 0 m /s glyphshow
grestore

end
showpage
