real_time,user_time,sys_time,max_rss,max_vsz
75485,73244,0,3912,5600
79401,76609,3331,3900,5600
74046,69943,3302,3788,5600
72333,73244,0,3876,5600
73907,66586,6661,3916,5600
76120,76611,0,3912,5600
76450,73272,3331,3784,5600
72577,73257,0,3892,5600
79241,79907,0,3788,5600
75315,73232,0,3916,5600
73972,69882,3329,3876,5600
73102,73263,0,3848,5600
74946,73282,0,3788,5600
72222,66590,3330,3788,5600
74628,76620,0,3916,5600
72937,73286,0,3892,5600
73696,73288,0,3748,5600
75815,76593,0,3916,5600
73190,73275,0,3852,5600
73453,73288,0,3852,5600
