real_time,user_time,sys_time,max_rss,max_vsz
17148,16651,0,2808,4640
16797,16650,0,2936,4640
16777,13323,3292,2808,4640
15757,13292,3301,2864,4640
15664,13309,3333,2936,4640
15508,16646,0,2896,4640
15826,16588,0,2936,4640
16156,13314,3333,2808,4640
16099,13297,0,2916,4640
15757,13287,0,2936,4640
15742,13286,3331,2936,4640
16435,16647,0,2920,4640
15735,16621,0,2936,4640
15990,16645,0,2936,4640
15857,9973,3327,2940,4640
15572,13291,3333,2876,4640
15522,16646,0,2896,4640
15694,16601,0,2808,4640
15680,13323,0,2920,4640
15749,13283,0,2920,4640
