real_time,user_time,sys_time,max_rss,max_vsz
16595,13270,3300,23084,224607756
15971,13322,0,22968,224607756
16279,13318,3283,23136,224607756
15849,16614,0,22992,224607756
17125,9984,3327,22852,224607756
15359,13317,0,23124,224607756
15857,13322,3329,22940,224607756
16999,16605,0,23092,224607756
16651,13301,3329,23068,224607756
16575,9991,3329,23204,224607756
15921,9990,6634,23176,224607756
16225,9993,3326,22704,224607756
16673,13323,3328,22704,224607756
16693,13302,3328,23264,224607756
16119,6662,6660,22968,224607756
17213,13221,3326,22988,224607756
17569,9983,3312,23220,224607756
15923,6650,6656,22848,224607756
16150,16612,0,23200,224607756
17022,16645,0,23224,224607756
