real_time,user_time,sys_time,max_rss,max_vsz
14727,13310,0,22736,224607756
14509,9984,6657,22736,224607756
14356,13297,0,22732,224607756
14639,9993,3317,22884,224607756
15184,13306,3288,23164,224607756
14689,13320,0,22736,224607756
15199,9984,3328,23068,224607756
15971,9991,3312,23180,224607756
15961,13312,0,23260,224607756
14096,9982,3330,23156,224607756
14106,13325,0,23108,224607756
14071,9989,0,23296,224607756
15436,9996,3322,23204,224607756
14095,9985,0,23116,224607756
15901,9992,3297,22884,224607756
14531,9910,0,23204,224607756
14167,13313,0,23296,224607756
14812,6657,6654,23156,224607756
14537,9996,3326,23260,224607756
14124,13325,0,23300,224607756
