real_time,user_time,sys_time,max_rss,max_vsz
1141918,3333,0,106264,10743612
1148619,3333,0,106308,10743612
1171796,3333,0,117296,10743612
1154516,3333,0,106280,10743612
1128342,3333,0,106376,10743612
1155005,0,3333,111320,10743612
1151810,0,3333,105744,10743612
1155146,3333,0,112504,10743612
1173999,0,3321,110300,10743612
1138905,0,3329,106212,10743612
1155078,3333,0,111788,10678076
1171365,3322,0,105888,10743612
1149335,0,3333,106800,10743612
1164232,0,3333,116520,10743612
1148041,3333,0,105976,10743612
1158266,3333,0,110616,10743612
1141815,3333,0,106800,10678076
1158507,0,3333,105732,10743612
1126975,3333,0,105868,10743612
1153671,0,0,106804,10743612
