real_time,user_time,sys_time,max_rss,max_vsz
1190124,0,3327,115220,10743612
1224853,0,3331,112568,10743612
1194581,0,3333,112508,10743612
1224193,0,3333,112672,10743612
1207696,3333,3322,116988,10678076
1203517,3333,0,112788,10743612
1181315,3333,0,114388,10743612
1184161,3331,0,113624,10743612
1234352,3278,0,113980,10678076
1198135,3333,0,113620,10744188
1207251,3333,0,112564,10743612
1221282,3333,0,113796,10743612
1220356,3333,0,118064,10680488
1208002,3333,0,116888,10743612
1193101,3327,0,116272,10743612
1187152,3333,0,114420,10743612
1218565,3329,0,115508,10743612
1200467,0,3333,112908,10743612
1190314,3333,3329,112616,10743612
1207377,3333,0,110268,10743612
