real_time,user_time,sys_time,max_rss,max_vsz
47681,46162,0,3348,5020
46475,46635,0,3368,5020
48342,49936,0,3372,5020
48253,46563,0,3236,5020
47450,46586,0,3328,5020
45950,46615,0,3276,5020
45648,39963,3319,3368,5020
45927,46611,0,3368,5020
45836,46617,0,3356,5020
45348,43287,0,3368,5020
45933,46541,0,3304,5020
45944,43293,3329,3240,5020
46019,46608,0,3328,5020
47426,46593,0,3368,5020
48807,46532,0,3368,5020
46386,46614,0,3236,5020
45923,43300,0,3328,5020
46116,43304,0,3332,5020
47379,46635,3328,3352,5020
47136,43290,3307,3368,5020
