real_time,user_time,sys_time,max_rss,max_vsz
20122,19970,0,3276,5020
20176,19975,0,3240,5020
19950,19973,0,3152,5020
20345,19892,0,3256,5020
19934,19975,0,3260,5020
20230,19958,0,3152,5020
20048,19977,0,3268,5020
19766,16608,0,3148,5020
19947,16651,3331,3284,5020
19632,16653,0,3244,5020
19904,19977,0,3220,5020
19565,19979,0,3268,5020
19911,19950,0,3280,5020
19994,19980,0,3184,5020
19891,19954,0,3152,5020
21640,16645,3331,3188,5020
21662,19865,0,3260,5020
22673,23193,0,3264,5020
20745,19978,0,3152,5020
20605,19931,3326,3244,5020
