real_time,user_time,sys_time,max_rss,max_vsz
17521,16584,3331,2792,4624
17496,16621,0,2924,4624
16634,16585,0,2920,4624
16431,13272,3329,2884,4624
16047,16646,0,2856,4624
16211,16642,0,2848,4624
16327,16637,0,2860,4624
16556,16619,0,2904,4624
16547,16647,0,2908,4624
16348,16640,0,2796,4624
16485,16653,0,2904,4624
16263,13272,3331,2860,4624
16394,16645,0,2848,4624
16843,16594,0,2852,4624
16276,16641,0,2832,4624
16370,16652,0,2828,4624
16160,16625,0,2920,4624
16064,16649,0,2904,4624
16385,16607,0,2796,4624
16058,16643,0,2852,4624
