real_time,user_time,sys_time,max_rss,max_vsz
1325118,0,3319,128380,10743612
1352627,0,0,129888,10743612
1354301,0,3333,126752,10743612
1330022,0,3333,130204,10743612
1367900,0,3333,126820,10743612
1341673,0,3333,128668,10743612
1340967,3328,0,128960,10743612
1351512,3330,0,132468,10743612
1344025,0,3330,129716,10743612
1367369,3333,0,127004,10743612
1328603,3333,0,132908,10743612
1390121,0,0,129144,10743612
1367436,3333,0,133316,10743612
1353046,0,3333,129044,10743612
1357397,3333,0,127192,10743612
1371674,6660,0,127640,10743612
1313792,0,3333,127388,10743612
1310735,3329,0,128492,10746384
1341313,3333,0,129728,10743612
1357737,0,3333,130812,10743612
