real_time,user_time,sys_time,max_rss,max_vsz
3566,3326,0,2316,3960
3263,0,3333,2308,3960
3137,0,3326,2304,3960
3166,3328,0,2284,3960
3401,3330,0,2304,3960
3585,3299,0,2312,3960
3373,0,3331,2232,3960
3216,3327,0,2316,3960
3109,3331,0,2264,3960
3164,3330,0,2316,3960
3205,3328,0,2200,3960
3306,3333,0,2200,3960
3210,3333,0,2328,3960
3221,3333,0,2252,3960
3175,3333,0,2316,3960
3204,3328,0,2300,3960
3172,3333,0,2304,3960
3266,3332,0,2284,3960
3151,3333,0,2308,3960
3214,3333,0,2328,3960
