real_time,user_time,sys_time,max_rss,max_vsz
1151531,1149201,0,11056,12932
1101302,1099573,3329,11252,12932
1125290,1126145,0,11184,12932
1113018,1109507,3331,11172,12932
1087886,1082914,3332,11188,12932
1087850,1086248,0,11168,12932
1125621,1115839,9955,11168,12932
1085812,1086265,0,11164,12932
1121191,1116274,6663,11160,12932
1081018,1076296,3330,11168,12932
1089861,1086326,3329,11148,12932
1090435,1089548,0,11164,12932
1123865,1126207,0,11164,12932
1086711,1082870,3330,11060,12932
1119153,1116216,3331,11060,12932
1121739,1119584,3329,11120,12932
1112157,1112840,0,11172,12932
1093491,1092809,0,11164,12932
1098771,1096265,3329,11060,12932
1093636,1092976,0,11160,12932
