real_time,user_time,sys_time,max_rss,max_vsz
12589,9985,3330,2488,4224
12529,13315,0,2436,4224
12318,13320,0,2456,4224
13516,13320,0,2520,4224
12344,13315,0,2532,4224
12280,9992,0,2460,4224
13053,9957,0,2504,4224
12489,9993,0,2464,4224
12452,9989,0,2404,4224
12628,13320,0,2528,4224
12476,13304,0,2488,4224
12571,13319,0,2404,4224
13880,13316,0,2396,4224
13256,9985,3333,2532,4224
13871,13250,0,2520,4224
13200,13292,0,2524,4224
13313,13269,0,2492,4224
12737,13318,0,2524,4224
12781,13321,0,2400,4224
12635,13320,0,2404,4224
