real_time,user_time,sys_time,max_rss,max_vsz
22977,23302,0,3308,5056
22585,19975,0,3308,5056
23159,19982,0,3324,5056
22756,19976,0,3232,5056
21731,19983,0,3260,5056
21956,23299,0,3232,5056
21944,19935,0,3252,5056
21698,19977,0,3300,5056
21899,23285,0,3196,5056
21871,19979,0,3284,5056
22707,19934,0,3304,5056
22902,19983,3333,3232,5056
22037,19947,0,3324,5056
21813,23305,0,3312,5056
22052,23289,0,3304,5056
21965,19949,0,3304,5056
22435,23284,0,3312,5056
23858,19940,6625,3196,5056
22339,19943,0,3328,5056
22537,19974,3330,3312,5056
