real_time,user_time,sys_time,max_rss,max_vsz
700908,699663,0,6764,8468
689767,686004,0,6676,8468
673816,666330,6659,6752,8468
663233,659704,3329,6832,8468
656124,653085,3333,6768,8468
665170,663089,0,6748,8468
673503,673055,0,6748,8468
657273,653091,3330,6680,8468
661362,663070,0,6640,8468
675573,676373,0,6752,8468
689060,689440,0,6640,8468
671918,669728,0,6640,8468
670403,669738,0,6604,8468
663357,659736,3329,6728,8468
670053,669777,0,6676,8468
660458,659727,0,6644,8468
665608,666398,0,6748,8468
675773,673011,3331,6756,8468
669938,669711,0,6676,8468
670109,669719,0,6752,8468
