real_time,user_time,sys_time,max_rss,max_vsz
15759,13284,0,22664,224607756
15111,9991,3331,22452,224607756
16185,13297,3324,22656,224607756
16018,13255,0,22604,224607756
15285,13317,0,22284,224607756
15525,13315,3326,22600,224607756
15570,13308,3333,22280,224607756
15851,9983,3318,22936,224607756
16138,9986,3331,22688,224607756
16336,9973,6621,22668,224607756
16255,6658,6659,22604,224607756
14980,6637,3333,22432,224607756
16257,9976,3330,22756,224607756
15508,9988,0,22788,224607756
15351,9984,3331,22600,224607756
15156,13319,3280,22452,224607756
15883,9989,6659,22368,224607756
16102,9989,6652,22664,224607756
16563,16607,0,22668,224607756
18449,16600,3293,22656,224607756
