real_time,user_time,sys_time,max_rss,max_vsz
736786,736271,0,10220,12064
724354,726282,0,10228,12064
709756,709659,0,10264,12064
711234,713024,0,10224,12064
726442,726348,0,10320,12064
723104,722759,0,10228,12064
730192,729394,0,10356,12064
731576,729628,0,10352,12064
708854,706343,0,10316,12064
723237,712944,9989,10356,12064
716079,716346,0,10352,12064
709929,709699,0,10356,12064
702157,699703,3332,10324,12064
711404,712991,0,10224,12064
715313,716351,0,10352,12064
712249,712979,0,10352,12064
710514,699717,9996,10340,12064
708098,706366,3332,10348,12064
706960,706362,0,10228,12064
707672,706353,0,10352,12064
