real_time,user_time,sys_time,max_rss,max_vsz
3366451,3362150,3328,15800,17664
3399587,3395436,3332,15928,17664
3337062,3335510,0,15904,17664
3374310,3365377,6660,15920,17664
3398665,3395264,3333,15928,17664
3389996,3382070,6664,15928,17664
3479506,3478676,0,15804,17664
3455655,3451361,3324,15892,17664
3374844,3368741,6664,15800,17664
3491055,3487849,0,15992,17664
3356813,3348750,6664,15916,17664
3468650,3461125,6663,15944,17664
3345173,3342069,3332,15840,17664
3432692,3428681,3331,15924,17664
3383141,3382105,0,15868,17664
3407763,3405373,3329,15912,17664
3401814,3395374,6664,15868,17664
3411434,3412051,0,15888,17664
3366267,3362121,3331,15996,17664
3413748,3405477,6664,15836,17664
