real_time,user_time,sys_time,max_rss,max_vsz
134986,133147,0,3752,5528
127739,123256,3332,3884,5528
131477,133250,0,3756,5528
132307,129908,3330,3860,5528
135379,136498,0,3880,5528
128444,126588,0,3880,5528
130326,129847,0,3856,5528
130286,129930,0,3884,5528
128701,129838,0,3864,5528
127300,123270,3329,3880,5528
130424,133212,0,3872,5528
129045,129906,0,3876,5528
128937,129913,0,3864,5528
130104,129934,0,3840,5528
128300,129844,0,3880,5528
129253,129925,0,3880,5528
129277,129893,0,3876,5528
131430,133251,0,3868,5528
135964,133236,3330,3756,5528
131368,126584,3331,3812,5528
