real_time,user_time,sys_time,max_rss,max_vsz
51466,49929,0,3636,5528
48629,49941,0,3752,5528
48347,46617,0,3640,5528
48668,49954,0,3748,5528
48961,49934,0,3748,5528
49170,49923,0,3680,5528
49351,49934,0,3744,5528
48229,46609,0,3752,5528
48050,46626,0,3708,5528
51532,53253,0,3760,5528
52261,49953,0,3728,5528
48610,46558,0,3636,5528
48449,49961,0,3768,5528
48874,46568,0,3768,5528
48669,46567,0,3768,5528
50908,49961,3331,3640,5528
48613,43299,3331,3752,5528
48288,49961,0,3768,5528
48286,46631,0,3676,5528
47984,46631,3327,3768,5528
