reasoner,dataset-size,real_time,user_time,sys_time,max_rss,max_vsz
Jena,1,828640,926,1296,101620,10736330
Jena,100,876997,555,1111,101799,10732689
Jena,200,901020,556,1481,102070,10718126
Jena,300,918416,1108,554,102218,10743612
Jena,400,930126,1110,740,102310,10739971
Jena,500,958770,1111,1111,102493,10743612
Jena,750,1013627,1111,1110,102599,10743612
Jena,1000,1042775,1294,554,102912,10732689
Jena,2500,1151848,2221,556,107171,10732689
Jena,5000,1247814,1851,1294,115196,10743612
Jena,7500,1346901,925,1295,129773,10740044
Jena,10000,1458952,184,555,142072,10729048
LiRoT,1,2766,2399,370,2221,3960
LiRoT,100,5887,5527,370,2276,3960
LiRoT,200,7880,7208,370,2360,4096
LiRoT,300,12820,12385,185,2475,4224
LiRoT,400,15578,15514,0,2559,4356
LiRoT,500,20330,19407,740,2645,4356
LiRoT,750,34059,33643,0,2843,4644
LiRoT,1000,53142,52527,369,3110,4776
LiRoT,2500,242099,241315,925,4303,6100
LiRoT,5000,809291,807444,2404,6036,7724
LiRoT,7500,1805067,1802056,2405,7797,9556
LiRoT,10000,2983560,2979850,2775,9244,11004
RDFox,1,13123,9610,2399,22417,224607756
RDFox,100,14728,10150,4242,22655,224607756
RDFox,200,14705,9419,3694,22610,224607756
RDFox,300,15624,11631,2582,22572,224607756
RDFox,400,15985,11444,3871,22618,224607756
RDFox,500,15825,11456,3137,22589,224607756
RDFox,750,16719,12568,2399,22621,224607756
RDFox,1000,17467,12000,3510,22715,224607756
RDFox,2500,21518,15157,3508,23520,224607756
RDFox,5000,28028,17554,4435,23779,224607756
RDFox,7500,34160,25311,3321,23876,224607756
RDFox,10000,40504,28108,3694,24352,224607756
RETE,1,2669,2034,0,2227,3952
RETE,100,5562,4960,185,2381,4084
RETE,200,8680,8314,0,2483,4220
RETE,300,14552,14410,185,2637,4332
RETE,400,19189,18095,370,2708,4484
RETE,500,24896,24378,185,2843,4620
RETE,750,42865,43275,185,3116,4876
RETE,1000,69022,68802,740,3435,5116
RETE,2500,326518,325922,370,5066,6808
RETE,5000,1115241,1111782,2221,7482,9220
RETE,7500,2468453,2464661,2775,10044,11864
RETE,10000,4176389,4171233,3516,12244,14020
RETE+alpha,1,2478,2774,0,2207,3956
RETE+alpha,100,4990,4621,0,2290,4088
RETE+alpha,200,7578,7208,185,2380,4088
RETE+alpha,300,12742,12561,368,2504,4220
RETE+alpha,400,15833,15326,555,2586,4348
RETE+alpha,500,20209,19755,183,2670,4352
RETE+alpha,750,33602,31987,555,2889,4600
RETE+alpha,1000,52407,51602,370,3174,4880
RETE+alpha,2500,232491,230779,740,4476,6292
RETE+alpha,5000,771788,770029,555,6411,8092
RETE+alpha,7500,1709848,1707673,1850,8512,10280
RETE+alpha,10000,2854004,2848843,4257,10210,11972
RETE+terms,1,4294,3878,369,2212,3960
RETE+terms,100,6001,5527,366,2336,4092
RETE+terms,200,9201,8507,555,2410,4092
RETE+terms,300,15366,14782,0,2540,4224
RETE+terms,400,19964,19772,0,2616,4360
RETE+terms,500,25910,24761,738,2720,4488
RETE+terms,750,44679,44570,369,2935,4664
RETE+terms,1000,71664,70271,1109,3175,4920
RETE+terms,2500,348248,346615,1110,4500,6232
RETE+terms,5000,1189948,1187968,1295,6339,8068
RETE+terms,7500,2667684,2663695,2589,8271,9976
RETE+terms,10000,4423155,4418856,3146,9849,11592
