real_time,user_time,sys_time,max_rss,max_vsz
11448,9949,0,3008,4752
11126,3330,6646,2884,4752
11159,9942,3314,2984,4752
11273,9908,0,2936,4752
11123,13317,0,2988,4752
10936,9987,0,2880,4752
10845,9984,0,2992,4752
10875,9979,3333,3008,4752
10851,9991,0,2960,4752
11642,13283,0,3012,4752
11198,9985,0,2988,4752
11035,9986,0,3000,4752
11068,9987,0,2856,4752
11010,9993,0,3008,4752
11088,13268,0,2984,4752
11196,9984,0,3008,4752
10855,9993,0,2996,4752
11863,9992,0,3008,4752
11714,13311,0,3008,4752
10877,9989,0,2952,4752
