real_time,user_time,sys_time,max_rss,max_vsz
14173,9986,0,22624,224607756
13860,13306,0,22740,224607756
13678,6646,6656,22748,224607756
14058,13298,0,22408,224607756
14285,9978,6664,22384,224607756
14490,9931,3328,22740,224607756
14475,6653,6653,22472,224607756
14774,9978,3325,22240,224607756
17084,13224,0,22560,224607756
14297,9942,3304,22612,224607756
15291,16640,0,22640,224607756
14039,13314,0,22388,224607756
14024,9983,6660,22556,224607756
14556,13320,0,22328,224607756
14541,13299,3326,22704,224607756
14259,13311,0,22264,224607756
13898,9992,0,22712,224607756
14165,9987,3329,22628,224607756
14053,9951,3327,22600,224607756
13836,9966,3332,22612,224607756
