real_time,user_time,sys_time,max_rss,max_vsz
19684,19947,0,3032,4756
19802,19980,0,3036,4756
21616,23299,0,3036,4756
23242,23308,0,3032,4756
21851,23306,0,2924,4756
20897,19902,0,3044,4756
19975,19944,0,3052,4756
19910,19973,0,3056,4756
19825,19980,0,3056,4756
20009,19927,0,3044,4756
19879,16618,3333,2968,4756
21078,19981,0,3036,4756
19947,19977,0,2928,4756
20191,19920,0,2992,4756
20169,19951,0,3060,4756
20285,16622,6664,3056,4756
21226,19941,0,3036,4756
19990,19975,0,3016,4756
19797,19954,0,3048,4756
19475,19974,0,3044,4756
