real_time,user_time,sys_time,max_rss,max_vsz
27662,19939,3321,23960,224607756
28792,13289,9987,23636,224607756
28311,16626,3325,23852,224607756
26719,13316,9983,23852,224607756
27484,16622,3330,23920,224607756
27365,19980,3329,23672,224607756
27950,13299,3327,23780,224607756
28715,19922,0,23820,224607756
27887,23301,3320,23828,224607756
28536,13295,6663,23992,224607756
26700,13317,3331,23692,224607756
28564,16638,9965,24052,224607756
28723,19975,3328,24056,224607756
27297,19930,0,23400,224607756
27938,9984,13320,23840,224607756
28079,19977,3324,23400,224607756
31004,19963,3328,23672,224607756
28757,19972,3320,23400,224607756
27153,16638,3323,23872,224607756
28580,23273,3333,23780,224607756
