real_time,user_time,sys_time,max_rss,max_vsz
22937,19954,3333,2760,4608
21533,19914,0,2760,4608
21410,23281,0,2880,4608
21558,16621,3293,2876,4608
21413,23268,0,2892,4608
21378,19966,0,2884,4608
21160,23286,0,2804,4608
21293,19966,0,2828,4608
21926,19979,3330,2876,4608
20905,19977,0,2892,4608
21108,23271,0,2760,4608
21189,19976,0,2764,4608
21103,19944,3329,2876,4608
20969,19975,0,2892,4608
21059,23309,0,2724,4608
20973,19978,0,2892,4608
21552,19954,0,2896,4608
20654,16645,3333,2872,4608
20996,19979,0,2892,4608
21982,19937,0,2876,4608
