real_time,user_time,sys_time,max_rss,max_vsz
12210,13320,0,2976,4616
12833,13309,0,2956,4616
11536,9987,0,2928,4616
11616,9960,0,2904,4616
11182,6662,3330,2868,4616
11435,9990,0,2996,4616
11902,13264,0,3000,4616
12253,9986,0,2980,4616
12099,9987,0,2996,4616
12342,9990,3333,2960,4616
11256,13315,0,2996,4616
11769,9978,0,2872,4616
12677,6660,3324,2864,4616
12410,9957,0,2996,4616
11597,9991,0,2872,4616
11561,13292,0,2988,4616
12220,13317,0,2980,4616
11527,9951,0,2928,4616
11271,9989,0,2868,4616
11412,13284,0,2932,4616
