real_time,user_time,sys_time,max_rss,max_vsz
898102,0,3328,101680,10678076
883426,0,3329,101856,10743612
864495,0,0,101892,10743612
887391,3333,0,101916,10743612
869347,0,3333,101824,10678076
895834,0,3333,101660,10743612
867170,0,0,101624,10678076
881289,0,3333,101784,10743612
867513,0,3333,101440,10743612
890007,3333,0,101756,10743612
868732,0,0,101692,10678076
864139,3331,0,101988,10743612
877945,0,0,101960,10743612
882612,0,0,102168,10743612
894712,3328,0,101884,10743612
882520,3333,0,101596,10743612
868948,3333,0,101780,10743612
874136,0,0,101668,10743612
878366,0,0,101872,10743612
863969,0,0,101516,10743612
