%!PS-Adobe-3.0 EPSF-3.0
%%Title: add_plot_rete.eps
%%Creator: Matplotlib v3.5.1, https://matplotlib.org/
%%CreationDate: Tue Jan 18 15:34:25 2022
%%Orientation: portrait
%%BoundingBox: -510 -21 1123 814
%%HiResBoundingBox: -510.626562 -21.681875 1122.626563 813.681875
%%EndComments
%%BeginProlog
/mpldict 11 dict def
mpldict begin
/_d { bind def } bind def
/m { moveto } _d
/l { lineto } _d
/r { rlineto } _d
/c { curveto } _d
/cl { closepath } _d
/ce { closepath eofill } _d
/box {
      m
      1 index 0 r
      0 exch r
      neg 0 r
      cl
    } _d
/clipbox {
      box
      clip
      newpath
    } _d
/sc { setcachedevice } _d
%!PS-Adobe-3.0 Resource-Font
%%Creator: Converted from TrueType to Type 3 by Matplotlib.
10 dict begin
/FontName /DejaVuSans def
/PaintType 0 def
/FontMatrix [0.00048828125 0 0 0.00048828125 0 0] def
/FontBBox [-2090 -948 3673 2524] def
/FontType 3 def
/Encoding [/space /numbersign /parenleft /parenright /plus /zero /one /two /three /four /five /six /eight /B /E /L /M /R /S /T /a /c /d /e /h /i /l /m /n /o /p /r /s /t /u /x /z] def
/CharStrings 38 dict dup begin
/.notdef 0 def
/space{651 0 0 0 0 0 sc
ce} _d
/numbersign{1716 0 158 0 1559 1470 sc
1047 901 m
756 901 l
672 567 l
965 567 l
1047 901 l

897 1470 m
793 1055 l
1085 1055 l
1190 1470 l
1350 1470 l
1247 1055 l
1559 1055 l
1559 901 l
1208 901 l
1126 567 l
1444 567 l
1444 414 l
1087 414 l
983 0 l
823 0 l
926 414 l
633 414 l
530 0 l
369 0 l
473 414 l
158 414 l
158 567 l
510 567 l
594 901 l
272 901 l
272 1055 l
633 1055 l
735 1470 l
897 1470 l

ce} _d
/parenleft{799 0 176 -270 635 1554 sc
635 1554 m
546 1401 479 1249 436 1099 c
393 949 371 797 371 643 c
371 489 393 336 436 185 c
480 34 546 -117 635 -270 c
475 -270 l
375 -113 300 41 250 192 c
201 343 176 494 176 643 c
176 792 201 941 250 1092 c
299 1243 374 1397 475 1554 c
635 1554 l

ce} _d
/parenright{799 0 164 -270 623 1554 sc
164 1554 m
324 1554 l
424 1397 499 1243 548 1092 c
598 941 623 792 623 643 c
623 494 598 343 548 192 c
499 41 424 -113 324 -270 c
164 -270 l
253 -117 319 34 362 185 c
406 336 428 489 428 643 c
428 797 406 949 362 1099 c
319 1249 253 1401 164 1554 c

ce} _d
/plus{1716 0 217 0 1499 1284 sc
942 1284 m
942 727 l
1499 727 l
1499 557 l
942 557 l
942 0 l
774 0 l
774 557 l
217 557 l
217 727 l
774 727 l
774 1284 l
942 1284 l

ce} _d
/zero{1303 0 135 -29 1167 1520 sc
651 1360 m
547 1360 469 1309 416 1206 c
364 1104 338 950 338 745 c
338 540 364 387 416 284 c
469 182 547 131 651 131 c
756 131 834 182 886 284 c
939 387 965 540 965 745 c
965 950 939 1104 886 1206 c
834 1309 756 1360 651 1360 c

651 1520 m
818 1520 946 1454 1034 1321 c
1123 1189 1167 997 1167 745 c
1167 494 1123 302 1034 169 c
946 37 818 -29 651 -29 c
484 -29 356 37 267 169 c
179 302 135 494 135 745 c
135 997 179 1189 267 1321 c
356 1454 484 1520 651 1520 c

ce} _d
/one{1303 0 225 0 1114 1493 sc
254 170 m
584 170 l
584 1309 l
225 1237 l
225 1421 l
582 1493 l
784 1493 l
784 170 l
1114 170 l
1114 0 l
254 0 l
254 170 l

ce} _d
/two{1303 0 150 0 1098 1520 sc
393 170 m
1098 170 l
1098 0 l
150 0 l
150 170 l
227 249 331 356 463 489 c
596 623 679 709 713 748 c
778 821 823 882 848 932 c
874 983 887 1032 887 1081 c
887 1160 859 1225 803 1275 c
748 1325 675 1350 586 1350 c
523 1350 456 1339 385 1317 c
315 1295 240 1262 160 1217 c
160 1421 l
241 1454 317 1478 388 1495 c
459 1512 523 1520 582 1520 c
737 1520 860 1481 952 1404 c
1044 1327 1090 1223 1090 1094 c
1090 1033 1078 974 1055 919 c
1032 864 991 800 930 725 c
913 706 860 650 771 557 c
682 465 556 336 393 170 c

ce} _d
/three{1303 0 156 -29 1139 1520 sc
831 805 m
928 784 1003 741 1057 676 c
1112 611 1139 530 1139 434 c
1139 287 1088 173 987 92 c
886 11 742 -29 555 -29 c
492 -29 428 -23 361 -10 c
295 2 227 20 156 45 c
156 240 l
212 207 273 183 340 166 c
407 149 476 141 549 141 c
676 141 772 166 838 216 c
905 266 938 339 938 434 c
938 522 907 591 845 640 c
784 690 698 715 588 715 c
414 715 l
414 881 l
596 881 l
695 881 771 901 824 940 c
877 980 903 1037 903 1112 c
903 1189 876 1247 821 1288 c
767 1329 689 1350 588 1350 c
533 1350 473 1344 410 1332 c
347 1320 277 1301 201 1276 c
201 1456 l
278 1477 349 1493 416 1504 c
483 1515 547 1520 606 1520 c
759 1520 881 1485 970 1415 c
1059 1346 1104 1252 1104 1133 c
1104 1050 1080 980 1033 923 c
986 866 918 827 831 805 c

ce} _d
/four{1303 0 100 0 1188 1493 sc
774 1317 m
264 520 l
774 520 l
774 1317 l

721 1493 m
975 1493 l
975 520 l
1188 520 l
1188 352 l
975 352 l
975 0 l
774 0 l
774 352 l
100 352 l
100 547 l
721 1493 l

ce} _d
/five{1303 0 158 -29 1124 1493 sc
221 1493 m
1014 1493 l
1014 1323 l
406 1323 l
406 957 l
435 967 465 974 494 979 c
523 984 553 987 582 987 c
749 987 881 941 978 850 c
1075 759 1124 635 1124 479 c
1124 318 1074 193 974 104 c
874 15 733 -29 551 -29 c
488 -29 424 -24 359 -13 c
294 -2 227 14 158 35 c
158 238 l
218 205 280 181 344 165 c
408 149 476 141 547 141 c
662 141 754 171 821 232 c
888 293 922 375 922 479 c
922 583 888 665 821 726 c
754 787 662 817 547 817 c
493 817 439 811 385 799 c
332 787 277 768 221 743 c
221 1493 l

ce} _d
/six{1303 0 143 -29 1174 1520 sc
676 827 m
585 827 513 796 460 734 c
407 672 381 587 381 479 c
381 372 407 287 460 224 c
513 162 585 131 676 131 c
767 131 838 162 891 224 c
944 287 971 372 971 479 c
971 587 944 672 891 734 c
838 796 767 827 676 827 c

1077 1460 m
1077 1276 l
1026 1300 975 1318 923 1331 c
872 1344 821 1350 770 1350 c
637 1350 535 1305 464 1215 c
394 1125 354 989 344 807 c
383 865 433 909 492 940 c
551 971 617 987 688 987 c
838 987 956 941 1043 850 c
1130 759 1174 636 1174 479 c
1174 326 1129 203 1038 110 c
947 17 827 -29 676 -29 c
503 -29 371 37 280 169 c
189 302 143 494 143 745 c
143 981 199 1169 311 1309 c
423 1450 573 1520 762 1520 c
813 1520 864 1515 915 1505 c
967 1495 1021 1480 1077 1460 c

ce} _d
/eight{1303 0 139 -29 1163 1520 sc
651 709 m
555 709 479 683 424 632 c
369 581 342 510 342 420 c
342 330 369 259 424 208 c
479 157 555 131 651 131 c
747 131 823 157 878 208 c
933 260 961 331 961 420 c
961 510 933 581 878 632 c
823 683 748 709 651 709 c

449 795 m
362 816 295 857 246 916 c
198 975 174 1048 174 1133 c
174 1252 216 1347 301 1416 c
386 1485 503 1520 651 1520 c
800 1520 916 1485 1001 1416 c
1086 1347 1128 1252 1128 1133 c
1128 1048 1104 975 1055 916 c
1007 857 940 816 854 795 c
951 772 1027 728 1081 662 c
1136 596 1163 515 1163 420 c
1163 275 1119 164 1030 87 c
942 10 816 -29 651 -29 c
486 -29 360 10 271 87 c
183 164 139 275 139 420 c
139 515 166 596 221 662 c
276 728 352 772 449 795 c

375 1114 m
375 1037 399 976 447 933 c
496 890 564 868 651 868 c
738 868 805 890 854 933 c
903 976 928 1037 928 1114 c
928 1191 903 1252 854 1295 c
805 1338 738 1360 651 1360 c
564 1360 496 1338 447 1295 c
399 1252 375 1191 375 1114 c

ce} _d
/B{1405 0 201 0 1260 1493 sc
403 713 m
403 166 l
727 166 l
836 166 916 188 968 233 c
1021 278 1047 347 1047 440 c
1047 533 1021 602 968 646 c
916 691 836 713 727 713 c
403 713 l

403 1327 m
403 877 l
702 877 l
801 877 874 895 922 932 c
971 969 995 1026 995 1102 c
995 1177 971 1234 922 1271 c
874 1308 801 1327 702 1327 c
403 1327 l

201 1493 m
717 1493 l
871 1493 990 1461 1073 1397 c
1156 1333 1198 1242 1198 1124 c
1198 1033 1177 960 1134 906 c
1091 852 1029 818 946 805 c
1045 784 1122 739 1177 671 c
1232 604 1260 519 1260 418 c
1260 285 1215 182 1124 109 c
1033 36 904 0 737 0 c
201 0 l
201 1493 l

ce} _d
/E{1294 0 201 0 1163 1493 sc
201 1493 m
1145 1493 l
1145 1323 l
403 1323 l
403 881 l
1114 881 l
1114 711 l
403 711 l
403 170 l
1163 170 l
1163 0 l
201 0 l
201 1493 l

ce} _d
/L{1141 0 201 0 1130 1493 sc
201 1493 m
403 1493 l
403 170 l
1130 170 l
1130 0 l
201 0 l
201 1493 l

ce} _d
/M{1767 0 201 0 1567 1493 sc
201 1493 m
502 1493 l
883 477 l
1266 1493 l
1567 1493 l
1567 0 l
1370 0 l
1370 1311 l
985 287 l
782 287 l
397 1311 l
397 0 l
201 0 l
201 1493 l

ce} _d
/R{1423 0 201 0 1364 1493 sc
909 700 m
952 685 994 654 1035 606 c
1076 558 1118 492 1159 408 c
1364 0 l
1147 0 l
956 383 l
907 483 859 549 812 582 c
766 615 703 631 623 631 c
403 631 l
403 0 l
201 0 l
201 1493 l
657 1493 l
828 1493 955 1457 1039 1386 c
1123 1315 1165 1207 1165 1063 c
1165 969 1143 891 1099 829 c
1056 767 992 724 909 700 c

403 1327 m
403 797 l
657 797 l
754 797 828 819 877 864 c
927 909 952 976 952 1063 c
952 1150 927 1216 877 1260 c
828 1305 754 1327 657 1327 c
403 1327 l

ce} _d
/S{1300 0 135 -29 1186 1520 sc
1096 1444 m
1096 1247 l
1019 1284 947 1311 879 1329 c
811 1347 745 1356 682 1356 c
572 1356 487 1335 427 1292 c
368 1249 338 1189 338 1110 c
338 1044 358 994 397 960 c
437 927 512 900 623 879 c
745 854 l
896 825 1007 775 1078 702 c
1150 630 1186 533 1186 412 c
1186 267 1137 158 1040 83 c
943 8 801 -29 614 -29 c
543 -29 468 -21 388 -5 c
309 11 226 35 141 66 c
141 274 l
223 228 303 193 382 170 c
461 147 538 135 614 135 c
729 135 818 158 881 203 c
944 248 975 313 975 397 c
975 470 952 528 907 569 c
862 610 789 641 686 662 c
563 686 l
412 716 303 763 236 827 c
169 891 135 980 135 1094 c
135 1226 181 1330 274 1406 c
367 1482 496 1520 659 1520 c
729 1520 800 1514 873 1501 c
946 1488 1020 1469 1096 1444 c

ce} _d
/T{1251 0 -6 0 1257 1493 sc
-6 1493 m
1257 1493 l
1257 1323 l
727 1323 l
727 0 l
524 0 l
524 1323 l
-6 1323 l
-6 1493 l

ce} _d
/a{1255 0 123 -29 1069 1147 sc
702 563 m
553 563 450 546 393 512 c
336 478 307 420 307 338 c
307 273 328 221 371 182 c
414 144 473 125 547 125 c
649 125 731 161 792 233 c
854 306 885 402 885 522 c
885 563 l
702 563 l

1069 639 m
1069 0 l
885 0 l
885 170 l
843 102 791 52 728 19 c
665 -13 589 -29 498 -29 c
383 -29 292 3 224 67 c
157 132 123 218 123 326 c
123 452 165 547 249 611 c
334 675 460 707 627 707 c
885 707 l
885 725 l
885 810 857 875 801 921 c
746 968 668 991 567 991 c
503 991 441 983 380 968 c
319 953 261 930 205 899 c
205 1069 l
272 1095 338 1114 401 1127 c
464 1140 526 1147 586 1147 c
748 1147 869 1105 949 1021 c
1029 937 1069 810 1069 639 c

ce} _d
/c{1126 0 113 -29 999 1147 sc
999 1077 m
999 905 l
947 934 895 955 842 969 c
790 984 737 991 684 991 c
565 991 472 953 406 877 c
340 802 307 696 307 559 c
307 422 340 316 406 240 c
472 165 565 127 684 127 c
737 127 790 134 842 148 c
895 163 947 184 999 213 c
999 43 l
948 19 894 1 839 -11 c
784 -23 726 -29 664 -29 c
495 -29 361 24 262 130 c
163 236 113 379 113 559 c
113 742 163 885 263 990 c
364 1095 501 1147 676 1147 c
733 1147 788 1141 842 1129 c
896 1118 948 1100 999 1077 c

ce} _d
/d{1300 0 113 -29 1114 1556 sc
930 950 m
930 1556 l
1114 1556 l
1114 0 l
930 0 l
930 168 l
891 101 842 52 783 19 c
724 -13 654 -29 571 -29 c
436 -29 325 25 240 133 c
155 241 113 383 113 559 c
113 735 155 877 240 985 c
325 1093 436 1147 571 1147 c
654 1147 724 1131 783 1098 c
842 1066 891 1017 930 950 c

303 559 m
303 424 331 317 386 240 c
442 163 519 125 616 125 c
713 125 790 163 846 240 c
902 317 930 424 930 559 c
930 694 902 800 846 877 c
790 954 713 993 616 993 c
519 993 442 954 386 877 c
331 800 303 694 303 559 c

ce} _d
/e{1260 0 113 -29 1151 1147 sc
1151 606 m
1151 516 l
305 516 l
313 389 351 293 419 226 c
488 160 583 127 705 127 c
776 127 844 136 910 153 c
977 170 1043 196 1108 231 c
1108 57 l
1042 29 974 8 905 -7 c
836 -22 765 -29 694 -29 c
515 -29 374 23 269 127 c
165 231 113 372 113 549 c
113 732 162 878 261 985 c
360 1093 494 1147 662 1147 c
813 1147 932 1098 1019 1001 c
1107 904 1151 773 1151 606 c

967 660 m
966 761 937 841 882 901 c
827 961 755 991 664 991 c
561 991 479 962 417 904 c
356 846 320 764 311 659 c
967 660 l

ce} _d
/h{1298 0 186 0 1124 1556 sc
1124 676 m
1124 0 l
940 0 l
940 670 l
940 776 919 855 878 908 c
837 961 775 987 692 987 c
593 987 514 955 457 892 c
400 829 371 742 371 633 c
371 0 l
186 0 l
186 1556 l
371 1556 l
371 946 l
415 1013 467 1064 526 1097 c
586 1130 655 1147 733 1147 c
862 1147 959 1107 1025 1027 c
1091 948 1124 831 1124 676 c

ce} _d
/i{569 0 193 0 377 1556 sc
193 1120 m
377 1120 l
377 0 l
193 0 l
193 1120 l

193 1556 m
377 1556 l
377 1323 l
193 1323 l
193 1556 l

ce} _d
/l{569 0 193 0 377 1556 sc
193 1556 m
377 1556 l
377 0 l
193 0 l
193 1556 l

ce} _d
/m{1995 0 186 0 1821 1147 sc
1065 905 m
1111 988 1166 1049 1230 1088 c
1294 1127 1369 1147 1456 1147 c
1573 1147 1663 1106 1726 1024 c
1789 943 1821 827 1821 676 c
1821 0 l
1636 0 l
1636 670 l
1636 777 1617 857 1579 909 c
1541 961 1483 987 1405 987 c
1310 987 1234 955 1179 892 c
1124 829 1096 742 1096 633 c
1096 0 l
911 0 l
911 670 l
911 778 892 858 854 909 c
816 961 757 987 678 987 c
584 987 509 955 454 891 c
399 828 371 742 371 633 c
371 0 l
186 0 l
186 1120 l
371 1120 l
371 946 l
413 1015 463 1065 522 1098 c
581 1131 650 1147 731 1147 c
812 1147 881 1126 938 1085 c
995 1044 1038 984 1065 905 c

ce} _d
/n{1298 0 186 0 1124 1147 sc
1124 676 m
1124 0 l
940 0 l
940 670 l
940 776 919 855 878 908 c
837 961 775 987 692 987 c
593 987 514 955 457 892 c
400 829 371 742 371 633 c
371 0 l
186 0 l
186 1120 l
371 1120 l
371 946 l
415 1013 467 1064 526 1097 c
586 1130 655 1147 733 1147 c
862 1147 959 1107 1025 1027 c
1091 948 1124 831 1124 676 c

ce} _d
/o{1253 0 113 -29 1141 1147 sc
627 991 m
528 991 450 952 393 875 c
336 798 307 693 307 559 c
307 425 335 319 392 242 c
449 165 528 127 627 127 c
725 127 803 166 860 243 c
917 320 946 426 946 559 c
946 692 917 797 860 874 c
803 952 725 991 627 991 c

627 1147 m
787 1147 913 1095 1004 991 c
1095 887 1141 743 1141 559 c
1141 376 1095 232 1004 127 c
913 23 787 -29 627 -29 c
466 -29 340 23 249 127 c
158 232 113 376 113 559 c
113 743 158 887 249 991 c
340 1095 466 1147 627 1147 c

ce} _d
/p{1300 0 186 -426 1188 1147 sc
371 168 m
371 -426 l
186 -426 l
186 1120 l
371 1120 l
371 950 l
410 1017 458 1066 517 1098 c
576 1131 647 1147 729 1147 c
865 1147 975 1093 1060 985 c
1145 877 1188 735 1188 559 c
1188 383 1145 241 1060 133 c
975 25 865 -29 729 -29 c
647 -29 576 -13 517 19 c
458 52 410 101 371 168 c

997 559 m
997 694 969 800 913 877 c
858 954 781 993 684 993 c
587 993 510 954 454 877 c
399 800 371 694 371 559 c
371 424 399 317 454 240 c
510 163 587 125 684 125 c
781 125 858 163 913 240 c
969 317 997 424 997 559 c

ce} _d
/r{842 0 186 0 842 1147 sc
842 948 m
821 960 799 969 774 974 c
750 980 723 983 694 983 c
590 983 510 949 454 881 c
399 814 371 717 371 590 c
371 0 l
186 0 l
186 1120 l
371 1120 l
371 946 l
410 1014 460 1064 522 1097 c
584 1130 659 1147 748 1147 c
761 1147 775 1146 790 1144 c
805 1143 822 1140 841 1137 c
842 948 l

ce} _d
/s{1067 0 111 -29 967 1147 sc
907 1087 m
907 913 l
855 940 801 960 745 973 c
689 986 631 993 571 993 c
480 993 411 979 365 951 c
320 923 297 881 297 825 c
297 782 313 749 346 724 c
379 700 444 677 543 655 c
606 641 l
737 613 829 573 884 522 c
939 471 967 400 967 309 c
967 205 926 123 843 62 c
761 1 648 -29 504 -29 c
444 -29 381 -23 316 -11 c
251 0 183 18 111 41 c
111 231 l
179 196 246 169 312 151 c
378 134 443 125 508 125 c
595 125 661 140 708 169 c
755 199 778 241 778 295 c
778 345 761 383 727 410 c
694 437 620 462 506 487 c
442 502 l
328 526 246 563 195 612 c
144 662 119 730 119 817 c
119 922 156 1004 231 1061 c
306 1118 412 1147 549 1147 c
617 1147 681 1142 741 1132 c
801 1122 856 1107 907 1087 c

ce} _d
/t{803 0 55 0 754 1438 sc
375 1438 m
375 1120 l
754 1120 l
754 977 l
375 977 l
375 369 l
375 278 387 219 412 193 c
437 167 488 154 565 154 c
754 154 l
754 0 l
565 0 l
423 0 325 26 271 79 c
217 132 190 229 190 369 c
190 977 l
55 977 l
55 1120 l
190 1120 l
190 1438 l
375 1438 l

ce} _d
/u{1298 0 174 -29 1112 1147 sc
174 442 m
174 1120 l
358 1120 l
358 449 l
358 343 379 263 420 210 c
461 157 523 131 606 131 c
705 131 784 163 841 226 c
899 289 928 376 928 485 c
928 1120 l
1112 1120 l
1112 0 l
928 0 l
928 172 l
883 104 831 53 772 20 c
713 -13 645 -29 567 -29 c
438 -29 341 11 274 91 c
207 171 174 288 174 442 c

637 1147 m
637 1147 l

ce} _d
/x{1212 0 59 0 1145 1120 sc
1124 1120 m
719 575 l
1145 0 l
928 0 l
602 440 l
276 0 l
59 0 l
494 586 l
96 1120 l
313 1120 l
610 721 l
907 1120 l
1124 1120 l

ce} _d
/z{1075 0 88 0 987 1120 sc
113 1120 m
987 1120 l
987 952 l
295 147 l
987 147 l
987 0 l
88 0 l
88 168 l
780 973 l
113 973 l
113 1120 l

ce} _d
end readonly def

/BuildGlyph {
 exch begin
 CharStrings exch
 2 copy known not {pop /.notdef} if
 true 3 1 roll get exec
 end
} _d

/BuildChar {
 1 index /Encoding get exch get
 1 index /BuildGlyph get exec
} _d

FontName currentdict end definefont pop
end
%%EndProlog
mpldict begin
-510.627 -21.682 translate
1633.253 835.364 0 0 clipbox
gsave
0 0 m
1633.253125 0 l
1633.253125 835.36375 l
0 835.36375 l
cl
1.000 setgray
fill
grestore
gsave
85.41875 359.805 m
704.19375 359.805 l
704.19375 789.445 l
85.41875 789.445 l
cl
1.000 setgray
fill
grestore
2.000 setlinewidth
1 setlinejoin
2 setlinecap
[] 0 setdash
0.690 setgray
gsave
618.775 429.64 85.419 359.805 clipbox
85.41875 359.805 m
85.41875 789.445 l
stroke
grestore
0.800 setlinewidth
0 setlinecap
0.000 setgray
gsave
/o {
gsave
newpath
translate
0.8 setlinewidth
1 setlinejoin

0 setlinecap

0 0 m
0 -3.5 l

gsave
0.000 setgray
fill
grestore
stroke
grestore
} bind def
85.4188 359.805 o
grestore
/DejaVuSans 30.000 selectfont
gsave

75.871875 330.008125 translate
0.000000 rotate
0.000000 0 m /zero glyphshow
grestore
2.000 setlinewidth
2 setlinecap
0.690 setgray
gsave
618.775 429.64 85.419 359.805 clipbox
209.17375 359.805 m
209.17375 789.445 l
stroke
grestore
0.800 setlinewidth
0 setlinecap
0.000 setgray
gsave
/o {
gsave
newpath
translate
0.8 setlinewidth
1 setlinejoin

0 setlinecap

0 0 m
0 -3.5 l

gsave
0.000 setgray
fill
grestore
stroke
grestore
} bind def
209.174 359.805 o
grestore
gsave

170.986250 330.008125 translate
0.000000 rotate
0.000000 0 m /two glyphshow
19.086914 0 m /zero glyphshow
38.173828 0 m /zero glyphshow
57.260742 0 m /zero glyphshow
grestore
2.000 setlinewidth
2 setlinecap
0.690 setgray
gsave
618.775 429.64 85.419 359.805 clipbox
332.92875 359.805 m
332.92875 789.445 l
stroke
grestore
0.800 setlinewidth
0 setlinecap
0.000 setgray
gsave
/o {
gsave
newpath
translate
0.8 setlinewidth
1 setlinejoin

0 setlinecap

0 0 m
0 -3.5 l

gsave
0.000 setgray
fill
grestore
stroke
grestore
} bind def
332.929 359.805 o
grestore
gsave

294.741250 330.008125 translate
0.000000 rotate
0.000000 0 m /four glyphshow
19.086914 0 m /zero glyphshow
38.173828 0 m /zero glyphshow
57.260742 0 m /zero glyphshow
grestore
2.000 setlinewidth
2 setlinecap
0.690 setgray
gsave
618.775 429.64 85.419 359.805 clipbox
456.68375 359.805 m
456.68375 789.445 l
stroke
grestore
0.800 setlinewidth
0 setlinecap
0.000 setgray
gsave
/o {
gsave
newpath
translate
0.8 setlinewidth
1 setlinejoin

0 setlinecap

0 0 m
0 -3.5 l

gsave
0.000 setgray
fill
grestore
stroke
grestore
} bind def
456.684 359.805 o
grestore
gsave

418.496250 330.008125 translate
0.000000 rotate
0.000000 0 m /six glyphshow
19.086914 0 m /zero glyphshow
38.173828 0 m /zero glyphshow
57.260742 0 m /zero glyphshow
grestore
2.000 setlinewidth
2 setlinecap
0.690 setgray
gsave
618.775 429.64 85.419 359.805 clipbox
580.43875 359.805 m
580.43875 789.445 l
stroke
grestore
0.800 setlinewidth
0 setlinecap
0.000 setgray
gsave
/o {
gsave
newpath
translate
0.8 setlinewidth
1 setlinejoin

0 setlinecap

0 0 m
0 -3.5 l

gsave
0.000 setgray
fill
grestore
stroke
grestore
} bind def
580.439 359.805 o
grestore
gsave

542.251250 330.008125 translate
0.000000 rotate
0.000000 0 m /eight glyphshow
19.086914 0 m /zero glyphshow
38.173828 0 m /zero glyphshow
57.260742 0 m /zero glyphshow
grestore
2.000 setlinewidth
2 setlinecap
0.690 setgray
gsave
618.775 429.64 85.419 359.805 clipbox
704.19375 359.805 m
704.19375 789.445 l
stroke
grestore
0.800 setlinewidth
0 setlinecap
0.000 setgray
gsave
/o {
gsave
newpath
translate
0.8 setlinewidth
1 setlinejoin

0 setlinecap

0 0 m
0 -3.5 l

gsave
0.000 setgray
fill
grestore
stroke
grestore
} bind def
704.194 359.805 o
grestore
gsave

656.459375 330.008125 translate
0.000000 rotate
0.000000 0 m /one glyphshow
19.086914 0 m /zero glyphshow
38.173828 0 m /zero glyphshow
57.260742 0 m /zero glyphshow
76.347656 0 m /zero glyphshow
grestore
gsave

271.728125 296.976875 translate
0.000000 rotate
0.000000 0 m /numbersign glyphshow
25.136719 0 m /space glyphshow
34.672852 0 m /e glyphshow
52.629883 0 m /x glyphshow
70.383789 0 m /p glyphshow
89.426758 0 m /l glyphshow
97.761719 0 m /i glyphshow
106.096680 0 m /c glyphshow
122.590820 0 m /i glyphshow
130.925781 0 m /t glyphshow
142.688477 0 m /space glyphshow
152.224609 0 m /t glyphshow
163.987305 0 m /r glyphshow
176.321289 0 m /i glyphshow
184.656250 0 m /p glyphshow
203.699219 0 m /l glyphshow
212.034180 0 m /e glyphshow
230.491211 0 m /s glyphshow
grestore
2.000 setlinewidth
2 setlinecap
0.690 setgray
gsave
618.775 429.64 85.419 359.805 clipbox
85.41875 359.805 m
704.19375 359.805 l
stroke
grestore
0.800 setlinewidth
0 setlinecap
0.000 setgray
gsave
/o {
gsave
newpath
translate
0.8 setlinewidth
1 setlinejoin

0 setlinecap

-0 0 m
-3.5 0 l

gsave
0.000 setgray
fill
grestore
stroke
grestore
} bind def
85.4188 359.805 o
grestore
gsave

59.325000 348.406563 translate
0.000000 rotate
0.000000 0 m /zero glyphshow
grestore
2.000 setlinewidth
2 setlinecap
0.690 setgray
gsave
618.775 429.64 85.419 359.805 clipbox
85.41875 437.900775 m
704.19375 437.900775 l
stroke
grestore
0.800 setlinewidth
0 setlinecap
0.000 setgray
gsave
/o {
gsave
newpath
translate
0.8 setlinewidth
1 setlinejoin

0 setlinecap

-0 0 m
-3.5 0 l

gsave
0.000 setgray
fill
grestore
stroke
grestore
} bind def
85.4188 437.901 o
grestore
gsave

59.325000 426.502337 translate
0.000000 rotate
0.000000 0 m /five glyphshow
grestore
2.000 setlinewidth
2 setlinecap
0.690 setgray
gsave
618.775 429.64 85.419 359.805 clipbox
85.41875 515.99655 m
704.19375 515.99655 l
stroke
grestore
0.800 setlinewidth
0 setlinecap
0.000 setgray
gsave
/o {
gsave
newpath
translate
0.8 setlinewidth
1 setlinejoin

0 setlinecap

-0 0 m
-3.5 0 l

gsave
0.000 setgray
fill
grestore
stroke
grestore
} bind def
85.4188 515.997 o
grestore
gsave

40.231250 504.598112 translate
0.000000 rotate
0.000000 0 m /one glyphshow
19.086914 0 m /zero glyphshow
grestore
2.000 setlinewidth
2 setlinecap
0.690 setgray
gsave
618.775 429.64 85.419 359.805 clipbox
85.41875 594.092324 m
704.19375 594.092324 l
stroke
grestore
0.800 setlinewidth
0 setlinecap
0.000 setgray
gsave
/o {
gsave
newpath
translate
0.8 setlinewidth
1 setlinejoin

0 setlinecap

-0 0 m
-3.5 0 l

gsave
0.000 setgray
fill
grestore
stroke
grestore
} bind def
85.4188 594.092 o
grestore
gsave

40.231250 582.693887 translate
0.000000 rotate
0.000000 0 m /one glyphshow
19.086914 0 m /five glyphshow
grestore
2.000 setlinewidth
2 setlinecap
0.690 setgray
gsave
618.775 429.64 85.419 359.805 clipbox
85.41875 672.188099 m
704.19375 672.188099 l
stroke
grestore
0.800 setlinewidth
0 setlinecap
0.000 setgray
gsave
/o {
gsave
newpath
translate
0.8 setlinewidth
1 setlinejoin

0 setlinecap

-0 0 m
-3.5 0 l

gsave
0.000 setgray
fill
grestore
stroke
grestore
} bind def
85.4188 672.188 o
grestore
gsave

40.231250 660.789662 translate
0.000000 rotate
0.000000 0 m /two glyphshow
19.086914 0 m /zero glyphshow
grestore
2.000 setlinewidth
2 setlinecap
0.690 setgray
gsave
618.775 429.64 85.419 359.805 clipbox
85.41875 750.283874 m
704.19375 750.283874 l
stroke
grestore
0.800 setlinewidth
0 setlinecap
0.000 setgray
gsave
/o {
gsave
newpath
translate
0.8 setlinewidth
1 setlinejoin

0 setlinecap

-0 0 m
-3.5 0 l

gsave
0.000 setgray
fill
grestore
stroke
grestore
} bind def
85.4188 750.284 o
grestore
gsave

40.231250 738.885436 translate
0.000000 rotate
0.000000 0 m /two glyphshow
19.086914 0 m /five glyphshow
grestore
gsave

29.996875 505.453125 translate
90.000000 rotate
0.000000 0 m /R glyphshow
20.844727 0 m /S glyphshow
39.887695 0 m /S glyphshow
58.930664 0 m /space glyphshow
68.466797 0 m /parenleft glyphshow
80.170898 0 m /M glyphshow
106.054688 0 m /B glyphshow
126.635742 0 m /parenright glyphshow
grestore
4.000 setlinewidth
2 setlinecap
1.000 0.000 0.000 setrgbcolor
gsave
618.775 429.64 85.419 359.805 clipbox
85.480628 395.10429 m
91.6065 397.603355 l
97.79425 399.883752 l
103.982 403.226251 l
110.16975 405.178645 l
116.3575 407.521518 l
131.826875 413.472416 l
147.29625 420.563513 l
240.1125 456.362616 l
394.80625 506.531342 l
549.5 558.668081 l
704.19375 600.605512 l
stroke
grestore
0 setlinecap
[25.6 6.4 4 6.4] 0 setdash
1.000 0.647 0.000 setrgbcolor
gsave
618.775 429.64 85.419 359.805 clipbox
85.480628 397.415925 m
91.6065 402.070433 l
97.79425 405.584743 l
103.982 411.55126 l
110.16975 414.784425 l
116.3575 419.626363 l
131.826875 430.059959 l
147.29625 442.508425 l
240.1125 504.34466 l
394.80625 595.607382 l
549.5 691.0248 l
704.19375 770.666871 l
stroke
grestore
[14.8 6.4] 0 setdash
0.000 0.000 1.000 setrgbcolor
gsave
618.775 429.64 85.419 359.805 clipbox
85.480628 395.526007 m
91.6065 398.274979 l
97.79425 400.602233 l
103.982 404.553879 l
110.16975 407.099801 l
116.3575 409.801915 l
131.826875 416.596247 l
147.29625 424.515159 l
240.1125 465.390487 l
394.80625 524.11851 l
549.5 585.080072 l
704.19375 635.264417 l
stroke
grestore
[4 6.6] 0 setdash
0.000 0.502 0.000 setrgbcolor
gsave
618.775 429.64 85.419 359.805 clipbox
85.480628 395.947725 m
91.6065 398.696696 l
97.79425 401.695574 l
103.982 405.256741 l
110.16975 407.537138 l
116.3575 410.81716 l
131.826875 418.158163 l
147.29625 426.514411 l
240.1125 468.795463 l
394.80625 529.460261 l
549.5 592.639743 l
704.19375 644.323527 l
stroke
grestore
0.800 setlinewidth
0 setlinejoin
2 setlinecap
[] 0 setdash
0.000 setgray
gsave
85.41875 359.805 m
85.41875 789.445 l
stroke
grestore
gsave
704.19375 359.805 m
704.19375 789.445 l
stroke
grestore
gsave
85.41875 359.805 m
704.19375 359.805 l
stroke
grestore
gsave
85.41875 789.445 m
704.19375 789.445 l
stroke
grestore
/DejaVuSans 40.000 selectfont
gsave

225.907812 797.773125 translate
0.000000 rotate
0.000000 0 m /R glyphshow
26.042969 0 m /e glyphshow
50.652344 0 m /s glyphshow
71.492188 0 m /i glyphshow
82.605469 0 m /d glyphshow
107.996094 0 m /e glyphshow
132.605469 0 m /n glyphshow
157.957031 0 m /t glyphshow
173.640625 0 m /space glyphshow
186.355469 0 m /s glyphshow
207.195312 0 m /e glyphshow
231.804688 0 m /t glyphshow
247.488281 0 m /space glyphshow
260.203125 0 m /s glyphshow
281.042969 0 m /i glyphshow
292.156250 0 m /z glyphshow
313.152344 0 m /e glyphshow
grestore
gsave
959.54375 359.805 m
1578.31875 359.805 l
1578.31875 789.445 l
959.54375 789.445 l
cl
1.000 setgray
fill
grestore
2.000 setlinewidth
1 setlinejoin
0.690 setgray
gsave
618.775 429.64 959.544 359.805 clipbox
959.54375 359.805 m
959.54375 789.445 l
stroke
grestore
0.800 setlinewidth
0 setlinecap
0.000 setgray
gsave
/o {
gsave
newpath
translate
0.8 setlinewidth
1 setlinejoin

0 setlinecap

0 0 m
0 -3.5 l

gsave
0.000 setgray
fill
grestore
stroke
grestore
} bind def
959.544 359.805 o
grestore
/DejaVuSans 30.000 selectfont
gsave

949.996875 330.008125 translate
0.000000 rotate
0.000000 0 m /zero glyphshow
grestore
2.000 setlinewidth
2 setlinecap
0.690 setgray
gsave
618.775 429.64 959.544 359.805 clipbox
1083.29875 359.805 m
1083.29875 789.445 l
stroke
grestore
0.800 setlinewidth
0 setlinecap
0.000 setgray
gsave
/o {
gsave
newpath
translate
0.8 setlinewidth
1 setlinejoin

0 setlinecap

0 0 m
0 -3.5 l

gsave
0.000 setgray
fill
grestore
stroke
grestore
} bind def
1083.3 359.805 o
grestore
gsave

1045.111250 330.008125 translate
0.000000 rotate
0.000000 0 m /two glyphshow
19.086914 0 m /zero glyphshow
38.173828 0 m /zero glyphshow
57.260742 0 m /zero glyphshow
grestore
2.000 setlinewidth
2 setlinecap
0.690 setgray
gsave
618.775 429.64 959.544 359.805 clipbox
1207.05375 359.805 m
1207.05375 789.445 l
stroke
grestore
0.800 setlinewidth
0 setlinecap
0.000 setgray
gsave
/o {
gsave
newpath
translate
0.8 setlinewidth
1 setlinejoin

0 setlinecap

0 0 m
0 -3.5 l

gsave
0.000 setgray
fill
grestore
stroke
grestore
} bind def
1207.05 359.805 o
grestore
gsave

1168.866250 330.008125 translate
0.000000 rotate
0.000000 0 m /four glyphshow
19.086914 0 m /zero glyphshow
38.173828 0 m /zero glyphshow
57.260742 0 m /zero glyphshow
grestore
2.000 setlinewidth
2 setlinecap
0.690 setgray
gsave
618.775 429.64 959.544 359.805 clipbox
1330.80875 359.805 m
1330.80875 789.445 l
stroke
grestore
0.800 setlinewidth
0 setlinecap
0.000 setgray
gsave
/o {
gsave
newpath
translate
0.8 setlinewidth
1 setlinejoin

0 setlinecap

0 0 m
0 -3.5 l

gsave
0.000 setgray
fill
grestore
stroke
grestore
} bind def
1330.81 359.805 o
grestore
gsave

1292.621250 330.008125 translate
0.000000 rotate
0.000000 0 m /six glyphshow
19.086914 0 m /zero glyphshow
38.173828 0 m /zero glyphshow
57.260742 0 m /zero glyphshow
grestore
2.000 setlinewidth
2 setlinecap
0.690 setgray
gsave
618.775 429.64 959.544 359.805 clipbox
1454.56375 359.805 m
1454.56375 789.445 l
stroke
grestore
0.800 setlinewidth
0 setlinecap
0.000 setgray
gsave
/o {
gsave
newpath
translate
0.8 setlinewidth
1 setlinejoin

0 setlinecap

0 0 m
0 -3.5 l

gsave
0.000 setgray
fill
grestore
stroke
grestore
} bind def
1454.56 359.805 o
grestore
gsave

1416.376250 330.008125 translate
0.000000 rotate
0.000000 0 m /eight glyphshow
19.086914 0 m /zero glyphshow
38.173828 0 m /zero glyphshow
57.260742 0 m /zero glyphshow
grestore
2.000 setlinewidth
2 setlinecap
0.690 setgray
gsave
618.775 429.64 959.544 359.805 clipbox
1578.31875 359.805 m
1578.31875 789.445 l
stroke
grestore
0.800 setlinewidth
0 setlinecap
0.000 setgray
gsave
/o {
gsave
newpath
translate
0.8 setlinewidth
1 setlinejoin

0 setlinecap

0 0 m
0 -3.5 l

gsave
0.000 setgray
fill
grestore
stroke
grestore
} bind def
1578.32 359.805 o
grestore
gsave

1530.584375 330.008125 translate
0.000000 rotate
0.000000 0 m /one glyphshow
19.086914 0 m /zero glyphshow
38.173828 0 m /zero glyphshow
57.260742 0 m /zero glyphshow
76.347656 0 m /zero glyphshow
grestore
gsave

1145.853125 296.976875 translate
0.000000 rotate
0.000000 0 m /numbersign glyphshow
25.136719 0 m /space glyphshow
34.672852 0 m /e glyphshow
52.629883 0 m /x glyphshow
70.383789 0 m /p glyphshow
89.426758 0 m /l glyphshow
97.761719 0 m /i glyphshow
106.096680 0 m /c glyphshow
122.590820 0 m /i glyphshow
130.925781 0 m /t glyphshow
142.688477 0 m /space glyphshow
152.224609 0 m /t glyphshow
163.987305 0 m /r glyphshow
176.321289 0 m /i glyphshow
184.656250 0 m /p glyphshow
203.699219 0 m /l glyphshow
212.034180 0 m /e glyphshow
230.491211 0 m /s glyphshow
grestore
2.000 setlinewidth
2 setlinecap
0.690 setgray
gsave
618.775 429.64 959.544 359.805 clipbox
959.54375 359.805 m
1578.31875 359.805 l
stroke
grestore
0.800 setlinewidth
0 setlinecap
0.000 setgray
gsave
/o {
gsave
newpath
translate
0.8 setlinewidth
1 setlinejoin

0 setlinecap

-0 0 m
-3.5 0 l

gsave
0.000 setgray
fill
grestore
stroke
grestore
} bind def
959.544 359.805 o
grestore
gsave

933.450000 348.406563 translate
0.000000 rotate
0.000000 0 m /zero glyphshow
grestore
2.000 setlinewidth
2 setlinecap
0.690 setgray
gsave
618.775 429.64 959.544 359.805 clipbox
959.54375 473.978343 m
1578.31875 473.978343 l
stroke
grestore
0.800 setlinewidth
0 setlinecap
0.000 setgray
gsave
/o {
gsave
newpath
translate
0.8 setlinewidth
1 setlinejoin

0 setlinecap

-0 0 m
-3.5 0 l

gsave
0.000 setgray
fill
grestore
stroke
grestore
} bind def
959.544 473.978 o
grestore
gsave

876.168750 462.579906 translate
0.000000 rotate
0.000000 0 m /one glyphshow
19.086914 0 m /zero glyphshow
38.173828 0 m /zero glyphshow
57.260742 0 m /zero glyphshow
grestore
2.000 setlinewidth
2 setlinecap
0.690 setgray
gsave
618.775 429.64 959.544 359.805 clipbox
959.54375 588.151687 m
1578.31875 588.151687 l
stroke
grestore
0.800 setlinewidth
0 setlinecap
0.000 setgray
gsave
/o {
gsave
newpath
translate
0.8 setlinewidth
1 setlinejoin

0 setlinecap

-0 0 m
-3.5 0 l

gsave
0.000 setgray
fill
grestore
stroke
grestore
} bind def
959.544 588.152 o
grestore
gsave

876.168750 576.753249 translate
0.000000 rotate
0.000000 0 m /two glyphshow
19.086914 0 m /zero glyphshow
38.173828 0 m /zero glyphshow
57.260742 0 m /zero glyphshow
grestore
2.000 setlinewidth
2 setlinecap
0.690 setgray
gsave
618.775 429.64 959.544 359.805 clipbox
959.54375 702.32503 m
1578.31875 702.32503 l
stroke
grestore
0.800 setlinewidth
0 setlinecap
0.000 setgray
gsave
/o {
gsave
newpath
translate
0.8 setlinewidth
1 setlinejoin

0 setlinecap

-0 0 m
-3.5 0 l

gsave
0.000 setgray
fill
grestore
stroke
grestore
} bind def
959.544 702.325 o
grestore
gsave

876.168750 690.926593 translate
0.000000 rotate
0.000000 0 m /three glyphshow
19.086914 0 m /zero glyphshow
38.173828 0 m /zero glyphshow
57.260742 0 m /zero glyphshow
grestore
gsave

865.934375 423.437500 translate
90.000000 rotate
0.000000 0 m /E glyphshow
18.955078 0 m /x glyphshow
35.833984 0 m /e glyphshow
54.291016 0 m /c glyphshow
70.785156 0 m /u glyphshow
89.798828 0 m /t glyphshow
101.561523 0 m /i glyphshow
109.896484 0 m /o glyphshow
128.250977 0 m /n glyphshow
147.264648 0 m /space glyphshow
156.800781 0 m /t glyphshow
168.563477 0 m /i glyphshow
176.898438 0 m /m glyphshow
206.122070 0 m /e glyphshow
224.579102 0 m /space glyphshow
234.115234 0 m /parenleft glyphshow
245.819336 0 m /m glyphshow
275.042969 0 m /s glyphshow
290.672852 0 m /parenright glyphshow
grestore
4.000 setlinewidth
2 setlinecap
1.000 0.000 0.000 setrgbcolor
gsave
618.775 429.64 959.544 359.805 clipbox
959.605627 360.14752 m
965.7315 360.604213 l
971.91925 360.946733 l
978.107 361.745947 l
984.29475 362.088467 l
990.4825 362.88768 l
1005.951875 364.9428 l
1021.42125 367.911307 l
1114.2375 397.71055 l
1268.93125 472.83661 l
1423.625 603.907608 l
1578.31875 743.884127 l
stroke
grestore
0 setlinecap
[25.6 6.4 4 6.4] 0 setdash
1.000 0.647 0.000 setrgbcolor
gsave
618.775 429.64 959.544 359.805 clipbox
959.605627 360.14752 m
965.7315 360.604213 l
971.91925 360.946733 l
978.107 361.745947 l
984.29475 362.20264 l
990.4825 363.001854 l
1005.951875 365.056974 l
1021.42125 368.253827 l
1114.2375 396.911337 l
1268.93125 472.15157 l
1423.625 599.112328 l
1578.31875 735.77782 l
stroke
grestore
[14.8 6.4] 0 setdash
0.000 0.000 1.000 setrgbcolor
gsave
618.775 429.64 959.544 359.805 clipbox
959.605627 360.14752 m
965.7315 360.49004 l
971.91925 360.946733 l
978.107 361.631773 l
984.29475 362.088467 l
990.4825 362.88768 l
1005.951875 364.9428 l
1021.42125 368.139654 l
1114.2375 395.883777 l
1268.93125 468.269676 l
1423.625 590.6635 l
1578.31875 720.706939 l
stroke
grestore
[4 6.6] 0 setdash
0.000 0.502 0.000 setrgbcolor
gsave
618.775 429.64 959.544 359.805 clipbox
959.605627 360.261693 m
965.7315 360.604213 l
971.91925 361.060907 l
978.107 361.86012 l
984.29475 362.316814 l
990.4825 363.116027 l
1005.951875 365.399494 l
1021.42125 368.596347 l
1114.2375 399.879844 l
1268.93125 482.541344 l
1423.625 622.175343 l
1578.31875 769.002263 l
stroke
grestore
0.800 setlinewidth
0 setlinejoin
2 setlinecap
[] 0 setdash
0.000 setgray
gsave
959.54375 359.805 m
959.54375 789.445 l
stroke
grestore
gsave
1578.31875 359.805 m
1578.31875 789.445 l
stroke
grestore
gsave
959.54375 359.805 m
1578.31875 359.805 l
stroke
grestore
gsave
959.54375 789.445 m
1578.31875 789.445 l
stroke
grestore
/DejaVuSans 40.000 selectfont
gsave

1119.235937 797.773125 translate
0.000000 rotate
0.000000 0 m /E glyphshow
25.273438 0 m /x glyphshow
47.695312 0 m /e glyphshow
72.304688 0 m /c glyphshow
94.296875 0 m /u glyphshow
119.648438 0 m /t glyphshow
135.332031 0 m /i glyphshow
146.445312 0 m /o glyphshow
170.917969 0 m /n glyphshow
196.269531 0 m /space glyphshow
208.984375 0 m /t glyphshow
224.667969 0 m /i glyphshow
235.781250 0 m /m glyphshow
274.746094 0 m /e glyphshow
grestore
1.000 setlinewidth
0 setlinecap
0.800 setgray
gsave
673.464063 7.2 m
958.573438 7.2 l
962.573438 7.2 964.573438 9.2 964.573438 13.2 c
964.573438 186.325 l
964.573438 190.325 962.573438 192.325 958.573438 192.325 c
673.464063 192.325 l
669.464063 192.325 667.464063 190.325 667.464063 186.325 c
667.464063 13.2 l
667.464063 9.2 669.464063 7.2 673.464063 7.2 c
cl
gsave
1.000 setgray
fill
grestore
stroke
grestore
4.000 setlinewidth
1 setlinejoin
2 setlinecap
1.000 0.000 0.000 setrgbcolor
gsave
679.464063 168.028125 m
709.464063 168.028125 l
739.464063 168.028125 l
stroke
grestore
0.000 setgray
/DejaVuSans 30.000 selectfont
gsave

763.464063 157.528125 translate
0.000000 rotate
0.000000 0 m /L glyphshow
16.713867 0 m /i glyphshow
25.048828 0 m /R glyphshow
44.518555 0 m /o glyphshow
62.873047 0 m /T glyphshow
grestore
0 setlinecap
[25.6 6.4 4 6.4] 0 setdash
1.000 0.647 0.000 setrgbcolor
gsave
679.464063 123.996875 m
709.464063 123.996875 l
739.464063 123.996875 l
stroke
grestore
0.000 setgray
gsave

763.464063 113.496875 translate
0.000000 rotate
0.000000 0 m /R glyphshow
20.844727 0 m /E glyphshow
39.799805 0 m /T glyphshow
58.125000 0 m /E glyphshow
grestore
[14.8 6.4] 0 setdash
0.000 0.000 1.000 setrgbcolor
gsave
679.464063 79.965625 m
709.464063 79.965625 l
739.464063 79.965625 l
stroke
grestore
0.000 setgray
gsave

763.464063 69.465625 translate
0.000000 rotate
0.000000 0 m /R glyphshow
20.844727 0 m /E glyphshow
39.799805 0 m /T glyphshow
58.125000 0 m /E glyphshow
77.080078 0 m /plus glyphshow
102.216797 0 m /a glyphshow
120.600586 0 m /l glyphshow
128.935547 0 m /p glyphshow
147.978516 0 m /h glyphshow
166.992188 0 m /a glyphshow
grestore
[4 6.6] 0 setdash
0.000 0.502 0.000 setrgbcolor
gsave
679.464063 35.934375 m
709.464063 35.934375 l
739.464063 35.934375 l
stroke
grestore
0.000 setgray
gsave

763.464063 25.434375 translate
0.000000 rotate
0.000000 0 m /R glyphshow
20.844727 0 m /E glyphshow
39.799805 0 m /T glyphshow
58.125000 0 m /E glyphshow
77.080078 0 m /plus glyphshow
102.216797 0 m /t glyphshow
113.979492 0 m /e glyphshow
132.436523 0 m /r glyphshow
144.270508 0 m /m glyphshow
173.494141 0 m /s glyphshow
grestore

end
showpage
