real_time,user_time,sys_time,max_rss,max_vsz
48500,46557,0,3488,5152
44091,43177,3330,3368,5152
43426,43272,0,3428,5152
44188,43180,0,3372,5152
43798,43298,0,3504,5152
47138,46626,0,3504,5152
43228,43285,0,3412,5152
42888,43266,0,3484,5152
44007,43260,0,3484,5152
45638,43304,0,3480,5152
45700,46618,0,3372,5152
47129,49844,0,3372,5152
44599,43303,0,3408,5152
46207,46628,0,3500,5152
46958,46617,0,3372,5152
43933,43291,0,3500,5152
47007,46626,0,3376,5152
43890,43291,0,3428,5152
44533,43279,0,3492,5152
43561,43297,0,3376,5152
