real_time,user_time,sys_time,max_rss,max_vsz
11213,9969,0,2612,4484
11095,9990,0,2680,4484
10896,13315,0,2740,4484
10546,9979,0,2616,4484
9815,9990,0,2680,4484
9903,6624,3330,2704,4484
10273,9993,0,2744,4484
10300,9990,0,2712,4484
10371,9932,0,2744,4484
10205,9982,0,2676,4484
10275,9993,0,2740,4484
10021,9984,0,2744,4484
11474,13314,0,2700,4484
11242,9956,0,2728,4484
11193,9981,0,2728,4484
11523,13271,0,2740,4484
11177,9992,0,2740,4484
11442,9981,0,2648,4484
10416,9985,0,2700,4484
10589,9979,0,2724,4484
