real_time,user_time,sys_time,max_rss,max_vsz
16882,9987,3326,22932,224607756
16881,13313,3333,23124,224607756
18556,9976,6660,23116,224607756
17620,13305,3330,22852,224607756
15865,13306,3331,22984,224607756
16122,6659,9984,22964,224607756
17231,13308,3330,22932,224607756
16950,9971,6656,22936,224607756
16891,13297,3331,22932,224607756
17170,13319,0,23124,224607756
16766,13322,3329,22784,224607756
16921,16648,0,22936,224607756
16548,16655,0,22888,224607756
17128,9980,3327,22612,224607756
17310,16654,0,22780,224607756
18019,9950,3292,22612,224607756
16352,9979,6632,22912,224607756
16336,9957,6653,22616,224607756
16108,6622,9953,22928,224607756
16500,9988,3333,22996,224607756
