%!PS-Adobe-3.0 EPSF-3.0
%%Title: add-delete_plot_all.eps
%%Creator: Matplotlib v3.5.0, https://matplotlib.org/
%%CreationDate: Thu Dec  9 22:55:05 2021
%%Orientation: portrait
%%BoundingBox: -511 0 1124 792
%%HiResBoundingBox: -511.694034 0.333750 1123.694034 791.666250
%%EndComments
%%BeginProlog
/mpldict 11 dict def
mpldict begin
/_d { bind def } bind def
/m { moveto } _d
/l { lineto } _d
/r { rlineto } _d
/c { curveto } _d
/cl { closepath } _d
/ce { closepath eofill } _d
/box {
      m
      1 index 0 r
      0 exch r
      neg 0 r
      cl
    } _d
/clipbox {
      box
      clip
      newpath
    } _d
/sc { setcachedevice } _d
%!PS-Adobe-3.0 Resource-Font
%%Creator: Converted from TrueType to Type 3 by Matplotlib.
10 dict begin
/FontName /DejaVuSans def
/PaintType 0 def
/FontMatrix [0.00048828125 0 0 0.00048828125 0 0] def
/FontBBox [-2090 -948 3673 2524] def
/FontType 3 def
/Encoding [/space /numbersign /parenleft /parenright /zero /one /two /three /four /B /D /E /F /J /L /M /R /S /T /a /c /d /e /i /l /m /n /o /p /r /s /t /u /x /z] def
/CharStrings 36 dict dup begin
/.notdef 0 def
/space{651 0 0 0 0 0 sc
ce} _d
/numbersign{1716 0 158 0 1559 1470 sc
1047 901 m
756 901 l
672 567 l
965 567 l
1047 901 l

897 1470 m
793 1055 l
1085 1055 l
1190 1470 l
1350 1470 l
1247 1055 l
1559 1055 l
1559 901 l
1208 901 l
1126 567 l
1444 567 l
1444 414 l
1087 414 l
983 0 l
823 0 l
926 414 l
633 414 l
530 0 l
369 0 l
473 414 l
158 414 l
158 567 l
510 567 l
594 901 l
272 901 l
272 1055 l
633 1055 l
735 1470 l
897 1470 l

ce} _d
/parenleft{799 0 176 -270 635 1554 sc
635 1554 m
546 1401 479 1249 436 1099 c
393 949 371 797 371 643 c
371 489 393 336 436 185 c
480 34 546 -117 635 -270 c
475 -270 l
375 -113 300 41 250 192 c
201 343 176 494 176 643 c
176 792 201 941 250 1092 c
299 1243 374 1397 475 1554 c
635 1554 l

ce} _d
/parenright{799 0 164 -270 623 1554 sc
164 1554 m
324 1554 l
424 1397 499 1243 548 1092 c
598 941 623 792 623 643 c
623 494 598 343 548 192 c
499 41 424 -113 324 -270 c
164 -270 l
253 -117 319 34 362 185 c
406 336 428 489 428 643 c
428 797 406 949 362 1099 c
319 1249 253 1401 164 1554 c

ce} _d
/zero{1303 0 135 -29 1167 1520 sc
651 1360 m
547 1360 469 1309 416 1206 c
364 1104 338 950 338 745 c
338 540 364 387 416 284 c
469 182 547 131 651 131 c
756 131 834 182 886 284 c
939 387 965 540 965 745 c
965 950 939 1104 886 1206 c
834 1309 756 1360 651 1360 c

651 1520 m
818 1520 946 1454 1034 1321 c
1123 1189 1167 997 1167 745 c
1167 494 1123 302 1034 169 c
946 37 818 -29 651 -29 c
484 -29 356 37 267 169 c
179 302 135 494 135 745 c
135 997 179 1189 267 1321 c
356 1454 484 1520 651 1520 c

ce} _d
/one{1303 0 225 0 1114 1493 sc
254 170 m
584 170 l
584 1309 l
225 1237 l
225 1421 l
582 1493 l
784 1493 l
784 170 l
1114 170 l
1114 0 l
254 0 l
254 170 l

ce} _d
/two{1303 0 150 0 1098 1520 sc
393 170 m
1098 170 l
1098 0 l
150 0 l
150 170 l
227 249 331 356 463 489 c
596 623 679 709 713 748 c
778 821 823 882 848 932 c
874 983 887 1032 887 1081 c
887 1160 859 1225 803 1275 c
748 1325 675 1350 586 1350 c
523 1350 456 1339 385 1317 c
315 1295 240 1262 160 1217 c
160 1421 l
241 1454 317 1478 388 1495 c
459 1512 523 1520 582 1520 c
737 1520 860 1481 952 1404 c
1044 1327 1090 1223 1090 1094 c
1090 1033 1078 974 1055 919 c
1032 864 991 800 930 725 c
913 706 860 650 771 557 c
682 465 556 336 393 170 c

ce} _d
/three{1303 0 156 -29 1139 1520 sc
831 805 m
928 784 1003 741 1057 676 c
1112 611 1139 530 1139 434 c
1139 287 1088 173 987 92 c
886 11 742 -29 555 -29 c
492 -29 428 -23 361 -10 c
295 2 227 20 156 45 c
156 240 l
212 207 273 183 340 166 c
407 149 476 141 549 141 c
676 141 772 166 838 216 c
905 266 938 339 938 434 c
938 522 907 591 845 640 c
784 690 698 715 588 715 c
414 715 l
414 881 l
596 881 l
695 881 771 901 824 940 c
877 980 903 1037 903 1112 c
903 1189 876 1247 821 1288 c
767 1329 689 1350 588 1350 c
533 1350 473 1344 410 1332 c
347 1320 277 1301 201 1276 c
201 1456 l
278 1477 349 1493 416 1504 c
483 1515 547 1520 606 1520 c
759 1520 881 1485 970 1415 c
1059 1346 1104 1252 1104 1133 c
1104 1050 1080 980 1033 923 c
986 866 918 827 831 805 c

ce} _d
/four{1303 0 100 0 1188 1493 sc
774 1317 m
264 520 l
774 520 l
774 1317 l

721 1493 m
975 1493 l
975 520 l
1188 520 l
1188 352 l
975 352 l
975 0 l
774 0 l
774 352 l
100 352 l
100 547 l
721 1493 l

ce} _d
/B{1405 0 201 0 1260 1493 sc
403 713 m
403 166 l
727 166 l
836 166 916 188 968 233 c
1021 278 1047 347 1047 440 c
1047 533 1021 602 968 646 c
916 691 836 713 727 713 c
403 713 l

403 1327 m
403 877 l
702 877 l
801 877 874 895 922 932 c
971 969 995 1026 995 1102 c
995 1177 971 1234 922 1271 c
874 1308 801 1327 702 1327 c
403 1327 l

201 1493 m
717 1493 l
871 1493 990 1461 1073 1397 c
1156 1333 1198 1242 1198 1124 c
1198 1033 1177 960 1134 906 c
1091 852 1029 818 946 805 c
1045 784 1122 739 1177 671 c
1232 604 1260 519 1260 418 c
1260 285 1215 182 1124 109 c
1033 36 904 0 737 0 c
201 0 l
201 1493 l

ce} _d
/D{1577 0 201 0 1456 1493 sc
403 1327 m
403 166 l
647 166 l
853 166 1004 213 1099 306 c
1195 399 1243 547 1243 748 c
1243 948 1195 1094 1099 1187 c
1004 1280 853 1327 647 1327 c
403 1327 l

201 1493 m
616 1493 l
905 1493 1118 1433 1253 1312 c
1388 1192 1456 1004 1456 748 c
1456 491 1388 302 1252 181 c
1116 60 904 0 616 0 c
201 0 l
201 1493 l

ce} _d
/E{1294 0 201 0 1163 1493 sc
201 1493 m
1145 1493 l
1145 1323 l
403 1323 l
403 881 l
1114 881 l
1114 711 l
403 711 l
403 170 l
1163 170 l
1163 0 l
201 0 l
201 1493 l

ce} _d
/F{1178 0 201 0 1059 1493 sc
201 1493 m
1059 1493 l
1059 1323 l
403 1323 l
403 883 l
995 883 l
995 713 l
403 713 l
403 0 l
201 0 l
201 1493 l

ce} _d
/J{604 0 -106 -410 403 1493 sc
201 1493 m
403 1493 l
403 104 l
403 -76 369 -207 300 -288 c
232 -369 122 -410 -29 -410 c
-106 -410 l
-106 -240 l
-43 -240 l
46 -240 109 -215 146 -165 c
183 -115 201 -25 201 104 c
201 1493 l

ce} _d
/L{1141 0 201 0 1130 1493 sc
201 1493 m
403 1493 l
403 170 l
1130 170 l
1130 0 l
201 0 l
201 1493 l

ce} _d
/M{1767 0 201 0 1567 1493 sc
201 1493 m
502 1493 l
883 477 l
1266 1493 l
1567 1493 l
1567 0 l
1370 0 l
1370 1311 l
985 287 l
782 287 l
397 1311 l
397 0 l
201 0 l
201 1493 l

ce} _d
/R{1423 0 201 0 1364 1493 sc
909 700 m
952 685 994 654 1035 606 c
1076 558 1118 492 1159 408 c
1364 0 l
1147 0 l
956 383 l
907 483 859 549 812 582 c
766 615 703 631 623 631 c
403 631 l
403 0 l
201 0 l
201 1493 l
657 1493 l
828 1493 955 1457 1039 1386 c
1123 1315 1165 1207 1165 1063 c
1165 969 1143 891 1099 829 c
1056 767 992 724 909 700 c

403 1327 m
403 797 l
657 797 l
754 797 828 819 877 864 c
927 909 952 976 952 1063 c
952 1150 927 1216 877 1260 c
828 1305 754 1327 657 1327 c
403 1327 l

ce} _d
/S{1300 0 135 -29 1186 1520 sc
1096 1444 m
1096 1247 l
1019 1284 947 1311 879 1329 c
811 1347 745 1356 682 1356 c
572 1356 487 1335 427 1292 c
368 1249 338 1189 338 1110 c
338 1044 358 994 397 960 c
437 927 512 900 623 879 c
745 854 l
896 825 1007 775 1078 702 c
1150 630 1186 533 1186 412 c
1186 267 1137 158 1040 83 c
943 8 801 -29 614 -29 c
543 -29 468 -21 388 -5 c
309 11 226 35 141 66 c
141 274 l
223 228 303 193 382 170 c
461 147 538 135 614 135 c
729 135 818 158 881 203 c
944 248 975 313 975 397 c
975 470 952 528 907 569 c
862 610 789 641 686 662 c
563 686 l
412 716 303 763 236 827 c
169 891 135 980 135 1094 c
135 1226 181 1330 274 1406 c
367 1482 496 1520 659 1520 c
729 1520 800 1514 873 1501 c
946 1488 1020 1469 1096 1444 c

ce} _d
/T{1251 0 -6 0 1257 1493 sc
-6 1493 m
1257 1493 l
1257 1323 l
727 1323 l
727 0 l
524 0 l
524 1323 l
-6 1323 l
-6 1493 l

ce} _d
/a{1255 0 123 -29 1069 1147 sc
702 563 m
553 563 450 546 393 512 c
336 478 307 420 307 338 c
307 273 328 221 371 182 c
414 144 473 125 547 125 c
649 125 731 161 792 233 c
854 306 885 402 885 522 c
885 563 l
702 563 l

1069 639 m
1069 0 l
885 0 l
885 170 l
843 102 791 52 728 19 c
665 -13 589 -29 498 -29 c
383 -29 292 3 224 67 c
157 132 123 218 123 326 c
123 452 165 547 249 611 c
334 675 460 707 627 707 c
885 707 l
885 725 l
885 810 857 875 801 921 c
746 968 668 991 567 991 c
503 991 441 983 380 968 c
319 953 261 930 205 899 c
205 1069 l
272 1095 338 1114 401 1127 c
464 1140 526 1147 586 1147 c
748 1147 869 1105 949 1021 c
1029 937 1069 810 1069 639 c

ce} _d
/c{1126 0 113 -29 999 1147 sc
999 1077 m
999 905 l
947 934 895 955 842 969 c
790 984 737 991 684 991 c
565 991 472 953 406 877 c
340 802 307 696 307 559 c
307 422 340 316 406 240 c
472 165 565 127 684 127 c
737 127 790 134 842 148 c
895 163 947 184 999 213 c
999 43 l
948 19 894 1 839 -11 c
784 -23 726 -29 664 -29 c
495 -29 361 24 262 130 c
163 236 113 379 113 559 c
113 742 163 885 263 990 c
364 1095 501 1147 676 1147 c
733 1147 788 1141 842 1129 c
896 1118 948 1100 999 1077 c

ce} _d
/d{1300 0 113 -29 1114 1556 sc
930 950 m
930 1556 l
1114 1556 l
1114 0 l
930 0 l
930 168 l
891 101 842 52 783 19 c
724 -13 654 -29 571 -29 c
436 -29 325 25 240 133 c
155 241 113 383 113 559 c
113 735 155 877 240 985 c
325 1093 436 1147 571 1147 c
654 1147 724 1131 783 1098 c
842 1066 891 1017 930 950 c

303 559 m
303 424 331 317 386 240 c
442 163 519 125 616 125 c
713 125 790 163 846 240 c
902 317 930 424 930 559 c
930 694 902 800 846 877 c
790 954 713 993 616 993 c
519 993 442 954 386 877 c
331 800 303 694 303 559 c

ce} _d
/e{1260 0 113 -29 1151 1147 sc
1151 606 m
1151 516 l
305 516 l
313 389 351 293 419 226 c
488 160 583 127 705 127 c
776 127 844 136 910 153 c
977 170 1043 196 1108 231 c
1108 57 l
1042 29 974 8 905 -7 c
836 -22 765 -29 694 -29 c
515 -29 374 23 269 127 c
165 231 113 372 113 549 c
113 732 162 878 261 985 c
360 1093 494 1147 662 1147 c
813 1147 932 1098 1019 1001 c
1107 904 1151 773 1151 606 c

967 660 m
966 761 937 841 882 901 c
827 961 755 991 664 991 c
561 991 479 962 417 904 c
356 846 320 764 311 659 c
967 660 l

ce} _d
/i{569 0 193 0 377 1556 sc
193 1120 m
377 1120 l
377 0 l
193 0 l
193 1120 l

193 1556 m
377 1556 l
377 1323 l
193 1323 l
193 1556 l

ce} _d
/l{569 0 193 0 377 1556 sc
193 1556 m
377 1556 l
377 0 l
193 0 l
193 1556 l

ce} _d
/m{1995 0 186 0 1821 1147 sc
1065 905 m
1111 988 1166 1049 1230 1088 c
1294 1127 1369 1147 1456 1147 c
1573 1147 1663 1106 1726 1024 c
1789 943 1821 827 1821 676 c
1821 0 l
1636 0 l
1636 670 l
1636 777 1617 857 1579 909 c
1541 961 1483 987 1405 987 c
1310 987 1234 955 1179 892 c
1124 829 1096 742 1096 633 c
1096 0 l
911 0 l
911 670 l
911 778 892 858 854 909 c
816 961 757 987 678 987 c
584 987 509 955 454 891 c
399 828 371 742 371 633 c
371 0 l
186 0 l
186 1120 l
371 1120 l
371 946 l
413 1015 463 1065 522 1098 c
581 1131 650 1147 731 1147 c
812 1147 881 1126 938 1085 c
995 1044 1038 984 1065 905 c

ce} _d
/n{1298 0 186 0 1124 1147 sc
1124 676 m
1124 0 l
940 0 l
940 670 l
940 776 919 855 878 908 c
837 961 775 987 692 987 c
593 987 514 955 457 892 c
400 829 371 742 371 633 c
371 0 l
186 0 l
186 1120 l
371 1120 l
371 946 l
415 1013 467 1064 526 1097 c
586 1130 655 1147 733 1147 c
862 1147 959 1107 1025 1027 c
1091 948 1124 831 1124 676 c

ce} _d
/o{1253 0 113 -29 1141 1147 sc
627 991 m
528 991 450 952 393 875 c
336 798 307 693 307 559 c
307 425 335 319 392 242 c
449 165 528 127 627 127 c
725 127 803 166 860 243 c
917 320 946 426 946 559 c
946 692 917 797 860 874 c
803 952 725 991 627 991 c

627 1147 m
787 1147 913 1095 1004 991 c
1095 887 1141 743 1141 559 c
1141 376 1095 232 1004 127 c
913 23 787 -29 627 -29 c
466 -29 340 23 249 127 c
158 232 113 376 113 559 c
113 743 158 887 249 991 c
340 1095 466 1147 627 1147 c

ce} _d
/p{1300 0 186 -426 1188 1147 sc
371 168 m
371 -426 l
186 -426 l
186 1120 l
371 1120 l
371 950 l
410 1017 458 1066 517 1098 c
576 1131 647 1147 729 1147 c
865 1147 975 1093 1060 985 c
1145 877 1188 735 1188 559 c
1188 383 1145 241 1060 133 c
975 25 865 -29 729 -29 c
647 -29 576 -13 517 19 c
458 52 410 101 371 168 c

997 559 m
997 694 969 800 913 877 c
858 954 781 993 684 993 c
587 993 510 954 454 877 c
399 800 371 694 371 559 c
371 424 399 317 454 240 c
510 163 587 125 684 125 c
781 125 858 163 913 240 c
969 317 997 424 997 559 c

ce} _d
/r{842 0 186 0 842 1147 sc
842 948 m
821 960 799 969 774 974 c
750 980 723 983 694 983 c
590 983 510 949 454 881 c
399 814 371 717 371 590 c
371 0 l
186 0 l
186 1120 l
371 1120 l
371 946 l
410 1014 460 1064 522 1097 c
584 1130 659 1147 748 1147 c
761 1147 775 1146 790 1144 c
805 1143 822 1140 841 1137 c
842 948 l

ce} _d
/s{1067 0 111 -29 967 1147 sc
907 1087 m
907 913 l
855 940 801 960 745 973 c
689 986 631 993 571 993 c
480 993 411 979 365 951 c
320 923 297 881 297 825 c
297 782 313 749 346 724 c
379 700 444 677 543 655 c
606 641 l
737 613 829 573 884 522 c
939 471 967 400 967 309 c
967 205 926 123 843 62 c
761 1 648 -29 504 -29 c
444 -29 381 -23 316 -11 c
251 0 183 18 111 41 c
111 231 l
179 196 246 169 312 151 c
378 134 443 125 508 125 c
595 125 661 140 708 169 c
755 199 778 241 778 295 c
778 345 761 383 727 410 c
694 437 620 462 506 487 c
442 502 l
328 526 246 563 195 612 c
144 662 119 730 119 817 c
119 922 156 1004 231 1061 c
306 1118 412 1147 549 1147 c
617 1147 681 1142 741 1132 c
801 1122 856 1107 907 1087 c

ce} _d
/t{803 0 55 0 754 1438 sc
375 1438 m
375 1120 l
754 1120 l
754 977 l
375 977 l
375 369 l
375 278 387 219 412 193 c
437 167 488 154 565 154 c
754 154 l
754 0 l
565 0 l
423 0 325 26 271 79 c
217 132 190 229 190 369 c
190 977 l
55 977 l
55 1120 l
190 1120 l
190 1438 l
375 1438 l

ce} _d
/u{1298 0 174 -29 1112 1147 sc
174 442 m
174 1120 l
358 1120 l
358 449 l
358 343 379 263 420 210 c
461 157 523 131 606 131 c
705 131 784 163 841 226 c
899 289 928 376 928 485 c
928 1120 l
1112 1120 l
1112 0 l
928 0 l
928 172 l
883 104 831 53 772 20 c
713 -13 645 -29 567 -29 c
438 -29 341 11 274 91 c
207 171 174 288 174 442 c

637 1147 m
637 1147 l

ce} _d
/x{1212 0 59 0 1145 1120 sc
1124 1120 m
719 575 l
1145 0 l
928 0 l
602 440 l
276 0 l
59 0 l
494 586 l
96 1120 l
313 1120 l
610 721 l
907 1120 l
1124 1120 l

ce} _d
/z{1075 0 88 0 987 1120 sc
113 1120 m
987 1120 l
987 952 l
295 147 l
987 147 l
987 0 l
88 0 l
88 168 l
780 973 l
113 973 l
113 1120 l

ce} _d
end readonly def

/BuildGlyph {
 exch begin
 CharStrings exch
 2 copy known not {pop /.notdef} if
 true 3 1 roll get exec
 end
} _d

/BuildChar {
 1 index /Encoding get exch get
 1 index /BuildGlyph get exec
} _d

FontName currentdict end definefont pop
end
%%EndProlog
mpldict begin
-511.694 0.334 translate
1635.388 791.332 0 0 clipbox
gsave
0 0 m
1635.388069 0 l
1635.388069 791.3325 l
0 791.3325 l
cl
1.000 setgray
fill
grestore
gsave
100.23125 316.13375 m
746.553069 316.13375 l
746.553069 745.41375 l
100.23125 745.41375 l
cl
1.000 setgray
fill
grestore
2.000 setlinewidth
1 setlinejoin
2 setlinecap
[] 0 setdash
0.690 setgray
gsave
646.322 429.28 100.231 316.134 clipbox
131.008479 316.13375 m
131.008479 745.41375 l
stroke
grestore
0.800 setlinewidth
0 setlinecap
0.000 setgray
gsave
/o {
gsave
newpath
translate
0.8 setlinewidth
1 setlinejoin

0 setlinecap

0 0 m
0 -3.5 l

gsave
0.000 setgray
fill
grestore
stroke
grestore
} bind def
131.008 316.134 o
grestore
gsave
104.508479 286.336875 translate
0.000000 rotate
/DejaVuSans 30.0 selectfont
0.000000 0.929688 moveto
/one glyphshow
19.086914 0.929688 moveto
/zero glyphshow
/DejaVuSans 21.0 selectfont
38.460938 12.414062 moveto
/zero glyphshow
grestore
2.000 setlinewidth
2 setlinecap
0.690 setgray
gsave
646.322 429.28 100.231 316.134 clipbox
284.894627 316.13375 m
284.894627 745.41375 l
stroke
grestore
0.800 setlinewidth
0 setlinecap
0.000 setgray
gsave
/o {
gsave
newpath
translate
0.8 setlinewidth
1 setlinejoin

0 setlinecap

0 0 m
0 -3.5 l

gsave
0.000 setgray
fill
grestore
stroke
grestore
} bind def
284.895 316.134 o
grestore
gsave
258.394627 286.336875 translate
0.000000 rotate
/DejaVuSans 30.0 selectfont
0.000000 0.203125 moveto
/one glyphshow
19.086914 0.203125 moveto
/zero glyphshow
/DejaVuSans 21.0 selectfont
38.460938 11.687500 moveto
/one glyphshow
grestore
2.000 setlinewidth
2 setlinecap
0.690 setgray
gsave
646.322 429.28 100.231 316.134 clipbox
438.780774 316.13375 m
438.780774 745.41375 l
stroke
grestore
0.800 setlinewidth
0 setlinecap
0.000 setgray
gsave
/o {
gsave
newpath
translate
0.8 setlinewidth
1 setlinejoin

0 setlinecap

0 0 m
0 -3.5 l

gsave
0.000 setgray
fill
grestore
stroke
grestore
} bind def
438.781 316.134 o
grestore
gsave
412.280774 286.336875 translate
0.000000 rotate
/DejaVuSans 30.0 selectfont
0.000000 0.929688 moveto
/one glyphshow
19.086914 0.929688 moveto
/zero glyphshow
/DejaVuSans 21.0 selectfont
38.460938 12.414062 moveto
/two glyphshow
grestore
2.000 setlinewidth
2 setlinecap
0.690 setgray
gsave
646.322 429.28 100.231 316.134 clipbox
592.666921 316.13375 m
592.666921 745.41375 l
stroke
grestore
0.800 setlinewidth
0 setlinecap
0.000 setgray
gsave
/o {
gsave
newpath
translate
0.8 setlinewidth
1 setlinejoin

0 setlinecap

0 0 m
0 -3.5 l

gsave
0.000 setgray
fill
grestore
stroke
grestore
} bind def
592.667 316.134 o
grestore
gsave
566.166921 286.336875 translate
0.000000 rotate
/DejaVuSans 30.0 selectfont
0.000000 0.929688 moveto
/one glyphshow
19.086914 0.929688 moveto
/zero glyphshow
/DejaVuSans 21.0 selectfont
38.460938 12.414062 moveto
/three glyphshow
grestore
2.000 setlinewidth
2 setlinecap
0.690 setgray
gsave
646.322 429.28 100.231 316.134 clipbox
746.553069 316.13375 m
746.553069 745.41375 l
stroke
grestore
0.800 setlinewidth
0 setlinecap
0.000 setgray
gsave
/o {
gsave
newpath
translate
0.8 setlinewidth
1 setlinejoin

0 setlinecap

0 0 m
0 -3.5 l

gsave
0.000 setgray
fill
grestore
stroke
grestore
} bind def
746.553 316.134 o
grestore
gsave
720.053069 286.336875 translate
0.000000 rotate
/DejaVuSans 30.0 selectfont
0.000000 0.203125 moveto
/one glyphshow
19.086914 0.203125 moveto
/zero glyphshow
/DejaVuSans 21.0 selectfont
38.460938 11.687500 moveto
/four glyphshow
grestore
1.000 setlinewidth
2 setlinecap
0.690 setgray
gsave
646.322 429.28 100.231 316.134 clipbox
107.171214 316.13375 m
107.171214 745.41375 l
stroke
grestore
0.600 setlinewidth
0 setlinecap
0.000 setgray
gsave
/o {
gsave
newpath
translate
0.6 setlinewidth
1 setlinejoin

0 setlinecap

0 0 m
0 -2 l

gsave
0.000 setgray
fill
grestore
stroke
grestore
} bind def
107.171 316.134 o
grestore
1.000 setlinewidth
2 setlinecap
0.690 setgray
gsave
646.322 429.28 100.231 316.134 clipbox
116.095371 316.13375 m
116.095371 745.41375 l
stroke
grestore
0.600 setlinewidth
0 setlinecap
0.000 setgray
gsave
/o {
gsave
newpath
translate
0.6 setlinewidth
1 setlinejoin

0 setlinecap

0 0 m
0 -2 l

gsave
0.000 setgray
fill
grestore
stroke
grestore
} bind def
116.095 316.134 o
grestore
1.000 setlinewidth
2 setlinecap
0.690 setgray
gsave
646.322 429.28 100.231 316.134 clipbox
123.967036 316.13375 m
123.967036 745.41375 l
stroke
grestore
0.600 setlinewidth
0 setlinecap
0.000 setgray
gsave
/o {
gsave
newpath
translate
0.6 setlinewidth
1 setlinejoin

0 setlinecap

0 0 m
0 -2 l

gsave
0.000 setgray
fill
grestore
stroke
grestore
} bind def
123.967 316.134 o
grestore
1.000 setlinewidth
2 setlinecap
0.690 setgray
gsave
646.322 429.28 100.231 316.134 clipbox
177.332826 316.13375 m
177.332826 745.41375 l
stroke
grestore
0.600 setlinewidth
0 setlinecap
0.000 setgray
gsave
/o {
gsave
newpath
translate
0.6 setlinewidth
1 setlinejoin

0 setlinecap

0 0 m
0 -2 l

gsave
0.000 setgray
fill
grestore
stroke
grestore
} bind def
177.333 316.134 o
grestore
1.000 setlinewidth
2 setlinecap
0.690 setgray
gsave
646.322 429.28 100.231 316.134 clipbox
204.430831 316.13375 m
204.430831 745.41375 l
stroke
grestore
0.600 setlinewidth
0 setlinecap
0.000 setgray
gsave
/o {
gsave
newpath
translate
0.6 setlinewidth
1 setlinejoin

0 setlinecap

0 0 m
0 -2 l

gsave
0.000 setgray
fill
grestore
stroke
grestore
} bind def
204.431 316.134 o
grestore
1.000 setlinewidth
2 setlinecap
0.690 setgray
gsave
646.322 429.28 100.231 316.134 clipbox
223.657172 316.13375 m
223.657172 745.41375 l
stroke
grestore
0.600 setlinewidth
0 setlinecap
0.000 setgray
gsave
/o {
gsave
newpath
translate
0.6 setlinewidth
1 setlinejoin

0 setlinecap

0 0 m
0 -2 l

gsave
0.000 setgray
fill
grestore
stroke
grestore
} bind def
223.657 316.134 o
grestore
1.000 setlinewidth
2 setlinecap
0.690 setgray
gsave
646.322 429.28 100.231 316.134 clipbox
238.57028 316.13375 m
238.57028 745.41375 l
stroke
grestore
0.600 setlinewidth
0 setlinecap
0.000 setgray
gsave
/o {
gsave
newpath
translate
0.6 setlinewidth
1 setlinejoin

0 setlinecap

0 0 m
0 -2 l

gsave
0.000 setgray
fill
grestore
stroke
grestore
} bind def
238.57 316.134 o
grestore
1.000 setlinewidth
2 setlinecap
0.690 setgray
gsave
646.322 429.28 100.231 316.134 clipbox
250.755177 316.13375 m
250.755177 745.41375 l
stroke
grestore
0.600 setlinewidth
0 setlinecap
0.000 setgray
gsave
/o {
gsave
newpath
translate
0.6 setlinewidth
1 setlinejoin

0 setlinecap

0 0 m
0 -2 l

gsave
0.000 setgray
fill
grestore
stroke
grestore
} bind def
250.755 316.134 o
grestore
1.000 setlinewidth
2 setlinecap
0.690 setgray
gsave
646.322 429.28 100.231 316.134 clipbox
261.057361 316.13375 m
261.057361 745.41375 l
stroke
grestore
0.600 setlinewidth
0 setlinecap
0.000 setgray
gsave
/o {
gsave
newpath
translate
0.6 setlinewidth
1 setlinejoin

0 setlinecap

0 0 m
0 -2 l

gsave
0.000 setgray
fill
grestore
stroke
grestore
} bind def
261.057 316.134 o
grestore
1.000 setlinewidth
2 setlinecap
0.690 setgray
gsave
646.322 429.28 100.231 316.134 clipbox
269.981518 316.13375 m
269.981518 745.41375 l
stroke
grestore
0.600 setlinewidth
0 setlinecap
0.000 setgray
gsave
/o {
gsave
newpath
translate
0.6 setlinewidth
1 setlinejoin

0 setlinecap

0 0 m
0 -2 l

gsave
0.000 setgray
fill
grestore
stroke
grestore
} bind def
269.982 316.134 o
grestore
1.000 setlinewidth
2 setlinecap
0.690 setgray
gsave
646.322 429.28 100.231 316.134 clipbox
277.853183 316.13375 m
277.853183 745.41375 l
stroke
grestore
0.600 setlinewidth
0 setlinecap
0.000 setgray
gsave
/o {
gsave
newpath
translate
0.6 setlinewidth
1 setlinejoin

0 setlinecap

0 0 m
0 -2 l

gsave
0.000 setgray
fill
grestore
stroke
grestore
} bind def
277.853 316.134 o
grestore
1.000 setlinewidth
2 setlinecap
0.690 setgray
gsave
646.322 429.28 100.231 316.134 clipbox
331.218973 316.13375 m
331.218973 745.41375 l
stroke
grestore
0.600 setlinewidth
0 setlinecap
0.000 setgray
gsave
/o {
gsave
newpath
translate
0.6 setlinewidth
1 setlinejoin

0 setlinecap

0 0 m
0 -2 l

gsave
0.000 setgray
fill
grestore
stroke
grestore
} bind def
331.219 316.134 o
grestore
1.000 setlinewidth
2 setlinecap
0.690 setgray
gsave
646.322 429.28 100.231 316.134 clipbox
358.316978 316.13375 m
358.316978 745.41375 l
stroke
grestore
0.600 setlinewidth
0 setlinecap
0.000 setgray
gsave
/o {
gsave
newpath
translate
0.6 setlinewidth
1 setlinejoin

0 setlinecap

0 0 m
0 -2 l

gsave
0.000 setgray
fill
grestore
stroke
grestore
} bind def
358.317 316.134 o
grestore
1.000 setlinewidth
2 setlinecap
0.690 setgray
gsave
646.322 429.28 100.231 316.134 clipbox
377.543319 316.13375 m
377.543319 745.41375 l
stroke
grestore
0.600 setlinewidth
0 setlinecap
0.000 setgray
gsave
/o {
gsave
newpath
translate
0.6 setlinewidth
1 setlinejoin

0 setlinecap

0 0 m
0 -2 l

gsave
0.000 setgray
fill
grestore
stroke
grestore
} bind def
377.543 316.134 o
grestore
1.000 setlinewidth
2 setlinecap
0.690 setgray
gsave
646.322 429.28 100.231 316.134 clipbox
392.456428 316.13375 m
392.456428 745.41375 l
stroke
grestore
0.600 setlinewidth
0 setlinecap
0.000 setgray
gsave
/o {
gsave
newpath
translate
0.6 setlinewidth
1 setlinejoin

0 setlinecap

0 0 m
0 -2 l

gsave
0.000 setgray
fill
grestore
stroke
grestore
} bind def
392.456 316.134 o
grestore
1.000 setlinewidth
2 setlinecap
0.690 setgray
gsave
646.322 429.28 100.231 316.134 clipbox
404.641325 316.13375 m
404.641325 745.41375 l
stroke
grestore
0.600 setlinewidth
0 setlinecap
0.000 setgray
gsave
/o {
gsave
newpath
translate
0.6 setlinewidth
1 setlinejoin

0 setlinecap

0 0 m
0 -2 l

gsave
0.000 setgray
fill
grestore
stroke
grestore
} bind def
404.641 316.134 o
grestore
1.000 setlinewidth
2 setlinecap
0.690 setgray
gsave
646.322 429.28 100.231 316.134 clipbox
414.943508 316.13375 m
414.943508 745.41375 l
stroke
grestore
0.600 setlinewidth
0 setlinecap
0.000 setgray
gsave
/o {
gsave
newpath
translate
0.6 setlinewidth
1 setlinejoin

0 setlinecap

0 0 m
0 -2 l

gsave
0.000 setgray
fill
grestore
stroke
grestore
} bind def
414.944 316.134 o
grestore
1.000 setlinewidth
2 setlinecap
0.690 setgray
gsave
646.322 429.28 100.231 316.134 clipbox
423.867665 316.13375 m
423.867665 745.41375 l
stroke
grestore
0.600 setlinewidth
0 setlinecap
0.000 setgray
gsave
/o {
gsave
newpath
translate
0.6 setlinewidth
1 setlinejoin

0 setlinecap

0 0 m
0 -2 l

gsave
0.000 setgray
fill
grestore
stroke
grestore
} bind def
423.868 316.134 o
grestore
1.000 setlinewidth
2 setlinecap
0.690 setgray
gsave
646.322 429.28 100.231 316.134 clipbox
431.73933 316.13375 m
431.73933 745.41375 l
stroke
grestore
0.600 setlinewidth
0 setlinecap
0.000 setgray
gsave
/o {
gsave
newpath
translate
0.6 setlinewidth
1 setlinejoin

0 setlinecap

0 0 m
0 -2 l

gsave
0.000 setgray
fill
grestore
stroke
grestore
} bind def
431.739 316.134 o
grestore
1.000 setlinewidth
2 setlinecap
0.690 setgray
gsave
646.322 429.28 100.231 316.134 clipbox
485.10512 316.13375 m
485.10512 745.41375 l
stroke
grestore
0.600 setlinewidth
0 setlinecap
0.000 setgray
gsave
/o {
gsave
newpath
translate
0.6 setlinewidth
1 setlinejoin

0 setlinecap

0 0 m
0 -2 l

gsave
0.000 setgray
fill
grestore
stroke
grestore
} bind def
485.105 316.134 o
grestore
1.000 setlinewidth
2 setlinecap
0.690 setgray
gsave
646.322 429.28 100.231 316.134 clipbox
512.203126 316.13375 m
512.203126 745.41375 l
stroke
grestore
0.600 setlinewidth
0 setlinecap
0.000 setgray
gsave
/o {
gsave
newpath
translate
0.6 setlinewidth
1 setlinejoin

0 setlinecap

0 0 m
0 -2 l

gsave
0.000 setgray
fill
grestore
stroke
grestore
} bind def
512.203 316.134 o
grestore
1.000 setlinewidth
2 setlinecap
0.690 setgray
gsave
646.322 429.28 100.231 316.134 clipbox
531.429466 316.13375 m
531.429466 745.41375 l
stroke
grestore
0.600 setlinewidth
0 setlinecap
0.000 setgray
gsave
/o {
gsave
newpath
translate
0.6 setlinewidth
1 setlinejoin

0 setlinecap

0 0 m
0 -2 l

gsave
0.000 setgray
fill
grestore
stroke
grestore
} bind def
531.429 316.134 o
grestore
1.000 setlinewidth
2 setlinecap
0.690 setgray
gsave
646.322 429.28 100.231 316.134 clipbox
546.342575 316.13375 m
546.342575 745.41375 l
stroke
grestore
0.600 setlinewidth
0 setlinecap
0.000 setgray
gsave
/o {
gsave
newpath
translate
0.6 setlinewidth
1 setlinejoin

0 setlinecap

0 0 m
0 -2 l

gsave
0.000 setgray
fill
grestore
stroke
grestore
} bind def
546.343 316.134 o
grestore
1.000 setlinewidth
2 setlinecap
0.690 setgray
gsave
646.322 429.28 100.231 316.134 clipbox
558.527472 316.13375 m
558.527472 745.41375 l
stroke
grestore
0.600 setlinewidth
0 setlinecap
0.000 setgray
gsave
/o {
gsave
newpath
translate
0.6 setlinewidth
1 setlinejoin

0 setlinecap

0 0 m
0 -2 l

gsave
0.000 setgray
fill
grestore
stroke
grestore
} bind def
558.527 316.134 o
grestore
1.000 setlinewidth
2 setlinecap
0.690 setgray
gsave
646.322 429.28 100.231 316.134 clipbox
568.829655 316.13375 m
568.829655 745.41375 l
stroke
grestore
0.600 setlinewidth
0 setlinecap
0.000 setgray
gsave
/o {
gsave
newpath
translate
0.6 setlinewidth
1 setlinejoin

0 setlinecap

0 0 m
0 -2 l

gsave
0.000 setgray
fill
grestore
stroke
grestore
} bind def
568.83 316.134 o
grestore
1.000 setlinewidth
2 setlinecap
0.690 setgray
gsave
646.322 429.28 100.231 316.134 clipbox
577.753813 316.13375 m
577.753813 745.41375 l
stroke
grestore
0.600 setlinewidth
0 setlinecap
0.000 setgray
gsave
/o {
gsave
newpath
translate
0.6 setlinewidth
1 setlinejoin

0 setlinecap

0 0 m
0 -2 l

gsave
0.000 setgray
fill
grestore
stroke
grestore
} bind def
577.754 316.134 o
grestore
1.000 setlinewidth
2 setlinecap
0.690 setgray
gsave
646.322 429.28 100.231 316.134 clipbox
585.625477 316.13375 m
585.625477 745.41375 l
stroke
grestore
0.600 setlinewidth
0 setlinecap
0.000 setgray
gsave
/o {
gsave
newpath
translate
0.6 setlinewidth
1 setlinejoin

0 setlinecap

0 0 m
0 -2 l

gsave
0.000 setgray
fill
grestore
stroke
grestore
} bind def
585.625 316.134 o
grestore
1.000 setlinewidth
2 setlinecap
0.690 setgray
gsave
646.322 429.28 100.231 316.134 clipbox
638.991268 316.13375 m
638.991268 745.41375 l
stroke
grestore
0.600 setlinewidth
0 setlinecap
0.000 setgray
gsave
/o {
gsave
newpath
translate
0.6 setlinewidth
1 setlinejoin

0 setlinecap

0 0 m
0 -2 l

gsave
0.000 setgray
fill
grestore
stroke
grestore
} bind def
638.991 316.134 o
grestore
1.000 setlinewidth
2 setlinecap
0.690 setgray
gsave
646.322 429.28 100.231 316.134 clipbox
666.089273 316.13375 m
666.089273 745.41375 l
stroke
grestore
0.600 setlinewidth
0 setlinecap
0.000 setgray
gsave
/o {
gsave
newpath
translate
0.6 setlinewidth
1 setlinejoin

0 setlinecap

0 0 m
0 -2 l

gsave
0.000 setgray
fill
grestore
stroke
grestore
} bind def
666.089 316.134 o
grestore
1.000 setlinewidth
2 setlinecap
0.690 setgray
gsave
646.322 429.28 100.231 316.134 clipbox
685.315614 316.13375 m
685.315614 745.41375 l
stroke
grestore
0.600 setlinewidth
0 setlinecap
0.000 setgray
gsave
/o {
gsave
newpath
translate
0.6 setlinewidth
1 setlinejoin

0 setlinecap

0 0 m
0 -2 l

gsave
0.000 setgray
fill
grestore
stroke
grestore
} bind def
685.316 316.134 o
grestore
1.000 setlinewidth
2 setlinecap
0.690 setgray
gsave
646.322 429.28 100.231 316.134 clipbox
700.228722 316.13375 m
700.228722 745.41375 l
stroke
grestore
0.600 setlinewidth
0 setlinecap
0.000 setgray
gsave
/o {
gsave
newpath
translate
0.6 setlinewidth
1 setlinejoin

0 setlinecap

0 0 m
0 -2 l

gsave
0.000 setgray
fill
grestore
stroke
grestore
} bind def
700.229 316.134 o
grestore
1.000 setlinewidth
2 setlinecap
0.690 setgray
gsave
646.322 429.28 100.231 316.134 clipbox
712.413619 316.13375 m
712.413619 745.41375 l
stroke
grestore
0.600 setlinewidth
0 setlinecap
0.000 setgray
gsave
/o {
gsave
newpath
translate
0.6 setlinewidth
1 setlinejoin

0 setlinecap

0 0 m
0 -2 l

gsave
0.000 setgray
fill
grestore
stroke
grestore
} bind def
712.414 316.134 o
grestore
1.000 setlinewidth
2 setlinecap
0.690 setgray
gsave
646.322 429.28 100.231 316.134 clipbox
722.715803 316.13375 m
722.715803 745.41375 l
stroke
grestore
0.600 setlinewidth
0 setlinecap
0.000 setgray
gsave
/o {
gsave
newpath
translate
0.6 setlinewidth
1 setlinejoin

0 setlinecap

0 0 m
0 -2 l

gsave
0.000 setgray
fill
grestore
stroke
grestore
} bind def
722.716 316.134 o
grestore
1.000 setlinewidth
2 setlinecap
0.690 setgray
gsave
646.322 429.28 100.231 316.134 clipbox
731.63996 316.13375 m
731.63996 745.41375 l
stroke
grestore
0.600 setlinewidth
0 setlinecap
0.000 setgray
gsave
/o {
gsave
newpath
translate
0.6 setlinewidth
1 setlinejoin

0 setlinecap

0 0 m
0 -2 l

gsave
0.000 setgray
fill
grestore
stroke
grestore
} bind def
731.64 316.134 o
grestore
1.000 setlinewidth
2 setlinecap
0.690 setgray
gsave
646.322 429.28 100.231 316.134 clipbox
739.511625 316.13375 m
739.511625 745.41375 l
stroke
grestore
0.600 setlinewidth
0 setlinecap
0.000 setgray
gsave
/o {
gsave
newpath
translate
0.6 setlinewidth
1 setlinejoin

0 setlinecap

0 0 m
0 -2 l

gsave
0.000 setgray
fill
grestore
stroke
grestore
} bind def
739.512 316.134 o
grestore
/DejaVuSans 30.000 selectfont
gsave

300.314034 253.305625 translate
0.000000 rotate
0.000000 0 m /numbersign glyphshow
25.136719 0 m /space glyphshow
34.672852 0 m /e glyphshow
52.629883 0 m /x glyphshow
70.383789 0 m /p glyphshow
89.426758 0 m /l glyphshow
97.761719 0 m /i glyphshow
106.096680 0 m /c glyphshow
122.590820 0 m /i glyphshow
130.925781 0 m /t glyphshow
142.688477 0 m /space glyphshow
152.224609 0 m /t glyphshow
163.987305 0 m /r glyphshow
176.321289 0 m /i glyphshow
184.656250 0 m /p glyphshow
203.699219 0 m /l glyphshow
212.034180 0 m /e glyphshow
230.491211 0 m /s glyphshow
grestore
2.000 setlinewidth
2 setlinecap
0.690 setgray
gsave
646.322 429.28 100.231 316.134 clipbox
100.23125 476.852486 m
746.553069 476.852486 l
stroke
grestore
0.800 setlinewidth
0 setlinecap
0.000 setgray
gsave
/o {
gsave
newpath
translate
0.8 setlinewidth
1 setlinejoin

0 setlinecap

-0 0 m
-3.5 0 l

gsave
0.000 setgray
fill
grestore
stroke
grestore
} bind def
100.231 476.852 o
grestore
gsave
40.231250 465.454049 translate
0.000000 rotate
/DejaVuSans 30.0 selectfont
0.000000 0.203125 moveto
/one glyphshow
19.086914 0.203125 moveto
/zero glyphshow
/DejaVuSans 21.0 selectfont
38.460938 11.687500 moveto
/one glyphshow
grestore
2.000 setlinewidth
2 setlinecap
0.690 setgray
gsave
646.322 429.28 100.231 316.134 clipbox
100.23125 692.945068 m
746.553069 692.945068 l
stroke
grestore
0.800 setlinewidth
0 setlinecap
0.000 setgray
gsave
/o {
gsave
newpath
translate
0.8 setlinewidth
1 setlinejoin

0 setlinecap

-0 0 m
-3.5 0 l

gsave
0.000 setgray
fill
grestore
stroke
grestore
} bind def
100.231 692.945 o
grestore
gsave
40.231250 681.546631 translate
0.000000 rotate
/DejaVuSans 30.0 selectfont
0.000000 0.929688 moveto
/one glyphshow
19.086914 0.929688 moveto
/zero glyphshow
/DejaVuSans 21.0 selectfont
38.460938 12.414062 moveto
/two glyphshow
grestore
1.000 setlinewidth
2 setlinecap
0.690 setgray
gsave
646.322 429.28 100.231 316.134 clipbox
100.23125 325.810253 m
746.553069 325.810253 l
stroke
grestore
0.600 setlinewidth
0 setlinecap
0.000 setgray
gsave
/o {
gsave
newpath
translate
0.6 setlinewidth
1 setlinejoin

0 setlinecap

-0 0 m
-2 0 l

gsave
0.000 setgray
fill
grestore
stroke
grestore
} bind def
100.231 325.81 o
grestore
1.000 setlinewidth
2 setlinecap
0.690 setgray
gsave
646.322 429.28 100.231 316.134 clipbox
100.23125 363.862268 m
746.553069 363.862268 l
stroke
grestore
0.600 setlinewidth
0 setlinecap
0.000 setgray
gsave
/o {
gsave
newpath
translate
0.6 setlinewidth
1 setlinejoin

0 setlinecap

-0 0 m
-2 0 l

gsave
0.000 setgray
fill
grestore
stroke
grestore
} bind def
100.231 363.862 o
grestore
1.000 setlinewidth
2 setlinecap
0.690 setgray
gsave
646.322 429.28 100.231 316.134 clipbox
100.23125 390.860603 m
746.553069 390.860603 l
stroke
grestore
0.600 setlinewidth
0 setlinecap
0.000 setgray
gsave
/o {
gsave
newpath
translate
0.6 setlinewidth
1 setlinejoin

0 setlinecap

-0 0 m
-2 0 l

gsave
0.000 setgray
fill
grestore
stroke
grestore
} bind def
100.231 390.861 o
grestore
1.000 setlinewidth
2 setlinecap
0.690 setgray
gsave
646.322 429.28 100.231 316.134 clipbox
100.23125 411.802137 m
746.553069 411.802137 l
stroke
grestore
0.600 setlinewidth
0 setlinecap
0.000 setgray
gsave
/o {
gsave
newpath
translate
0.6 setlinewidth
1 setlinejoin

0 setlinecap

-0 0 m
-2 0 l

gsave
0.000 setgray
fill
grestore
stroke
grestore
} bind def
100.231 411.802 o
grestore
1.000 setlinewidth
2 setlinecap
0.690 setgray
gsave
646.322 429.28 100.231 316.134 clipbox
100.23125 428.912617 m
746.553069 428.912617 l
stroke
grestore
0.600 setlinewidth
0 setlinecap
0.000 setgray
gsave
/o {
gsave
newpath
translate
0.6 setlinewidth
1 setlinejoin

0 setlinecap

-0 0 m
-2 0 l

gsave
0.000 setgray
fill
grestore
stroke
grestore
} bind def
100.231 428.913 o
grestore
1.000 setlinewidth
2 setlinecap
0.690 setgray
gsave
646.322 429.28 100.231 316.134 clipbox
100.23125 443.379322 m
746.553069 443.379322 l
stroke
grestore
0.600 setlinewidth
0 setlinecap
0.000 setgray
gsave
/o {
gsave
newpath
translate
0.6 setlinewidth
1 setlinejoin

0 setlinecap

-0 0 m
-2 0 l

gsave
0.000 setgray
fill
grestore
stroke
grestore
} bind def
100.231 443.379 o
grestore
1.000 setlinewidth
2 setlinecap
0.690 setgray
gsave
646.322 429.28 100.231 316.134 clipbox
100.23125 455.910952 m
746.553069 455.910952 l
stroke
grestore
0.600 setlinewidth
0 setlinecap
0.000 setgray
gsave
/o {
gsave
newpath
translate
0.6 setlinewidth
1 setlinejoin

0 setlinecap

-0 0 m
-2 0 l

gsave
0.000 setgray
fill
grestore
stroke
grestore
} bind def
100.231 455.911 o
grestore
1.000 setlinewidth
2 setlinecap
0.690 setgray
gsave
646.322 429.28 100.231 316.134 clipbox
100.23125 466.964632 m
746.553069 466.964632 l
stroke
grestore
0.600 setlinewidth
0 setlinecap
0.000 setgray
gsave
/o {
gsave
newpath
translate
0.6 setlinewidth
1 setlinejoin

0 setlinecap

-0 0 m
-2 0 l

gsave
0.000 setgray
fill
grestore
stroke
grestore
} bind def
100.231 466.965 o
grestore
1.000 setlinewidth
2 setlinecap
0.690 setgray
gsave
646.322 429.28 100.231 316.134 clipbox
100.23125 541.902835 m
746.553069 541.902835 l
stroke
grestore
0.600 setlinewidth
0 setlinecap
0.000 setgray
gsave
/o {
gsave
newpath
translate
0.6 setlinewidth
1 setlinejoin

0 setlinecap

-0 0 m
-2 0 l

gsave
0.000 setgray
fill
grestore
stroke
grestore
} bind def
100.231 541.903 o
grestore
1.000 setlinewidth
2 setlinecap
0.690 setgray
gsave
646.322 429.28 100.231 316.134 clipbox
100.23125 579.95485 m
746.553069 579.95485 l
stroke
grestore
0.600 setlinewidth
0 setlinecap
0.000 setgray
gsave
/o {
gsave
newpath
translate
0.6 setlinewidth
1 setlinejoin

0 setlinecap

-0 0 m
-2 0 l

gsave
0.000 setgray
fill
grestore
stroke
grestore
} bind def
100.231 579.955 o
grestore
1.000 setlinewidth
2 setlinecap
0.690 setgray
gsave
646.322 429.28 100.231 316.134 clipbox
100.23125 606.953184 m
746.553069 606.953184 l
stroke
grestore
0.600 setlinewidth
0 setlinecap
0.000 setgray
gsave
/o {
gsave
newpath
translate
0.6 setlinewidth
1 setlinejoin

0 setlinecap

-0 0 m
-2 0 l

gsave
0.000 setgray
fill
grestore
stroke
grestore
} bind def
100.231 606.953 o
grestore
1.000 setlinewidth
2 setlinecap
0.690 setgray
gsave
646.322 429.28 100.231 316.134 clipbox
100.23125 627.894719 m
746.553069 627.894719 l
stroke
grestore
0.600 setlinewidth
0 setlinecap
0.000 setgray
gsave
/o {
gsave
newpath
translate
0.6 setlinewidth
1 setlinejoin

0 setlinecap

-0 0 m
-2 0 l

gsave
0.000 setgray
fill
grestore
stroke
grestore
} bind def
100.231 627.895 o
grestore
1.000 setlinewidth
2 setlinecap
0.690 setgray
gsave
646.322 429.28 100.231 316.134 clipbox
100.23125 645.005199 m
746.553069 645.005199 l
stroke
grestore
0.600 setlinewidth
0 setlinecap
0.000 setgray
gsave
/o {
gsave
newpath
translate
0.6 setlinewidth
1 setlinejoin

0 setlinecap

-0 0 m
-2 0 l

gsave
0.000 setgray
fill
grestore
stroke
grestore
} bind def
100.231 645.005 o
grestore
1.000 setlinewidth
2 setlinecap
0.690 setgray
gsave
646.322 429.28 100.231 316.134 clipbox
100.23125 659.471904 m
746.553069 659.471904 l
stroke
grestore
0.600 setlinewidth
0 setlinecap
0.000 setgray
gsave
/o {
gsave
newpath
translate
0.6 setlinewidth
1 setlinejoin

0 setlinecap

-0 0 m
-2 0 l

gsave
0.000 setgray
fill
grestore
stroke
grestore
} bind def
100.231 659.472 o
grestore
1.000 setlinewidth
2 setlinecap
0.690 setgray
gsave
646.322 429.28 100.231 316.134 clipbox
100.23125 672.003534 m
746.553069 672.003534 l
stroke
grestore
0.600 setlinewidth
0 setlinecap
0.000 setgray
gsave
/o {
gsave
newpath
translate
0.6 setlinewidth
1 setlinejoin

0 setlinecap

-0 0 m
-2 0 l

gsave
0.000 setgray
fill
grestore
stroke
grestore
} bind def
100.231 672.004 o
grestore
1.000 setlinewidth
2 setlinecap
0.690 setgray
gsave
646.322 429.28 100.231 316.134 clipbox
100.23125 683.057214 m
746.553069 683.057214 l
stroke
grestore
0.600 setlinewidth
0 setlinecap
0.000 setgray
gsave
/o {
gsave
newpath
translate
0.6 setlinewidth
1 setlinejoin

0 setlinecap

-0 0 m
-2 0 l

gsave
0.000 setgray
fill
grestore
stroke
grestore
} bind def
100.231 683.057 o
grestore
gsave

29.996875 461.601875 translate
90.000000 rotate
0.000000 0 m /R glyphshow
20.844727 0 m /S glyphshow
39.887695 0 m /S glyphshow
58.930664 0 m /space glyphshow
68.466797 0 m /parenleft glyphshow
80.170898 0 m /M glyphshow
106.054688 0 m /B glyphshow
126.635742 0 m /parenright glyphshow
grestore
4.000 setlinewidth
[14.8 6.4] 0 setdash
0.000 0.000 1.000 setrgbcolor
gsave
646.322 429.28 100.231 316.134 clipbox
131.008479 694.45322 m
438.780774 694.618384 l
485.10512 694.867885 l
512.203126 695.003864 l
531.429466 695.088293 l
546.342575 695.256007 l
573.44058 695.353016 l
592.666921 695.638883 l
653.904376 699.444546 l
700.228722 706.221235 l
727.326728 717.403366 l
746.553069 725.901023 l
stroke
grestore
2 setlinecap
[] 0 setdash
1.000 0.000 0.000 setrgbcolor
gsave
646.322 429.28 100.231 316.134 clipbox
131.008479 335.646477 m
438.780774 337.94218 l
485.10512 341.343422 l
512.203126 345.808586 l
531.429466 348.940866 l
546.342575 352.04296 l
573.44058 358.817718 l
592.666921 367.241769 l
653.904376 397.713191 l
700.228722 429.474022 l
727.326728 453.498828 l
746.553069 469.475072 l
stroke
grestore
0 setlinecap
[4 6.6] 0 setdash
1.000 0.647 0.000 setrgbcolor
gsave
646.322 429.28 100.231 316.134 clipbox
131.008479 552.609682 m
438.780774 553.600807 l
485.10512 553.41421 l
512.203126 553.25635 l
531.429466 553.44741 l
546.342575 553.327004 l
573.44058 553.459857 l
592.666921 553.849027 l
653.904376 557.117335 l
700.228722 558.14513 l
727.326728 558.527178 l
746.553069 560.379754 l
stroke
grestore
0.800 setlinewidth
0 setlinejoin
2 setlinecap
[] 0 setdash
0.000 setgray
gsave
100.23125 316.13375 m
100.23125 745.41375 l
stroke
grestore
gsave
746.553069 316.13375 m
746.553069 745.41375 l
stroke
grestore
gsave
100.23125 316.13375 m
746.553069 316.13375 l
stroke
grestore
gsave
100.23125 745.41375 m
746.553069 745.41375 l
stroke
grestore
/DejaVuSans 40.000 selectfont
gsave

254.493722 753.741875 translate
0.000000 rotate
0.000000 0 m /R glyphshow
26.042969 0 m /e glyphshow
50.652344 0 m /s glyphshow
71.492188 0 m /i glyphshow
82.605469 0 m /d glyphshow
107.996094 0 m /e glyphshow
132.605469 0 m /n glyphshow
157.957031 0 m /t glyphshow
173.640625 0 m /space glyphshow
186.355469 0 m /s glyphshow
207.195312 0 m /e glyphshow
231.804688 0 m /t glyphshow
247.488281 0 m /space glyphshow
260.203125 0 m /s glyphshow
281.042969 0 m /i glyphshow
292.156250 0 m /z glyphshow
313.152344 0 m /e glyphshow
grestore
gsave
955.36625 316.13375 m
1601.688069 316.13375 l
1601.688069 745.41375 l
955.36625 745.41375 l
cl
1.000 setgray
fill
grestore
2.000 setlinewidth
1 setlinejoin
0.690 setgray
gsave
646.322 429.28 955.366 316.134 clipbox
986.143479 316.13375 m
986.143479 745.41375 l
stroke
grestore
0.800 setlinewidth
0 setlinecap
0.000 setgray
gsave
/o {
gsave
newpath
translate
0.8 setlinewidth
1 setlinejoin

0 setlinecap

0 0 m
0 -3.5 l

gsave
0.000 setgray
fill
grestore
stroke
grestore
} bind def
986.143 316.134 o
grestore
gsave
959.643479 286.336875 translate
0.000000 rotate
/DejaVuSans 30.0 selectfont
0.000000 0.929688 moveto
/one glyphshow
19.086914 0.929688 moveto
/zero glyphshow
/DejaVuSans 21.0 selectfont
38.460938 12.414062 moveto
/zero glyphshow
grestore
2.000 setlinewidth
2 setlinecap
0.690 setgray
gsave
646.322 429.28 955.366 316.134 clipbox
1140.029627 316.13375 m
1140.029627 745.41375 l
stroke
grestore
0.800 setlinewidth
0 setlinecap
0.000 setgray
gsave
/o {
gsave
newpath
translate
0.8 setlinewidth
1 setlinejoin

0 setlinecap

0 0 m
0 -3.5 l

gsave
0.000 setgray
fill
grestore
stroke
grestore
} bind def
1140.03 316.134 o
grestore
gsave
1113.529627 286.336875 translate
0.000000 rotate
/DejaVuSans 30.0 selectfont
0.000000 0.203125 moveto
/one glyphshow
19.086914 0.203125 moveto
/zero glyphshow
/DejaVuSans 21.0 selectfont
38.460938 11.687500 moveto
/one glyphshow
grestore
2.000 setlinewidth
2 setlinecap
0.690 setgray
gsave
646.322 429.28 955.366 316.134 clipbox
1293.915774 316.13375 m
1293.915774 745.41375 l
stroke
grestore
0.800 setlinewidth
0 setlinecap
0.000 setgray
gsave
/o {
gsave
newpath
translate
0.8 setlinewidth
1 setlinejoin

0 setlinecap

0 0 m
0 -3.5 l

gsave
0.000 setgray
fill
grestore
stroke
grestore
} bind def
1293.92 316.134 o
grestore
gsave
1267.415774 286.336875 translate
0.000000 rotate
/DejaVuSans 30.0 selectfont
0.000000 0.929688 moveto
/one glyphshow
19.086914 0.929688 moveto
/zero glyphshow
/DejaVuSans 21.0 selectfont
38.460938 12.414062 moveto
/two glyphshow
grestore
2.000 setlinewidth
2 setlinecap
0.690 setgray
gsave
646.322 429.28 955.366 316.134 clipbox
1447.801921 316.13375 m
1447.801921 745.41375 l
stroke
grestore
0.800 setlinewidth
0 setlinecap
0.000 setgray
gsave
/o {
gsave
newpath
translate
0.8 setlinewidth
1 setlinejoin

0 setlinecap

0 0 m
0 -3.5 l

gsave
0.000 setgray
fill
grestore
stroke
grestore
} bind def
1447.8 316.134 o
grestore
gsave
1421.301921 286.336875 translate
0.000000 rotate
/DejaVuSans 30.0 selectfont
0.000000 0.929688 moveto
/one glyphshow
19.086914 0.929688 moveto
/zero glyphshow
/DejaVuSans 21.0 selectfont
38.460938 12.414062 moveto
/three glyphshow
grestore
2.000 setlinewidth
2 setlinecap
0.690 setgray
gsave
646.322 429.28 955.366 316.134 clipbox
1601.688069 316.13375 m
1601.688069 745.41375 l
stroke
grestore
0.800 setlinewidth
0 setlinecap
0.000 setgray
gsave
/o {
gsave
newpath
translate
0.8 setlinewidth
1 setlinejoin

0 setlinecap

0 0 m
0 -3.5 l

gsave
0.000 setgray
fill
grestore
stroke
grestore
} bind def
1601.69 316.134 o
grestore
gsave
1575.188069 286.336875 translate
0.000000 rotate
/DejaVuSans 30.0 selectfont
0.000000 0.203125 moveto
/one glyphshow
19.086914 0.203125 moveto
/zero glyphshow
/DejaVuSans 21.0 selectfont
38.460938 11.687500 moveto
/four glyphshow
grestore
1.000 setlinewidth
2 setlinecap
0.690 setgray
gsave
646.322 429.28 955.366 316.134 clipbox
962.306214 316.13375 m
962.306214 745.41375 l
stroke
grestore
0.600 setlinewidth
0 setlinecap
0.000 setgray
gsave
/o {
gsave
newpath
translate
0.6 setlinewidth
1 setlinejoin

0 setlinecap

0 0 m
0 -2 l

gsave
0.000 setgray
fill
grestore
stroke
grestore
} bind def
962.306 316.134 o
grestore
1.000 setlinewidth
2 setlinecap
0.690 setgray
gsave
646.322 429.28 955.366 316.134 clipbox
971.230371 316.13375 m
971.230371 745.41375 l
stroke
grestore
0.600 setlinewidth
0 setlinecap
0.000 setgray
gsave
/o {
gsave
newpath
translate
0.6 setlinewidth
1 setlinejoin

0 setlinecap

0 0 m
0 -2 l

gsave
0.000 setgray
fill
grestore
stroke
grestore
} bind def
971.23 316.134 o
grestore
1.000 setlinewidth
2 setlinecap
0.690 setgray
gsave
646.322 429.28 955.366 316.134 clipbox
979.102036 316.13375 m
979.102036 745.41375 l
stroke
grestore
0.600 setlinewidth
0 setlinecap
0.000 setgray
gsave
/o {
gsave
newpath
translate
0.6 setlinewidth
1 setlinejoin

0 setlinecap

0 0 m
0 -2 l

gsave
0.000 setgray
fill
grestore
stroke
grestore
} bind def
979.102 316.134 o
grestore
1.000 setlinewidth
2 setlinecap
0.690 setgray
gsave
646.322 429.28 955.366 316.134 clipbox
1032.467826 316.13375 m
1032.467826 745.41375 l
stroke
grestore
0.600 setlinewidth
0 setlinecap
0.000 setgray
gsave
/o {
gsave
newpath
translate
0.6 setlinewidth
1 setlinejoin

0 setlinecap

0 0 m
0 -2 l

gsave
0.000 setgray
fill
grestore
stroke
grestore
} bind def
1032.47 316.134 o
grestore
1.000 setlinewidth
2 setlinecap
0.690 setgray
gsave
646.322 429.28 955.366 316.134 clipbox
1059.565831 316.13375 m
1059.565831 745.41375 l
stroke
grestore
0.600 setlinewidth
0 setlinecap
0.000 setgray
gsave
/o {
gsave
newpath
translate
0.6 setlinewidth
1 setlinejoin

0 setlinecap

0 0 m
0 -2 l

gsave
0.000 setgray
fill
grestore
stroke
grestore
} bind def
1059.57 316.134 o
grestore
1.000 setlinewidth
2 setlinecap
0.690 setgray
gsave
646.322 429.28 955.366 316.134 clipbox
1078.792172 316.13375 m
1078.792172 745.41375 l
stroke
grestore
0.600 setlinewidth
0 setlinecap
0.000 setgray
gsave
/o {
gsave
newpath
translate
0.6 setlinewidth
1 setlinejoin

0 setlinecap

0 0 m
0 -2 l

gsave
0.000 setgray
fill
grestore
stroke
grestore
} bind def
1078.79 316.134 o
grestore
1.000 setlinewidth
2 setlinecap
0.690 setgray
gsave
646.322 429.28 955.366 316.134 clipbox
1093.70528 316.13375 m
1093.70528 745.41375 l
stroke
grestore
0.600 setlinewidth
0 setlinecap
0.000 setgray
gsave
/o {
gsave
newpath
translate
0.6 setlinewidth
1 setlinejoin

0 setlinecap

0 0 m
0 -2 l

gsave
0.000 setgray
fill
grestore
stroke
grestore
} bind def
1093.71 316.134 o
grestore
1.000 setlinewidth
2 setlinecap
0.690 setgray
gsave
646.322 429.28 955.366 316.134 clipbox
1105.890177 316.13375 m
1105.890177 745.41375 l
stroke
grestore
0.600 setlinewidth
0 setlinecap
0.000 setgray
gsave
/o {
gsave
newpath
translate
0.6 setlinewidth
1 setlinejoin

0 setlinecap

0 0 m
0 -2 l

gsave
0.000 setgray
fill
grestore
stroke
grestore
} bind def
1105.89 316.134 o
grestore
1.000 setlinewidth
2 setlinecap
0.690 setgray
gsave
646.322 429.28 955.366 316.134 clipbox
1116.192361 316.13375 m
1116.192361 745.41375 l
stroke
grestore
0.600 setlinewidth
0 setlinecap
0.000 setgray
gsave
/o {
gsave
newpath
translate
0.6 setlinewidth
1 setlinejoin

0 setlinecap

0 0 m
0 -2 l

gsave
0.000 setgray
fill
grestore
stroke
grestore
} bind def
1116.19 316.134 o
grestore
1.000 setlinewidth
2 setlinecap
0.690 setgray
gsave
646.322 429.28 955.366 316.134 clipbox
1125.116518 316.13375 m
1125.116518 745.41375 l
stroke
grestore
0.600 setlinewidth
0 setlinecap
0.000 setgray
gsave
/o {
gsave
newpath
translate
0.6 setlinewidth
1 setlinejoin

0 setlinecap

0 0 m
0 -2 l

gsave
0.000 setgray
fill
grestore
stroke
grestore
} bind def
1125.12 316.134 o
grestore
1.000 setlinewidth
2 setlinecap
0.690 setgray
gsave
646.322 429.28 955.366 316.134 clipbox
1132.988183 316.13375 m
1132.988183 745.41375 l
stroke
grestore
0.600 setlinewidth
0 setlinecap
0.000 setgray
gsave
/o {
gsave
newpath
translate
0.6 setlinewidth
1 setlinejoin

0 setlinecap

0 0 m
0 -2 l

gsave
0.000 setgray
fill
grestore
stroke
grestore
} bind def
1132.99 316.134 o
grestore
1.000 setlinewidth
2 setlinecap
0.690 setgray
gsave
646.322 429.28 955.366 316.134 clipbox
1186.353973 316.13375 m
1186.353973 745.41375 l
stroke
grestore
0.600 setlinewidth
0 setlinecap
0.000 setgray
gsave
/o {
gsave
newpath
translate
0.6 setlinewidth
1 setlinejoin

0 setlinecap

0 0 m
0 -2 l

gsave
0.000 setgray
fill
grestore
stroke
grestore
} bind def
1186.35 316.134 o
grestore
1.000 setlinewidth
2 setlinecap
0.690 setgray
gsave
646.322 429.28 955.366 316.134 clipbox
1213.451978 316.13375 m
1213.451978 745.41375 l
stroke
grestore
0.600 setlinewidth
0 setlinecap
0.000 setgray
gsave
/o {
gsave
newpath
translate
0.6 setlinewidth
1 setlinejoin

0 setlinecap

0 0 m
0 -2 l

gsave
0.000 setgray
fill
grestore
stroke
grestore
} bind def
1213.45 316.134 o
grestore
1.000 setlinewidth
2 setlinecap
0.690 setgray
gsave
646.322 429.28 955.366 316.134 clipbox
1232.678319 316.13375 m
1232.678319 745.41375 l
stroke
grestore
0.600 setlinewidth
0 setlinecap
0.000 setgray
gsave
/o {
gsave
newpath
translate
0.6 setlinewidth
1 setlinejoin

0 setlinecap

0 0 m
0 -2 l

gsave
0.000 setgray
fill
grestore
stroke
grestore
} bind def
1232.68 316.134 o
grestore
1.000 setlinewidth
2 setlinecap
0.690 setgray
gsave
646.322 429.28 955.366 316.134 clipbox
1247.591428 316.13375 m
1247.591428 745.41375 l
stroke
grestore
0.600 setlinewidth
0 setlinecap
0.000 setgray
gsave
/o {
gsave
newpath
translate
0.6 setlinewidth
1 setlinejoin

0 setlinecap

0 0 m
0 -2 l

gsave
0.000 setgray
fill
grestore
stroke
grestore
} bind def
1247.59 316.134 o
grestore
1.000 setlinewidth
2 setlinecap
0.690 setgray
gsave
646.322 429.28 955.366 316.134 clipbox
1259.776325 316.13375 m
1259.776325 745.41375 l
stroke
grestore
0.600 setlinewidth
0 setlinecap
0.000 setgray
gsave
/o {
gsave
newpath
translate
0.6 setlinewidth
1 setlinejoin

0 setlinecap

0 0 m
0 -2 l

gsave
0.000 setgray
fill
grestore
stroke
grestore
} bind def
1259.78 316.134 o
grestore
1.000 setlinewidth
2 setlinecap
0.690 setgray
gsave
646.322 429.28 955.366 316.134 clipbox
1270.078508 316.13375 m
1270.078508 745.41375 l
stroke
grestore
0.600 setlinewidth
0 setlinecap
0.000 setgray
gsave
/o {
gsave
newpath
translate
0.6 setlinewidth
1 setlinejoin

0 setlinecap

0 0 m
0 -2 l

gsave
0.000 setgray
fill
grestore
stroke
grestore
} bind def
1270.08 316.134 o
grestore
1.000 setlinewidth
2 setlinecap
0.690 setgray
gsave
646.322 429.28 955.366 316.134 clipbox
1279.002665 316.13375 m
1279.002665 745.41375 l
stroke
grestore
0.600 setlinewidth
0 setlinecap
0.000 setgray
gsave
/o {
gsave
newpath
translate
0.6 setlinewidth
1 setlinejoin

0 setlinecap

0 0 m
0 -2 l

gsave
0.000 setgray
fill
grestore
stroke
grestore
} bind def
1279 316.134 o
grestore
1.000 setlinewidth
2 setlinecap
0.690 setgray
gsave
646.322 429.28 955.366 316.134 clipbox
1286.87433 316.13375 m
1286.87433 745.41375 l
stroke
grestore
0.600 setlinewidth
0 setlinecap
0.000 setgray
gsave
/o {
gsave
newpath
translate
0.6 setlinewidth
1 setlinejoin

0 setlinecap

0 0 m
0 -2 l

gsave
0.000 setgray
fill
grestore
stroke
grestore
} bind def
1286.87 316.134 o
grestore
1.000 setlinewidth
2 setlinecap
0.690 setgray
gsave
646.322 429.28 955.366 316.134 clipbox
1340.24012 316.13375 m
1340.24012 745.41375 l
stroke
grestore
0.600 setlinewidth
0 setlinecap
0.000 setgray
gsave
/o {
gsave
newpath
translate
0.6 setlinewidth
1 setlinejoin

0 setlinecap

0 0 m
0 -2 l

gsave
0.000 setgray
fill
grestore
stroke
grestore
} bind def
1340.24 316.134 o
grestore
1.000 setlinewidth
2 setlinecap
0.690 setgray
gsave
646.322 429.28 955.366 316.134 clipbox
1367.338126 316.13375 m
1367.338126 745.41375 l
stroke
grestore
0.600 setlinewidth
0 setlinecap
0.000 setgray
gsave
/o {
gsave
newpath
translate
0.6 setlinewidth
1 setlinejoin

0 setlinecap

0 0 m
0 -2 l

gsave
0.000 setgray
fill
grestore
stroke
grestore
} bind def
1367.34 316.134 o
grestore
1.000 setlinewidth
2 setlinecap
0.690 setgray
gsave
646.322 429.28 955.366 316.134 clipbox
1386.564466 316.13375 m
1386.564466 745.41375 l
stroke
grestore
0.600 setlinewidth
0 setlinecap
0.000 setgray
gsave
/o {
gsave
newpath
translate
0.6 setlinewidth
1 setlinejoin

0 setlinecap

0 0 m
0 -2 l

gsave
0.000 setgray
fill
grestore
stroke
grestore
} bind def
1386.56 316.134 o
grestore
1.000 setlinewidth
2 setlinecap
0.690 setgray
gsave
646.322 429.28 955.366 316.134 clipbox
1401.477575 316.13375 m
1401.477575 745.41375 l
stroke
grestore
0.600 setlinewidth
0 setlinecap
0.000 setgray
gsave
/o {
gsave
newpath
translate
0.6 setlinewidth
1 setlinejoin

0 setlinecap

0 0 m
0 -2 l

gsave
0.000 setgray
fill
grestore
stroke
grestore
} bind def
1401.48 316.134 o
grestore
1.000 setlinewidth
2 setlinecap
0.690 setgray
gsave
646.322 429.28 955.366 316.134 clipbox
1413.662472 316.13375 m
1413.662472 745.41375 l
stroke
grestore
0.600 setlinewidth
0 setlinecap
0.000 setgray
gsave
/o {
gsave
newpath
translate
0.6 setlinewidth
1 setlinejoin

0 setlinecap

0 0 m
0 -2 l

gsave
0.000 setgray
fill
grestore
stroke
grestore
} bind def
1413.66 316.134 o
grestore
1.000 setlinewidth
2 setlinecap
0.690 setgray
gsave
646.322 429.28 955.366 316.134 clipbox
1423.964655 316.13375 m
1423.964655 745.41375 l
stroke
grestore
0.600 setlinewidth
0 setlinecap
0.000 setgray
gsave
/o {
gsave
newpath
translate
0.6 setlinewidth
1 setlinejoin

0 setlinecap

0 0 m
0 -2 l

gsave
0.000 setgray
fill
grestore
stroke
grestore
} bind def
1423.96 316.134 o
grestore
1.000 setlinewidth
2 setlinecap
0.690 setgray
gsave
646.322 429.28 955.366 316.134 clipbox
1432.888813 316.13375 m
1432.888813 745.41375 l
stroke
grestore
0.600 setlinewidth
0 setlinecap
0.000 setgray
gsave
/o {
gsave
newpath
translate
0.6 setlinewidth
1 setlinejoin

0 setlinecap

0 0 m
0 -2 l

gsave
0.000 setgray
fill
grestore
stroke
grestore
} bind def
1432.89 316.134 o
grestore
1.000 setlinewidth
2 setlinecap
0.690 setgray
gsave
646.322 429.28 955.366 316.134 clipbox
1440.760477 316.13375 m
1440.760477 745.41375 l
stroke
grestore
0.600 setlinewidth
0 setlinecap
0.000 setgray
gsave
/o {
gsave
newpath
translate
0.6 setlinewidth
1 setlinejoin

0 setlinecap

0 0 m
0 -2 l

gsave
0.000 setgray
fill
grestore
stroke
grestore
} bind def
1440.76 316.134 o
grestore
1.000 setlinewidth
2 setlinecap
0.690 setgray
gsave
646.322 429.28 955.366 316.134 clipbox
1494.126268 316.13375 m
1494.126268 745.41375 l
stroke
grestore
0.600 setlinewidth
0 setlinecap
0.000 setgray
gsave
/o {
gsave
newpath
translate
0.6 setlinewidth
1 setlinejoin

0 setlinecap

0 0 m
0 -2 l

gsave
0.000 setgray
fill
grestore
stroke
grestore
} bind def
1494.13 316.134 o
grestore
1.000 setlinewidth
2 setlinecap
0.690 setgray
gsave
646.322 429.28 955.366 316.134 clipbox
1521.224273 316.13375 m
1521.224273 745.41375 l
stroke
grestore
0.600 setlinewidth
0 setlinecap
0.000 setgray
gsave
/o {
gsave
newpath
translate
0.6 setlinewidth
1 setlinejoin

0 setlinecap

0 0 m
0 -2 l

gsave
0.000 setgray
fill
grestore
stroke
grestore
} bind def
1521.22 316.134 o
grestore
1.000 setlinewidth
2 setlinecap
0.690 setgray
gsave
646.322 429.28 955.366 316.134 clipbox
1540.450614 316.13375 m
1540.450614 745.41375 l
stroke
grestore
0.600 setlinewidth
0 setlinecap
0.000 setgray
gsave
/o {
gsave
newpath
translate
0.6 setlinewidth
1 setlinejoin

0 setlinecap

0 0 m
0 -2 l

gsave
0.000 setgray
fill
grestore
stroke
grestore
} bind def
1540.45 316.134 o
grestore
1.000 setlinewidth
2 setlinecap
0.690 setgray
gsave
646.322 429.28 955.366 316.134 clipbox
1555.363722 316.13375 m
1555.363722 745.41375 l
stroke
grestore
0.600 setlinewidth
0 setlinecap
0.000 setgray
gsave
/o {
gsave
newpath
translate
0.6 setlinewidth
1 setlinejoin

0 setlinecap

0 0 m
0 -2 l

gsave
0.000 setgray
fill
grestore
stroke
grestore
} bind def
1555.36 316.134 o
grestore
1.000 setlinewidth
2 setlinecap
0.690 setgray
gsave
646.322 429.28 955.366 316.134 clipbox
1567.548619 316.13375 m
1567.548619 745.41375 l
stroke
grestore
0.600 setlinewidth
0 setlinecap
0.000 setgray
gsave
/o {
gsave
newpath
translate
0.6 setlinewidth
1 setlinejoin

0 setlinecap

0 0 m
0 -2 l

gsave
0.000 setgray
fill
grestore
stroke
grestore
} bind def
1567.55 316.134 o
grestore
1.000 setlinewidth
2 setlinecap
0.690 setgray
gsave
646.322 429.28 955.366 316.134 clipbox
1577.850803 316.13375 m
1577.850803 745.41375 l
stroke
grestore
0.600 setlinewidth
0 setlinecap
0.000 setgray
gsave
/o {
gsave
newpath
translate
0.6 setlinewidth
1 setlinejoin

0 setlinecap

0 0 m
0 -2 l

gsave
0.000 setgray
fill
grestore
stroke
grestore
} bind def
1577.85 316.134 o
grestore
1.000 setlinewidth
2 setlinecap
0.690 setgray
gsave
646.322 429.28 955.366 316.134 clipbox
1586.77496 316.13375 m
1586.77496 745.41375 l
stroke
grestore
0.600 setlinewidth
0 setlinecap
0.000 setgray
gsave
/o {
gsave
newpath
translate
0.6 setlinewidth
1 setlinejoin

0 setlinecap

0 0 m
0 -2 l

gsave
0.000 setgray
fill
grestore
stroke
grestore
} bind def
1586.77 316.134 o
grestore
1.000 setlinewidth
2 setlinecap
0.690 setgray
gsave
646.322 429.28 955.366 316.134 clipbox
1594.646625 316.13375 m
1594.646625 745.41375 l
stroke
grestore
0.600 setlinewidth
0 setlinecap
0.000 setgray
gsave
/o {
gsave
newpath
translate
0.6 setlinewidth
1 setlinejoin

0 setlinecap

0 0 m
0 -2 l

gsave
0.000 setgray
fill
grestore
stroke
grestore
} bind def
1594.65 316.134 o
grestore
/DejaVuSans 30.000 selectfont
gsave

1155.449034 253.305625 translate
0.000000 rotate
0.000000 0 m /numbersign glyphshow
25.136719 0 m /space glyphshow
34.672852 0 m /e glyphshow
52.629883 0 m /x glyphshow
70.383789 0 m /p glyphshow
89.426758 0 m /l glyphshow
97.761719 0 m /i glyphshow
106.096680 0 m /c glyphshow
122.590820 0 m /i glyphshow
130.925781 0 m /t glyphshow
142.688477 0 m /space glyphshow
152.224609 0 m /t glyphshow
163.987305 0 m /r glyphshow
176.321289 0 m /i glyphshow
184.656250 0 m /p glyphshow
203.699219 0 m /l glyphshow
212.034180 0 m /e glyphshow
230.491211 0 m /s glyphshow
grestore
2.000 setlinewidth
2 setlinecap
0.690 setgray
gsave
646.322 429.28 955.366 316.134 clipbox
955.36625 403.717777 m
1601.688069 403.717777 l
stroke
grestore
0.800 setlinewidth
0 setlinecap
0.000 setgray
gsave
/o {
gsave
newpath
translate
0.8 setlinewidth
1 setlinejoin

0 setlinecap

-0 0 m
-3.5 0 l

gsave
0.000 setgray
fill
grestore
stroke
grestore
} bind def
955.366 403.718 o
grestore
gsave
895.366250 392.319339 translate
0.000000 rotate
/DejaVuSans 30.0 selectfont
0.000000 0.203125 moveto
/one glyphshow
19.086914 0.203125 moveto
/zero glyphshow
/DejaVuSans 21.0 selectfont
38.460938 11.687500 moveto
/one glyphshow
grestore
2.000 setlinewidth
2 setlinecap
0.690 setgray
gsave
646.322 429.28 955.366 316.134 clipbox
955.36625 533.903408 m
1601.688069 533.903408 l
stroke
grestore
0.800 setlinewidth
0 setlinecap
0.000 setgray
gsave
/o {
gsave
newpath
translate
0.8 setlinewidth
1 setlinejoin

0 setlinecap

-0 0 m
-3.5 0 l

gsave
0.000 setgray
fill
grestore
stroke
grestore
} bind def
955.366 533.903 o
grestore
gsave
895.366250 522.504970 translate
0.000000 rotate
/DejaVuSans 30.0 selectfont
0.000000 0.929688 moveto
/one glyphshow
19.086914 0.929688 moveto
/zero glyphshow
/DejaVuSans 21.0 selectfont
38.460938 12.414062 moveto
/two glyphshow
grestore
2.000 setlinewidth
2 setlinecap
0.690 setgray
gsave
646.322 429.28 955.366 316.134 clipbox
955.36625 664.089039 m
1601.688069 664.089039 l
stroke
grestore
0.800 setlinewidth
0 setlinecap
0.000 setgray
gsave
/o {
gsave
newpath
translate
0.8 setlinewidth
1 setlinejoin

0 setlinecap

-0 0 m
-3.5 0 l

gsave
0.000 setgray
fill
grestore
stroke
grestore
} bind def
955.366 664.089 o
grestore
gsave
895.366250 652.690601 translate
0.000000 rotate
/DejaVuSans 30.0 selectfont
0.000000 0.929688 moveto
/one glyphshow
19.086914 0.929688 moveto
/zero glyphshow
/DejaVuSans 21.0 selectfont
38.460938 12.414062 moveto
/three glyphshow
grestore
1.000 setlinewidth
2 setlinecap
0.690 setgray
gsave
646.322 429.28 955.366 316.134 clipbox
955.36625 335.646477 m
1601.688069 335.646477 l
stroke
grestore
0.600 setlinewidth
0 setlinecap
0.000 setgray
gsave
/o {
gsave
newpath
translate
0.6 setlinewidth
1 setlinejoin

0 setlinecap

-0 0 m
-2 0 l

gsave
0.000 setgray
fill
grestore
stroke
grestore
} bind def
955.366 335.646 o
grestore
1.000 setlinewidth
2 setlinecap
0.690 setgray
gsave
646.322 429.28 955.366 316.134 clipbox
955.36625 351.911706 m
1601.688069 351.911706 l
stroke
grestore
0.600 setlinewidth
0 setlinecap
0.000 setgray
gsave
/o {
gsave
newpath
translate
0.6 setlinewidth
1 setlinejoin

0 setlinecap

-0 0 m
-2 0 l

gsave
0.000 setgray
fill
grestore
stroke
grestore
} bind def
955.366 351.912 o
grestore
1.000 setlinewidth
2 setlinecap
0.690 setgray
gsave
646.322 429.28 955.366 316.134 clipbox
955.36625 364.527997 m
1601.688069 364.527997 l
stroke
grestore
0.600 setlinewidth
0 setlinecap
0.000 setgray
gsave
/o {
gsave
newpath
translate
0.6 setlinewidth
1 setlinejoin

0 setlinecap

-0 0 m
-2 0 l

gsave
0.000 setgray
fill
grestore
stroke
grestore
} bind def
955.366 364.528 o
grestore
1.000 setlinewidth
2 setlinecap
0.690 setgray
gsave
646.322 429.28 955.366 316.134 clipbox
955.36625 374.836257 m
1601.688069 374.836257 l
stroke
grestore
0.600 setlinewidth
0 setlinecap
0.000 setgray
gsave
/o {
gsave
newpath
translate
0.6 setlinewidth
1 setlinejoin

0 setlinecap

-0 0 m
-2 0 l

gsave
0.000 setgray
fill
grestore
stroke
grestore
} bind def
955.366 374.836 o
grestore
1.000 setlinewidth
2 setlinecap
0.690 setgray
gsave
646.322 429.28 955.366 316.134 clipbox
955.36625 383.551767 m
1601.688069 383.551767 l
stroke
grestore
0.600 setlinewidth
0 setlinecap
0.000 setgray
gsave
/o {
gsave
newpath
translate
0.6 setlinewidth
1 setlinejoin

0 setlinecap

-0 0 m
-2 0 l

gsave
0.000 setgray
fill
grestore
stroke
grestore
} bind def
955.366 383.552 o
grestore
1.000 setlinewidth
2 setlinecap
0.690 setgray
gsave
646.322 429.28 955.366 316.134 clipbox
955.36625 391.101486 m
1601.688069 391.101486 l
stroke
grestore
0.600 setlinewidth
0 setlinecap
0.000 setgray
gsave
/o {
gsave
newpath
translate
0.6 setlinewidth
1 setlinejoin

0 setlinecap

-0 0 m
-2 0 l

gsave
0.000 setgray
fill
grestore
stroke
grestore
} bind def
955.366 391.101 o
grestore
1.000 setlinewidth
2 setlinecap
0.690 setgray
gsave
646.322 429.28 955.366 316.134 clipbox
955.36625 397.760809 m
1601.688069 397.760809 l
stroke
grestore
0.600 setlinewidth
0 setlinecap
0.000 setgray
gsave
/o {
gsave
newpath
translate
0.6 setlinewidth
1 setlinejoin

0 setlinecap

-0 0 m
-2 0 l

gsave
0.000 setgray
fill
grestore
stroke
grestore
} bind def
955.366 397.761 o
grestore
1.000 setlinewidth
2 setlinecap
0.690 setgray
gsave
646.322 429.28 955.366 316.134 clipbox
955.36625 442.907557 m
1601.688069 442.907557 l
stroke
grestore
0.600 setlinewidth
0 setlinecap
0.000 setgray
gsave
/o {
gsave
newpath
translate
0.6 setlinewidth
1 setlinejoin

0 setlinecap

-0 0 m
-2 0 l

gsave
0.000 setgray
fill
grestore
stroke
grestore
} bind def
955.366 442.908 o
grestore
1.000 setlinewidth
2 setlinecap
0.690 setgray
gsave
646.322 429.28 955.366 316.134 clipbox
955.36625 465.832108 m
1601.688069 465.832108 l
stroke
grestore
0.600 setlinewidth
0 setlinecap
0.000 setgray
gsave
/o {
gsave
newpath
translate
0.6 setlinewidth
1 setlinejoin

0 setlinecap

-0 0 m
-2 0 l

gsave
0.000 setgray
fill
grestore
stroke
grestore
} bind def
955.366 465.832 o
grestore
1.000 setlinewidth
2 setlinecap
0.690 setgray
gsave
646.322 429.28 955.366 316.134 clipbox
955.36625 482.097337 m
1601.688069 482.097337 l
stroke
grestore
0.600 setlinewidth
0 setlinecap
0.000 setgray
gsave
/o {
gsave
newpath
translate
0.6 setlinewidth
1 setlinejoin

0 setlinecap

-0 0 m
-2 0 l

gsave
0.000 setgray
fill
grestore
stroke
grestore
} bind def
955.366 482.097 o
grestore
1.000 setlinewidth
2 setlinecap
0.690 setgray
gsave
646.322 429.28 955.366 316.134 clipbox
955.36625 494.713628 m
1601.688069 494.713628 l
stroke
grestore
0.600 setlinewidth
0 setlinecap
0.000 setgray
gsave
/o {
gsave
newpath
translate
0.6 setlinewidth
1 setlinejoin

0 setlinecap

-0 0 m
-2 0 l

gsave
0.000 setgray
fill
grestore
stroke
grestore
} bind def
955.366 494.714 o
grestore
1.000 setlinewidth
2 setlinecap
0.690 setgray
gsave
646.322 429.28 955.366 316.134 clipbox
955.36625 505.021888 m
1601.688069 505.021888 l
stroke
grestore
0.600 setlinewidth
0 setlinecap
0.000 setgray
gsave
/o {
gsave
newpath
translate
0.6 setlinewidth
1 setlinejoin

0 setlinecap

-0 0 m
-2 0 l

gsave
0.000 setgray
fill
grestore
stroke
grestore
} bind def
955.366 505.022 o
grestore
1.000 setlinewidth
2 setlinecap
0.690 setgray
gsave
646.322 429.28 955.366 316.134 clipbox
955.36625 513.737398 m
1601.688069 513.737398 l
stroke
grestore
0.600 setlinewidth
0 setlinecap
0.000 setgray
gsave
/o {
gsave
newpath
translate
0.6 setlinewidth
1 setlinejoin

0 setlinecap

-0 0 m
-2 0 l

gsave
0.000 setgray
fill
grestore
stroke
grestore
} bind def
955.366 513.737 o
grestore
1.000 setlinewidth
2 setlinecap
0.690 setgray
gsave
646.322 429.28 955.366 316.134 clipbox
955.36625 521.287117 m
1601.688069 521.287117 l
stroke
grestore
0.600 setlinewidth
0 setlinecap
0.000 setgray
gsave
/o {
gsave
newpath
translate
0.6 setlinewidth
1 setlinejoin

0 setlinecap

-0 0 m
-2 0 l

gsave
0.000 setgray
fill
grestore
stroke
grestore
} bind def
955.366 521.287 o
grestore
1.000 setlinewidth
2 setlinecap
0.690 setgray
gsave
646.322 429.28 955.366 316.134 clipbox
955.36625 527.94644 m
1601.688069 527.94644 l
stroke
grestore
0.600 setlinewidth
0 setlinecap
0.000 setgray
gsave
/o {
gsave
newpath
translate
0.6 setlinewidth
1 setlinejoin

0 setlinecap

-0 0 m
-2 0 l

gsave
0.000 setgray
fill
grestore
stroke
grestore
} bind def
955.366 527.946 o
grestore
1.000 setlinewidth
2 setlinecap
0.690 setgray
gsave
646.322 429.28 955.366 316.134 clipbox
955.36625 573.093188 m
1601.688069 573.093188 l
stroke
grestore
0.600 setlinewidth
0 setlinecap
0.000 setgray
gsave
/o {
gsave
newpath
translate
0.6 setlinewidth
1 setlinejoin

0 setlinecap

-0 0 m
-2 0 l

gsave
0.000 setgray
fill
grestore
stroke
grestore
} bind def
955.366 573.093 o
grestore
1.000 setlinewidth
2 setlinecap
0.690 setgray
gsave
646.322 429.28 955.366 316.134 clipbox
955.36625 596.017739 m
1601.688069 596.017739 l
stroke
grestore
0.600 setlinewidth
0 setlinecap
0.000 setgray
gsave
/o {
gsave
newpath
translate
0.6 setlinewidth
1 setlinejoin

0 setlinecap

-0 0 m
-2 0 l

gsave
0.000 setgray
fill
grestore
stroke
grestore
} bind def
955.366 596.018 o
grestore
1.000 setlinewidth
2 setlinecap
0.690 setgray
gsave
646.322 429.28 955.366 316.134 clipbox
955.36625 612.282968 m
1601.688069 612.282968 l
stroke
grestore
0.600 setlinewidth
0 setlinecap
0.000 setgray
gsave
/o {
gsave
newpath
translate
0.6 setlinewidth
1 setlinejoin

0 setlinecap

-0 0 m
-2 0 l

gsave
0.000 setgray
fill
grestore
stroke
grestore
} bind def
955.366 612.283 o
grestore
1.000 setlinewidth
2 setlinecap
0.690 setgray
gsave
646.322 429.28 955.366 316.134 clipbox
955.36625 624.899259 m
1601.688069 624.899259 l
stroke
grestore
0.600 setlinewidth
0 setlinecap
0.000 setgray
gsave
/o {
gsave
newpath
translate
0.6 setlinewidth
1 setlinejoin

0 setlinecap

-0 0 m
-2 0 l

gsave
0.000 setgray
fill
grestore
stroke
grestore
} bind def
955.366 624.899 o
grestore
1.000 setlinewidth
2 setlinecap
0.690 setgray
gsave
646.322 429.28 955.366 316.134 clipbox
955.36625 635.207519 m
1601.688069 635.207519 l
stroke
grestore
0.600 setlinewidth
0 setlinecap
0.000 setgray
gsave
/o {
gsave
newpath
translate
0.6 setlinewidth
1 setlinejoin

0 setlinecap

-0 0 m
-2 0 l

gsave
0.000 setgray
fill
grestore
stroke
grestore
} bind def
955.366 635.208 o
grestore
1.000 setlinewidth
2 setlinecap
0.690 setgray
gsave
646.322 429.28 955.366 316.134 clipbox
955.36625 643.923029 m
1601.688069 643.923029 l
stroke
grestore
0.600 setlinewidth
0 setlinecap
0.000 setgray
gsave
/o {
gsave
newpath
translate
0.6 setlinewidth
1 setlinejoin

0 setlinecap

-0 0 m
-2 0 l

gsave
0.000 setgray
fill
grestore
stroke
grestore
} bind def
955.366 643.923 o
grestore
1.000 setlinewidth
2 setlinecap
0.690 setgray
gsave
646.322 429.28 955.366 316.134 clipbox
955.36625 651.472748 m
1601.688069 651.472748 l
stroke
grestore
0.600 setlinewidth
0 setlinecap
0.000 setgray
gsave
/o {
gsave
newpath
translate
0.6 setlinewidth
1 setlinejoin

0 setlinecap

-0 0 m
-2 0 l

gsave
0.000 setgray
fill
grestore
stroke
grestore
} bind def
955.366 651.473 o
grestore
1.000 setlinewidth
2 setlinecap
0.690 setgray
gsave
646.322 429.28 955.366 316.134 clipbox
955.36625 658.132071 m
1601.688069 658.132071 l
stroke
grestore
0.600 setlinewidth
0 setlinecap
0.000 setgray
gsave
/o {
gsave
newpath
translate
0.6 setlinewidth
1 setlinejoin

0 setlinecap

-0 0 m
-2 0 l

gsave
0.000 setgray
fill
grestore
stroke
grestore
} bind def
955.366 658.132 o
grestore
1.000 setlinewidth
2 setlinecap
0.690 setgray
gsave
646.322 429.28 955.366 316.134 clipbox
955.36625 703.278819 m
1601.688069 703.278819 l
stroke
grestore
0.600 setlinewidth
0 setlinecap
0.000 setgray
gsave
/o {
gsave
newpath
translate
0.6 setlinewidth
1 setlinejoin

0 setlinecap

-0 0 m
-2 0 l

gsave
0.000 setgray
fill
grestore
stroke
grestore
} bind def
955.366 703.279 o
grestore
1.000 setlinewidth
2 setlinecap
0.690 setgray
gsave
646.322 429.28 955.366 316.134 clipbox
955.36625 726.203371 m
1601.688069 726.203371 l
stroke
grestore
0.600 setlinewidth
0 setlinecap
0.000 setgray
gsave
/o {
gsave
newpath
translate
0.6 setlinewidth
1 setlinejoin

0 setlinecap

-0 0 m
-2 0 l

gsave
0.000 setgray
fill
grestore
stroke
grestore
} bind def
955.366 726.203 o
grestore
1.000 setlinewidth
2 setlinecap
0.690 setgray
gsave
646.322 429.28 955.366 316.134 clipbox
955.36625 742.468599 m
1601.688069 742.468599 l
stroke
grestore
0.600 setlinewidth
0 setlinecap
0.000 setgray
gsave
/o {
gsave
newpath
translate
0.6 setlinewidth
1 setlinejoin

0 setlinecap

-0 0 m
-2 0 l

gsave
0.000 setgray
fill
grestore
stroke
grestore
} bind def
955.366 742.469 o
grestore
gsave

885.131875 379.586250 translate
90.000000 rotate
0.000000 0 m /E glyphshow
18.955078 0 m /x glyphshow
35.833984 0 m /e glyphshow
54.291016 0 m /c glyphshow
70.785156 0 m /u glyphshow
89.798828 0 m /t glyphshow
101.561523 0 m /i glyphshow
109.896484 0 m /o glyphshow
128.250977 0 m /n glyphshow
147.264648 0 m /space glyphshow
156.800781 0 m /t glyphshow
168.563477 0 m /i glyphshow
176.898438 0 m /m glyphshow
206.122070 0 m /e glyphshow
224.579102 0 m /space glyphshow
234.115234 0 m /parenleft glyphshow
245.819336 0 m /m glyphshow
275.042969 0 m /s glyphshow
290.672852 0 m /parenright glyphshow
grestore
4.000 setlinewidth
[14.8 6.4] 0 setdash
0.000 0.000 1.000 setrgbcolor
gsave
646.322 429.28 955.366 316.134 clipbox
986.143479 653.486009 m
1293.915774 656.668405 l
1340.24012 658.194857 l
1367.338126 659.25169 l
1386.564466 659.985972 l
1401.477575 661.722083 l
1428.57558 664.875094 l
1447.801921 666.469393 l
1509.039376 672.089269 l
1555.363722 676.614795 l
1582.461728 680.930841 l
1601.688069 685.446681 l
stroke
grestore
2 setlinecap
[] 0 setdash
1.000 0.000 0.000 setrgbcolor
gsave
646.322 429.28 955.366 316.134 clipbox
986.143479 335.646477 m
1293.915774 374.836257 l
1340.24012 391.101486 l
1367.338126 418.551564 l
1386.564466 430.291265 l
1401.477575 442.907557 l
1428.57558 472.908695 l
1447.801921 498.008088 l
1509.039376 583.870653 l
1555.363722 652.105259 l
1582.461728 697.478686 l
1601.688069 725.901023 l
stroke
grestore
0 setlinecap
[4 6.6] 0 setdash
1.000 0.647 0.000 setrgbcolor
gsave
646.322 429.28 955.366 316.134 clipbox
986.143479 418.551564 m
1293.915774 426.642328 l
1340.24012 426.642328 l
1367.338126 430.291265 l
1386.564466 430.291265 l
1401.477575 430.291265 l
1428.57558 433.718915 l
1447.801921 433.718915 l
1509.039376 448.29629 l
1555.363722 461.931327 l
1582.461728 472.908695 l
1601.688069 483.49343 l
stroke
grestore
0.800 setlinewidth
0 setlinejoin
2 setlinecap
[] 0 setdash
0.000 setgray
gsave
955.36625 316.13375 m
955.36625 745.41375 l
stroke
grestore
gsave
1601.688069 316.13375 m
1601.688069 745.41375 l
stroke
grestore
gsave
955.36625 316.13375 m
1601.688069 316.13375 l
stroke
grestore
gsave
955.36625 745.41375 m
1601.688069 745.41375 l
stroke
grestore
/DejaVuSans 40.000 selectfont
gsave

1128.831847 753.741875 translate
0.000000 rotate
0.000000 0 m /E glyphshow
25.273438 0 m /x glyphshow
47.695312 0 m /e glyphshow
72.304688 0 m /c glyphshow
94.296875 0 m /u glyphshow
119.648438 0 m /t glyphshow
135.332031 0 m /i glyphshow
146.445312 0 m /o glyphshow
170.917969 0 m /n glyphshow
196.269531 0 m /space glyphshow
208.984375 0 m /t glyphshow
224.667969 0 m /i glyphshow
235.781250 0 m /m glyphshow
274.746094 0 m /e glyphshow
grestore
1.000 setlinewidth
0 setlinecap
0.800 setgray
gsave
722.039546 7.2 m
913.352046 7.2 l
917.352046 7.2 919.352046 9.2 919.352046 13.2 c
919.352046 142.29375 l
919.352046 146.29375 917.352046 148.29375 913.352046 148.29375 c
722.039546 148.29375 l
718.039546 148.29375 716.039546 146.29375 716.039546 142.29375 c
716.039546 13.2 l
716.039546 9.2 718.039546 7.2 722.039546 7.2 c
cl
gsave
1.000 setgray
fill
grestore
stroke
grestore
4.000 setlinewidth
1 setlinejoin
[14.8 6.4] 0 setdash
0.000 0.000 1.000 setrgbcolor
gsave
728.039546 123.996875 m
758.039546 123.996875 l
788.039546 123.996875 l
stroke
grestore
0.000 setgray
/DejaVuSans 30.000 selectfont
gsave

812.039546 113.496875 translate
0.000000 rotate
0.000000 0 m /J glyphshow
8.847656 0 m /e glyphshow
27.304688 0 m /n glyphshow
46.318359 0 m /a glyphshow
grestore
2 setlinecap
[] 0 setdash
1.000 0.000 0.000 setrgbcolor
gsave
728.039546 79.965625 m
758.039546 79.965625 l
788.039546 79.965625 l
stroke
grestore
0.000 setgray
gsave

812.039546 69.465625 translate
0.000000 rotate
0.000000 0 m /L glyphshow
16.713867 0 m /i glyphshow
25.048828 0 m /R glyphshow
44.518555 0 m /o glyphshow
62.873047 0 m /T glyphshow
grestore
0 setlinecap
[4 6.6] 0 setdash
1.000 0.647 0.000 setrgbcolor
gsave
728.039546 35.934375 m
758.039546 35.934375 l
788.039546 35.934375 l
stroke
grestore
0.000 setgray
gsave

812.039546 25.434375 translate
0.000000 rotate
0.000000 0 m /R glyphshow
20.844727 0 m /D glyphshow
43.945312 0 m /F glyphshow
60.076172 0 m /o glyphshow
77.555664 0 m /x glyphshow
grestore

end
showpage
