real_time,user_time,sys_time,max_rss,max_vsz
9173,9991,0,2432,4092
8860,9990,0,2388,4092
9176,6644,3328,2412,4092
9158,9991,0,2324,4092
9064,9935,0,2452,4092
9295,9990,0,2440,4092
9015,9958,0,2448,4092
9044,9989,0,2416,4092
9220,9968,0,2452,4092
9180,9968,0,2452,4092
10030,9993,0,2456,4092
9081,9992,0,2440,4092
9156,9989,0,2324,4092
9077,9979,0,2456,4092
9024,6663,0,2432,4092
9038,6657,0,2320,4092
9101,6659,0,2456,4092
9024,9981,0,2416,4092
9444,9981,0,2452,4092
9480,9981,0,2452,4092
