real_time,user_time,sys_time,max_rss,max_vsz
343245,343049,0,5024,6808
322057,323129,0,5052,6808
340154,339789,0,4988,6808
327681,326444,0,5120,6808
319670,319850,0,5052,6808
330219,329822,0,5116,6808
327626,326502,0,4988,6808
326872,323103,3330,5076,6808
327000,323172,3330,4992,6808
329393,329678,0,5116,6808
329282,329807,0,5116,6808
327963,329817,0,4984,6808
328647,329827,0,5116,6808
321751,319849,0,5092,6808
320542,319825,0,5052,6808
332339,333133,0,5116,6808
321258,319846,0,5076,6808
320995,319823,0,5060,6808
322160,323179,0,5120,6808
321381,316506,3332,5044,6808
