real_time,user_time,sys_time,max_rss,max_vsz
3114711,3108540,3332,17640,19364
3096600,3088790,6654,17652,19364
3246168,3241886,3329,17552,19364
3091255,3085278,6663,17656,19364
3096756,3095358,0,17660,19364
3160647,3155285,3331,17640,19364
3126087,3122057,3331,17740,19364
3142799,3138528,3318,17636,19364
3136926,3125371,13323,17740,19364
3209962,3204904,3331,17548,19364
3140927,3135231,6660,17548,19364
3213020,3211799,0,17636,19364
3134266,3128582,3332,17616,19364
3222015,3211793,9994,17660,19364
3183107,3175345,3332,17676,19364
3195573,3195133,0,17604,19364
3127231,3122044,3332,17656,19364
3211780,3208478,0,17656,19364
3174749,3168484,3332,17636,19364
3208459,3201714,3332,17588,19364
