real_time,user_time,sys_time,max_rss,max_vsz
26217,26619,0,2748,4488
25359,26629,0,2676,4488
25962,23240,0,2740,4488
26330,23283,0,2732,4488
26346,23233,3304,2748,4488
27236,23274,3330,2712,4488
27325,26544,0,2676,4488
27204,23275,3328,2752,4488
25657,26632,0,2708,4488
25483,23279,0,2744,4488
25719,26633,0,2752,4488
25683,26586,0,2748,4488
25558,23310,0,2616,4488
24985,23306,3331,2656,4488
25488,23311,3325,2732,4488
25074,23313,0,2616,4488
26058,26630,0,2724,4488
25426,26610,0,2748,4488
25832,26566,0,2748,4488
25741,23290,0,2748,4488
