real_time,user_time,sys_time,max_rss,max_vsz
1411798,0,0,141488,10743612
1414366,0,3333,144580,10743612
1456495,0,0,144108,10743612
1423420,3333,0,143072,10743612
1429037,3333,0,140804,10743612
1489154,0,0,145700,10743612
1443751,0,3333,145688,10743612
1427147,0,0,140372,10678076
1403464,3327,0,143328,10743612
1450442,0,6660,143044,10678076
1433081,0,0,142020,10743612
1467297,0,3328,147428,10745084
1434010,0,3333,139168,10743612
1400356,0,3333,141392,10743612
1437413,0,3333,142176,10678076
1463479,0,3333,142368,10743612
1446826,0,0,145664,10743612
1433782,3333,0,146336,10743612
1440246,3328,0,142708,10743612
1456704,3333,0,143596,10678076
