real_time,user_time,sys_time,max_rss,max_vsz
962347,0,0,102256,10743612
958733,3329,0,102540,10743612
979661,0,3333,102720,10743612
957940,0,3333,102436,10743612
987254,0,3333,102592,10678076
950700,3333,0,102000,10743612
974576,3332,0,102608,10743612
960700,0,3329,102516,10743612
992620,0,3327,104044,10743612
1020553,3333,0,102364,10743612
1013669,0,0,102496,10743612
983964,0,0,102292,10743612
973600,0,3333,102372,10743612
963416,3331,0,102028,10743612
968035,0,0,102432,10743612
995703,0,3327,102424,10743612
990109,0,0,102404,10743612
978958,0,3333,101936,10743612
949727,0,0,102220,10743612
971137,6654,0,102468,10743612
