real_time,user_time,sys_time,max_rss,max_vsz
270483,263166,6663,8324,10004
252514,249765,3331,8220,10004
264294,263161,3329,8336,10004
256757,249603,6661,8348,10004
257613,256509,0,8344,10004
253507,253158,0,8284,10004
254109,253187,3332,8284,10004
252529,253194,0,8256,10004
252160,243172,9996,8284,10004
258599,256527,3330,8312,10004
262678,259268,3331,8276,10004
265240,266311,0,8224,10004
249478,246479,3332,8276,10004
253876,253164,0,8348,10004
252642,253169,0,8324,10004
254971,249742,3324,8280,10004
250866,253128,0,8348,10004
253017,253205,0,8284,10004
253839,249843,3331,8216,10004
250561,249869,3333,8328,10004
