real_time,user_time,sys_time,max_rss,max_vsz
941546,0,3333,102116,10743612
910343,0,0,101892,10743612
927178,3333,0,101884,10743612
911181,0,0,101872,10743612
894495,0,0,102024,10743612
911664,0,0,102072,10743612
913184,0,0,102180,10678076
902032,0,3329,101832,10743612
920604,0,0,101988,10743612
918053,0,3333,102308,10678076
923233,0,3333,102164,10743612
897310,3333,0,101856,10743612
914139,0,0,102068,10743612
925646,0,0,101800,10678076
901498,0,0,102164,10678076
908088,0,0,102112,10743612
908233,0,0,101920,10743612
904029,0,3329,102008,10678076
920705,0,0,102036,10743612
911144,0,0,102064,10743612
