real_time,user_time,sys_time,max_rss,max_vsz
13486,9981,3331,22576,224607756
13374,6629,3330,22780,224607756
13111,3329,6662,22600,224607756
14243,13314,0,22664,224607756
13905,9973,0,22680,224607756
14060,6660,3314,22448,224607756
13949,6656,6659,22600,224607756
14072,13309,3333,22748,224607756
13526,13317,0,22748,224607756
13706,9964,3289,22936,224607756
13538,6656,6660,22664,224607756
13724,6659,3327,22512,224607756
13585,13310,0,22788,224607756
13812,9985,3329,22368,224607756
14162,13315,0,22752,224607756
13532,13294,0,22556,224607756
14411,6637,9952,22664,224607756
16072,13313,3323,22784,224607756
19684,13286,6653,22276,224607756
19458,9931,9971,22280,224607756
