real_time,user_time,sys_time,max_rss,max_vsz
15581,6657,6645,23160,224607756
15305,13307,0,22856,224607756
17568,13320,3329,23272,224607756
16476,6662,3324,23140,224607756
17178,16629,0,22940,224607756
16894,13280,3322,23028,224607756
16428,9989,3329,23156,224607756
15921,16618,0,22916,224607756
16390,9991,6656,23268,224607756
16479,9978,6659,23180,224607756
16038,13289,3331,23364,224607756
15677,16644,0,23360,224607756
15639,9954,3325,23236,224607756
16514,13312,3329,23232,224607756
16185,13325,3328,23236,224607756
15892,9988,0,22936,224607756
15930,9989,3328,23088,224607756
15502,9982,0,23236,224607756
16094,9986,0,23232,224607756
15722,13319,3330,23136,224607756
