real_time,user_time,sys_time,max_rss,max_vsz
15203,13279,0,22508,224607756
15339,9985,3284,22580,224607756
15193,9954,6660,22468,224607756
15528,13319,0,22496,224607756
14592,9954,6661,22564,224607756
14867,13308,0,22500,224607756
15492,13322,0,22636,224607756
15096,9985,3330,22500,224607756
14905,13325,3326,22260,224607756
15298,9988,6658,22316,224607756
14987,13217,0,22732,224607756
15588,6645,3272,22356,224607756
15781,13201,0,22284,224607756
15189,13286,3329,22280,224607756
16326,9993,3328,22468,224607756
15182,6656,6645,22500,224607756
15131,16626,0,22284,224607756
15430,13314,3323,22392,224607756
16056,13308,3325,22508,224607756
15968,6655,6664,22636,224607756
