real_time,user_time,sys_time,max_rss,max_vsz
13192,13317,0,2724,4356
12835,13315,0,2592,4356
11774,13277,0,2592,4356
12715,13280,0,2720,4356
11913,9991,0,2720,4356
11909,9921,0,2724,4356
12372,13315,0,2592,4356
12509,13313,0,2712,4356
12432,13305,0,2708,4356
12114,9986,3312,2628,4356
12105,9990,0,2648,4356
11854,13279,0,2592,4356
12136,13283,0,2720,4356
11710,9993,0,2724,4356
11850,13319,0,2716,4356
12549,13312,0,2680,4356
12600,13281,0,2588,4356
12517,13319,0,2596,4356
12887,9953,3319,2700,4356
12259,9983,0,2724,4356
