real_time,user_time,sys_time,max_rss,max_vsz
21229,19978,0,2768,4500
20768,19968,0,2752,4500
20434,19899,0,2764,4500
20112,19912,0,2740,4500
20211,19954,0,2640,4500
20252,19953,0,2764,4500
19860,16642,3331,2764,4500
19777,19969,0,2696,4500
19993,19973,0,2636,4500
19789,19978,0,2740,4500
20110,19897,0,2760,4500
20042,19976,0,2756,4500
19859,19934,0,2692,4500
19882,19972,0,2752,4500
19955,19945,0,2764,4500
20022,19954,0,2752,4500
20043,19918,0,2632,4500
19753,19920,0,2756,4500
20327,19979,0,2636,4500
20446,19981,0,2728,4500
